{"photos":{"page":1,"pages":1010182,"perpage":2,"total":"2020363","photo":[{"id":"15165630350","owner":"84935187@N04","secret":"d6c66a346c","server":"2950","farm":3,"title":"Apple","ispublic":1,"isfriend":0,"isfamily":0,"dateupload":"1411665338","views":"78820","url_s":"https:\/\/live.staticflickr.com\/2950\/15165630350_d6c66a346c_m.jpg","height_s":"160","width_s":"240","url_m":"https:\/\/live.staticflickr.com\/2950\/15165630350_d6c66a346c.jpg","height_m":"333","width_m":"500"},{"id":"21982802134","owner":"9116178@N05","secret":"e4c135c7f8","server":"647","farm":1,"title":"Apples","ispublic":1,"isfriend":0,"isfamily":0,"dateupload":"1446214302","views":"35018","url_s":"https:\/\/live.staticflickr.com\/647\/21982802134_e4c135c7f8_m.jpg","height_s":"240","width_s":"180","url_m":"https:\/\/live.staticflickr.com\/647\/21982802134_e4c135c7f8.jpg","height_m":"500","width_m":"375"}]},"stat":"ok"}