{"photos":{"page":4,"pages":51790,"perpage":50,"total":"2589493","photo":[{"id":"33174832764","owner":"143422623@N02","secret":"069d888848","server":"2913","farm":3,"title":"Cat","ispublic":1,"isfriend":0,"isfamily":0,"dateupload":"1492111189","views":"2853","url_s":"https:\/\/live.staticflickr.com\/2913\/33174832764_069d888848_m.jpg","height_s":"240","width_s":"159","url_m":"https:\/\/live.staticflickr.com\/2913\/33174832764_069d888848.jpg","height_m":"500","width_m":"332"},{"id":"33871494874","owner":"20674281@N03","secret":"dce6b5154b","server":"4182","farm":5,"title":"cats","ispublic":1,"isfriend":0,"isfamily":0,"dateupload":"1495021829","views":"25937","url_s":"https:\/\/live.staticflickr.com\/4182\/33871494874_dce6b5154b_m.jpg","height_s":"240","width_s":"180","url_m":"https:\/\/live.staticflickr.com\/4182\/33871494874_dce6b5154b.jpg","height_m":"500","width_m":"375"},{"id":"34017987735","owner":"143422623@N02","secret":"4f2b711378","server":"2847","farm":3,"title":"Cat","ispublic":1,"isfriend":0,"isfamily":0,"dateupload":"1492111189","views":"2753","url_s":"https:\/\/live.staticflickr.com\/2847\/34017987735_4f2b711378_m.jpg","height_s":"160","width_s":"240","url_m":"https:\/\/live.staticflickr.com\/2847\/34017987735_4f2b711378.jpg","height_m":"333","width_m":"500"},{"id":"5889922648","owner":"68115097@N00","secret":"f4cd3f81eb","server":"5302","farm":6,"title":"Cat","ispublic":1,"isfriend":0,"isfamily":0,"dateupload":"1309490680","views":"19795","url_s":"https:\/\/live.staticflickr.com\/5302\/5889922648_f4cd3f81eb_m.jpg","height_s":"159","width_s":"240","url_m":"https:\/\/live.staticflickr.com\/5302\/5889922648_f4cd3f81eb.jpg","height_m":"332","width_m":"500"},{"id":"6864191906","owner":"40668827@N06","secret":"3ba05a8e5b","server":"7096","farm":8,"title":"cat","ispublic":1,"isfriend":0,"isfamily":0,"dateupload":"1332570407","views":"24405","url_s":"https:\/\/live.staticflickr.com\/7096\/6864191906_3ba05a8e5b_m.jpg","height_s":"171","width_s":"240","url_m":"https:\/\/live.staticflickr.com\/7096\/6864191906_3ba05a8e5b.jpg","height_m":"357","width_m":"500"},{"id":"5977704609","owner":"63931124@N07","secret":"f886a10455","server":"6012","farm":7,"title":"Cat","ispublic":1,"isfriend":0,"isfamily":0,"dateupload":"1311693588","views":"22190","url_s":"https:\/\/live.staticflickr.com\/6012\/5977704609_f886a10455_m.jpg","height_s":"130","width_s":"240","url_m":"https:\/\/live.staticflickr.com\/6012\/5977704609_f886a10455.jpg","height_m":"271","width_m":"500"},{"id":"9680261486","owner":"54169606@N05","secret":"752520b4de","server":"3740","farm":4,"title":"Cat","ispublic":1,"isfriend":0,"isfamily":0,"dateupload":"1378386268","views":"19815","url_s":"https:\/\/live.staticflickr.com\/3740\/9680261486_752520b4de_m.jpg","height_s":"180","width_s":"240","url_m":"https:\/\/live.staticflickr.com\/3740\/9680261486_752520b4de.jpg","height_m":"375","width_m":"500"},{"id":"16471005211","owner":"40832502@N06","secret":"f71e98aa12","server":"7430","farm":8,"title":"Cat","ispublic":1,"isfriend":0,"isfamily":0,"dateupload":"1423403248","views":"60196","url_s":"https:\/\/live.staticflickr.com\/7430\/16471005211_f71e98aa12_m.jpg","height_s":"158","width_s":"240","url_m":"https:\/\/live.staticflickr.com\/7430\/16471005211_f71e98aa12.jpg","height_m":"330","width_m":"500"},{"id":"8723401971","owner":"78453207@N00","secret":"f08de178f1","server":"7301","farm":8,"title":"cats","ispublic":1,"isfriend":0,"isfamily":0,"dateupload":"1368132346","views":"16632","url_s":"https:\/\/live.staticflickr.com\/7301\/8723401971_f08de178f1_m.jpg","height_s":"240","width_s":"160","url_m":"https:\/\/live.staticflickr.com\/7301\/8723401971_f08de178f1.jpg","height_m":"500","width_m":"333"},{"id":"5463825545","owner":"44760092@N05","secret":"bc288d7c78","server":"5298","farm":6,"title":"Cats","ispublic":1,"isfriend":0,"isfamily":0,"dateupload":"1298273311","views":"20550","url_s":"https:\/\/live.staticflickr.com\/5298\/5463825545_bc288d7c78_m.jpg","height_s":"240","width_s":"216","url_m":"https:\/\/live.staticflickr.com\/5298\/5463825545_bc288d7c78.jpg","height_m":"500","width_m":"450"},{"id":"15695108946","owner":"40832502@N06","secret":"0d86322e28","server":"5598","farm":6,"title":"Cat","ispublic":1,"isfriend":0,"isfamily":0,"dateupload":"1415213513","views":"39462","url_s":"https:\/\/live.staticflickr.com\/5598\/15695108946_0d86322e28_m.jpg","height_s":"160","width_s":"240","url_m":"https:\/\/live.staticflickr.com\/5598\/15695108946_0d86322e28.jpg","height_m":"333","width_m":"500"},{"id":"86485471","owner":"55901390@N00","secret":"fcba55bb2f","server":"9","farm":1,"title":"cat","ispublic":1,"isfriend":0,"isfamily":0,"dateupload":"1137264513","views":"19932","url_s":"https:\/\/live.staticflickr.com\/9\/86485471_fcba55bb2f_m.jpg","height_s":"180","width_s":"240","url_m":"https:\/\/live.staticflickr.com\/9\/86485471_fcba55bb2f.jpg","height_m":"375","width_m":"500"},{"id":"5655186625","owner":"53123916@N05","secret":"2eedca4fc6","server":"5102","farm":6,"title":"Cat","ispublic":1,"isfriend":0,"isfamily":0,"dateupload":"1303773729","views":"21190","url_s":"https:\/\/live.staticflickr.com\/5102\/5655186625_2eedca4fc6_m.jpg","height_s":"180","width_s":"240","url_m":"https:\/\/live.staticflickr.com\/5102\/5655186625_2eedca4fc6.jpg","height_m":"375","width_m":"500"},{"id":"8311701653","owner":"78924992@N07","secret":"1ddc37bc42","server":"8222","farm":9,"title":"Cat","ispublic":1,"isfriend":0,"isfamily":0,"dateupload":"1356565810","views":"35058","url_s":"https:\/\/live.staticflickr.com\/8222\/8311701653_1ddc37bc42_m.jpg","height_s":"142","width_s":"240","url_m":"https:\/\/live.staticflickr.com\/8222\/8311701653_1ddc37bc42.jpg","height_m":"296","width_m":"500"},{"id":"116439254","owner":"31276374@N00","secret":"2eac03653f","server":"48","farm":1,"title":"cats","ispublic":1,"isfriend":0,"isfamily":0,"dateupload":"1143054105","views":"12975","url_s":"https:\/\/live.staticflickr.com\/48\/116439254_2eac03653f_m.jpg","height_s":"240","width_s":"188","url_m":"https:\/\/live.staticflickr.com\/48\/116439254_2eac03653f.jpg","height_m":"500","width_m":"391"},{"id":"26569790555","owner":"21692577@N02","secret":"97ceebc9b6","server":"1711","farm":2,"title":"Cat","ispublic":1,"isfriend":0,"isfamily":0,"dateupload":"1461298151","views":"18680","url_s":"https:\/\/live.staticflickr.com\/1711\/26569790555_97ceebc9b6_m.jpg","height_s":"240","width_s":"183","url_m":"https:\/\/live.staticflickr.com\/1711\/26569790555_97ceebc9b6.jpg","height_m":"500","width_m":"382"},{"id":"46443349634","owner":"50331573@N00","secret":"45c79e5bf9","server":"7900","farm":8,"title":"Cat","ispublic":1,"isfriend":0,"isfamily":0,"dateupload":"1550760237","views":"9141","url_s":"https:\/\/live.staticflickr.com\/7900\/46443349634_45c79e5bf9_m.jpg","height_s":"240","width_s":"240","url_m":"https:\/\/live.staticflickr.com\/7900\/46443349634_45c79e5bf9.jpg","height_m":"500","width_m":"500"},{"id":"11776714154","owner":"99089231@N04","secret":"ac0c5cbabb","server":"7346","farm":8,"title":"Cat","ispublic":1,"isfriend":0,"isfamily":0,"dateupload":"1388934119","views":"22286","url_s":"https:\/\/live.staticflickr.com\/7346\/11776714154_ac0c5cbabb_m.jpg","height_s":"240","width_s":"160","url_m":"https:\/\/live.staticflickr.com\/7346\/11776714154_ac0c5cbabb.jpg","height_m":"500","width_m":"333"},{"id":"16363338049","owner":"124462473@N07","secret":"b2af3522f0","server":"8622","farm":9,"title":"Cat","ispublic":1,"isfriend":0,"isfamily":0,"dateupload":"1424099862","views":"20283","url_s":"https:\/\/live.staticflickr.com\/8622\/16363338049_b2af3522f0_m.jpg","height_s":"160","width_s":"240","url_m":"https:\/\/live.staticflickr.com\/8622\/16363338049_b2af3522f0.jpg","height_m":"333","width_m":"500"},{"id":"11923713264","owner":"99089231@N04","secret":"1f6cef7102","server":"5477","farm":6,"title":"Cat","ispublic":1,"isfriend":0,"isfamily":0,"dateupload":"1389594712","views":"27489","url_s":"https:\/\/live.staticflickr.com\/5477\/11923713264_1f6cef7102_m.jpg","height_s":"160","width_s":"240","url_m":"https:\/\/live.staticflickr.com\/5477\/11923713264_1f6cef7102.jpg","height_m":"333","width_m":"500"},{"id":"6080311972","owner":"66802434@N04","secret":"055c158da9","server":"6061","farm":7,"title":"Cat","ispublic":1,"isfriend":0,"isfamily":0,"dateupload":"1314292194","views":"19549","url_s":"https:\/\/live.staticflickr.com\/6061\/6080311972_055c158da9_m.jpg","height_s":"169","width_s":"240","url_m":"https:\/\/live.staticflickr.com\/6061\/6080311972_055c158da9.jpg","height_m":"353","width_m":"500"},{"id":"5519956181","owner":"58602680@N02","secret":"ddea7f31c8","server":"5256","farm":6,"title":"Cats","ispublic":1,"isfriend":0,"isfamily":0,"dateupload":"1299956545","views":"26412","url_s":"https:\/\/live.staticflickr.com\/5256\/5519956181_ddea7f31c8_m.jpg","height_s":"159","width_s":"240","url_m":"https:\/\/live.staticflickr.com\/5256\/5519956181_ddea7f31c8.jpg","height_m":"331","width_m":"500"},{"id":"231963178","owner":"86515706@N00","secret":"397a845110","server":"85","farm":1,"title":"cat","ispublic":1,"isfriend":0,"isfamily":0,"dateupload":"1157219654","views":"3570","url_s":"https:\/\/live.staticflickr.com\/85\/231963178_397a845110_m.jpg","height_s":"192","width_s":"240","url_m":"https:\/\/live.staticflickr.com\/85\/231963178_397a845110.jpg","height_m":"400","width_m":"500"},{"id":"6861250190","owner":"34542454@N02","secret":"1983fd1db7","server":"7179","farm":8,"title":"cats","ispublic":1,"isfriend":0,"isfamily":0,"dateupload":"1332468093","views":"15083","url_s":"https:\/\/live.staticflickr.com\/7179\/6861250190_1983fd1db7_m.jpg","height_s":"191","width_s":"240","url_m":"https:\/\/live.staticflickr.com\/7179\/6861250190_1983fd1db7.jpg","height_m":"398","width_m":"500"},{"id":"17465642266","owner":"40832502@N06","secret":"3ba7b5af97","server":"5463","farm":6,"title":"Cat","ispublic":1,"isfriend":0,"isfamily":0,"dateupload":"1431271569","views":"68577","url_s":"https:\/\/live.staticflickr.com\/5463\/17465642266_3ba7b5af97_m.jpg","height_s":"161","width_s":"240","url_m":"https:\/\/live.staticflickr.com\/5463\/17465642266_3ba7b5af97.jpg","height_m":"336","width_m":"500"},{"id":"23485570748","owner":"42247442@N03","secret":"ea93e07d0b","server":"4464","farm":5,"title":"Cat","ispublic":1,"isfriend":0,"isfamily":0,"dateupload":"1506452866","views":"11934","url_s":"https:\/\/live.staticflickr.com\/4464\/23485570748_ea93e07d0b_m.jpg","height_s":"167","width_s":"240","url_m":"https:\/\/live.staticflickr.com\/4464\/23485570748_ea93e07d0b.jpg","height_m":"347","width_m":"500"},{"id":"45925416992","owner":"73422502@N08","secret":"c9caac8cb9","server":"4838","farm":5,"title":"Cat","ispublic":1,"isfriend":0,"isfamily":0,"dateupload":"1542741926","views":"15959","url_s":"https:\/\/live.staticflickr.com\/4838\/45925416992_c9caac8cb9_m.jpg","height_s":"240","width_s":"240","url_m":"https:\/\/live.staticflickr.com\/4838\/45925416992_c9caac8cb9.jpg","height_m":"500","width_m":"500"},{"id":"15110843477","owner":"127185787@N07","secret":"4a3c948d5d","server":"5556","farm":6,"title":"cat","ispublic":1,"isfriend":0,"isfamily":0,"dateupload":"1411221281","views":"18151","url_s":"https:\/\/live.staticflickr.com\/5556\/15110843477_4a3c948d5d_m.jpg","height_s":"160","width_s":"240","url_m":"https:\/\/live.staticflickr.com\/5556\/15110843477_4a3c948d5d.jpg","height_m":"333","width_m":"500"},{"id":"47097585394","owner":"17103482@N00","secret":"a711f8512f","server":"65535","farm":66,"title":"CAT!","ispublic":1,"isfriend":0,"isfamily":0,"dateupload":"1558326700","views":"7282","url_s":"https:\/\/live.staticflickr.com\/65535\/47097585394_a711f8512f_m.jpg","height_s":"160","width_s":"240","url_m":"https:\/\/live.staticflickr.com\/65535\/47097585394_a711f8512f.jpg","height_m":"333","width_m":"500"},{"id":"15294251701","owner":"127185787@N07","secret":"ed062fb72b","server":"3918","farm":4,"title":"cat","ispublic":1,"isfriend":0,"isfamily":0,"dateupload":"1411221277","views":"20693","url_s":"https:\/\/live.staticflickr.com\/3918\/15294251701_ed062fb72b_m.jpg","height_s":"160","width_s":"240","url_m":"https:\/\/live.staticflickr.com\/3918\/15294251701_ed062fb72b.jpg","height_m":"333","width_m":"500"},{"id":"8086459273","owner":"50154521@N08","secret":"fc711cc4d8","server":"8326","farm":9,"title":"Cat","ispublic":1,"isfriend":0,"isfamily":0,"dateupload":"1350227547","views":"17164","url_s":"https:\/\/live.staticflickr.com\/8326\/8086459273_fc711cc4d8_m.jpg","height_s":"160","width_s":"240","url_m":"https:\/\/live.staticflickr.com\/8326\/8086459273_fc711cc4d8.jpg","height_m":"333","width_m":"500"},{"id":"12755937833","owner":"115984684@N05","secret":"a8478b8171","server":"3729","farm":4,"title":"cat","ispublic":1,"isfriend":0,"isfamily":0,"dateupload":"1393277654","views":"27639","url_s":"https:\/\/live.staticflickr.com\/3729\/12755937833_a8478b8171_m.jpg","height_s":"240","width_s":"180","url_m":"https:\/\/live.staticflickr.com\/3729\/12755937833_a8478b8171.jpg","height_m":"500","width_m":"375"},{"id":"33767027388","owner":"166352944@N04","secret":"c3998eb5f7","server":"65535","farm":66,"title":"Cat","ispublic":1,"isfriend":0,"isfamily":0,"dateupload":"1555692832","views":"3650","url_s":"https:\/\/live.staticflickr.com\/65535\/33767027388_c3998eb5f7_m.jpg","height_s":"180","width_s":"240","url_m":"https:\/\/live.staticflickr.com\/65535\/33767027388_c3998eb5f7.jpg","height_m":"375","width_m":"500"},{"id":"9648025730","owner":"98294136@N03","secret":"4a7ef4cfa1","server":"7349","farm":8,"title":"Cat","ispublic":1,"isfriend":0,"isfamily":0,"dateupload":"1378056332","views":"18004","url_s":"https:\/\/live.staticflickr.com\/7349\/9648025730_4a7ef4cfa1_m.jpg","height_s":"240","width_s":"160","url_m":"https:\/\/live.staticflickr.com\/7349\/9648025730_4a7ef4cfa1.jpg","height_m":"500","width_m":"333"},{"id":"31389231292","owner":"142409708@N08","secret":"e2444d0260","server":"280","farm":1,"title":"Cat","ispublic":1,"isfriend":0,"isfamily":0,"dateupload":"1481314026","views":"24046","url_s":"https:\/\/live.staticflickr.com\/280\/31389231292_e2444d0260_m.jpg","height_s":"240","width_s":"213","url_m":"https:\/\/live.staticflickr.com\/280\/31389231292_e2444d0260.jpg","height_m":"500","width_m":"444"},{"id":"8955675548","owner":"93846402@N00","secret":"20632306b9","server":"8395","farm":9,"title":"Cat","ispublic":1,"isfriend":0,"isfamily":0,"dateupload":"1370402738","views":"27379","url_s":"https:\/\/live.staticflickr.com\/8395\/8955675548_20632306b9_m.jpg","height_s":"240","width_s":"202","url_m":"https:\/\/live.staticflickr.com\/8395\/8955675548_20632306b9.jpg","height_m":"500","width_m":"421"},{"id":"6754553201","owner":"22895884@N07","secret":"3a41aae761","server":"7153","farm":8,"title":"Cat","ispublic":1,"isfriend":0,"isfamily":0,"dateupload":"1327408613","views":"84609","url_s":"https:\/\/live.staticflickr.com\/7153\/6754553201_3a41aae761_m.jpg","height_s":"191","width_s":"240","url_m":"https:\/\/live.staticflickr.com\/7153\/6754553201_3a41aae761.jpg","height_m":"399","width_m":"500"},{"id":"10244828655","owner":"91847806@N06","secret":"a7a03de945","server":"3748","farm":4,"title":"cat","ispublic":1,"isfriend":0,"isfamily":0,"dateupload":"1381668451","views":"8067","url_s":"https:\/\/live.staticflickr.com\/3748\/10244828655_a7a03de945_m.jpg","height_s":"160","width_s":"240","url_m":"https:\/\/live.staticflickr.com\/3748\/10244828655_a7a03de945.jpg","height_m":"333","width_m":"500"},{"id":"16973619337","owner":"61126431@N03","secret":"2fc7e17b5e","server":"7688","farm":8,"title":"cat","ispublic":1,"isfriend":0,"isfamily":0,"dateupload":"1429303131","views":"19960","url_s":"https:\/\/live.staticflickr.com\/7688\/16973619337_2fc7e17b5e_m.jpg","height_s":"230","width_s":"240","url_m":"https:\/\/live.staticflickr.com\/7688\/16973619337_2fc7e17b5e.jpg","height_m":"479","width_m":"500"},{"id":"16075824209","owner":"59151890@N07","secret":"7bfec6cccf","server":"8624","farm":9,"title":"cat","ispublic":1,"isfriend":0,"isfamily":0,"dateupload":"1421052130","views":"24668","url_s":"https:\/\/live.staticflickr.com\/8624\/16075824209_7bfec6cccf_m.jpg","height_s":"180","width_s":"240","url_m":"https:\/\/live.staticflickr.com\/8624\/16075824209_7bfec6cccf.jpg","height_m":"375","width_m":"500"},{"id":"9695290849","owner":"101446992@N02","secret":"0d359cefae","server":"2806","farm":3,"title":"cat","ispublic":1,"isfriend":0,"isfamily":0,"dateupload":"1378608714","views":"14824","url_s":"https:\/\/live.staticflickr.com\/2806\/9695290849_0d359cefae_m.jpg","height_s":"180","width_s":"240","url_m":"https:\/\/live.staticflickr.com\/2806\/9695290849_0d359cefae.jpg","height_m":"375","width_m":"500"},{"id":"8170456007","owner":"40873435@N00","secret":"598c130c1e","server":"8199","farm":9,"title":"cat","ispublic":1,"isfriend":0,"isfamily":0,"dateupload":"1352498183","views":"6041","url_s":"https:\/\/live.staticflickr.com\/8199\/8170456007_598c130c1e_m.jpg","height_s":"180","width_s":"240","url_m":"https:\/\/live.staticflickr.com\/8199\/8170456007_598c130c1e.jpg","height_m":"375","width_m":"500"},{"id":"4735390680","owner":"42918000@N04","secret":"dc097563f6","server":"4074","farm":5,"title":"cat","ispublic":1,"isfriend":0,"isfamily":0,"dateupload":"1277547601","views":"15636","url_s":"https:\/\/live.staticflickr.com\/4074\/4735390680_dc097563f6_m.jpg","height_s":"160","width_s":"240","url_m":"https:\/\/live.staticflickr.com\/4074\/4735390680_dc097563f6.jpg","height_m":"333","width_m":"500"},{"id":"5107150247","owner":"41524274@N06","secret":"175b645c5c","server":"1426","farm":2,"title":"Cats,","ispublic":1,"isfriend":0,"isfamily":0,"dateupload":"1287847073","views":"19832","url_s":"https:\/\/live.staticflickr.com\/1426\/5107150247_175b645c5c_m.jpg","height_s":"225","width_s":"240","url_m":"https:\/\/live.staticflickr.com\/1426\/5107150247_175b645c5c.jpg","height_m":"469","width_m":"500"},{"id":"8272994957","owner":"73173176@N04","secret":"9b3bd48e14","server":"8219","farm":9,"title":"Cats","ispublic":1,"isfriend":0,"isfamily":0,"dateupload":"1355538598","views":"15538","url_s":"https:\/\/live.staticflickr.com\/8219\/8272994957_9b3bd48e14_m.jpg","height_s":"240","width_s":"180","url_m":"https:\/\/live.staticflickr.com\/8219\/8272994957_9b3bd48e14.jpg","height_m":"500","width_m":"375"},{"id":"12751305624","owner":"99038419@N03","secret":"7e66a502c9","server":"2817","farm":3,"title":"Cat","ispublic":1,"isfriend":0,"isfamily":0,"dateupload":"1393263121","views":"15867","url_s":"https:\/\/live.staticflickr.com\/2817\/12751305624_7e66a502c9_m.jpg","height_s":"160","width_s":"240","url_m":"https:\/\/live.staticflickr.com\/2817\/12751305624_7e66a502c9.jpg","height_m":"333","width_m":"500"},{"id":"7385450580","owner":"41655366@N06","secret":"bc72119a24","server":"5446","farm":6,"title":".cat.","ispublic":1,"isfriend":0,"isfamily":0,"dateupload":"1339930920","views":"19904","url_s":"https:\/\/live.staticflickr.com\/5446\/7385450580_bc72119a24_m.jpg","height_s":"159","width_s":"240","url_m":"https:\/\/live.staticflickr.com\/5446\/7385450580_bc72119a24.jpg","height_m":"331","width_m":"500"},{"id":"4438725327","owner":"39290047@N05","secret":"fc941c4872","server":"4062","farm":5,"title":"Cat","ispublic":1,"isfriend":0,"isfamily":0,"dateupload":"1268780232","views":"16828","url_s":"https:\/\/live.staticflickr.com\/4062\/4438725327_fc941c4872_m.jpg","height_s":"240","width_s":"180","url_m":"https:\/\/live.staticflickr.com\/4062\/4438725327_fc941c4872.jpg","height_m":"500","width_m":"375"},{"id":"6895468439","owner":"54169606@N05","secret":"81a2b7af46","server":"7182","farm":8,"title":"Cat","ispublic":1,"isfriend":0,"isfamily":0,"dateupload":"1329555697","views":"16789","url_s":"https:\/\/live.staticflickr.com\/7182\/6895468439_81a2b7af46_m.jpg","height_s":"180","width_s":"240","url_m":"https:\/\/live.staticflickr.com\/7182\/6895468439_81a2b7af46.jpg","height_m":"375","width_m":"500"},{"id":"8866259360","owner":"96590557@N06","secret":"6f830e095f","server":"2893","farm":3,"title":"cat","ispublic":1,"isfriend":0,"isfamily":0,"dateupload":"1369742838","views":"15786","url_s":"https:\/\/live.staticflickr.com\/2893\/8866259360_6f830e095f_m.jpg","height_s":"160","width_s":"240","url_m":"https:\/\/live.staticflickr.com\/2893\/8866259360_6f830e095f.jpg","height_m":"333","width_m":"500"}]},"stat":"ok"}