{"photos":{"page":2,"pages":51790,"perpage":50,"total":"2589493","photo":[{"id":"41752584655","owner":"164310828@N08","secret":"948b459e89","server":"1731","farm":2,"title":"Cat","ispublic":1,"isfriend":0,"isfamily":0,"dateupload":"1528401420","views":"11484","url_s":"https:\/\/live.staticflickr.com\/1731\/41752584655_948b459e89_m.jpg","height_s":"180","width_s":"240","url_m":"https:\/\/live.staticflickr.com\/1731\/41752584655_948b459e89.jpg","height_m":"375","width_m":"500"},{"id":"8744231097","owner":"68926234@N05","secret":"1e6fe3205a","server":"7284","farm":8,"title":"Cat","ispublic":1,"isfriend":0,"isfamily":0,"dateupload":"1368731537","views":"105857","url_s":"https:\/\/live.staticflickr.com\/7284\/8744231097_1e6fe3205a_m.jpg","height_s":"238","width_s":"240","url_m":"https:\/\/live.staticflickr.com\/7284\/8744231097_1e6fe3205a.jpg","height_m":"497","width_m":"500"},{"id":"16204040156","owner":"59151890@N07","secret":"91b62df661","server":"7522","farm":8,"title":"cat","ispublic":1,"isfriend":0,"isfamily":0,"dateupload":"1420720150","views":"54592","url_s":"https:\/\/live.staticflickr.com\/7522\/16204040156_91b62df661_m.jpg","height_s":"180","width_s":"240","url_m":"https:\/\/live.staticflickr.com\/7522\/16204040156_91b62df661.jpg","height_m":"375","width_m":"500"},{"id":"4105197605","owner":"21692577@N02","secret":"172a62d43c","server":"2782","farm":3,"title":"cats","ispublic":1,"isfriend":0,"isfamily":0,"dateupload":"1258294370","views":"93570","url_s":"https:\/\/live.staticflickr.com\/2782\/4105197605_172a62d43c_m.jpg","height_s":"152","width_s":"240","url_m":"https:\/\/live.staticflickr.com\/2782\/4105197605_172a62d43c.jpg","height_m":"316","width_m":"500"},{"id":"10137167724","owner":"98519622@N08","secret":"9248ce9010","server":"3795","farm":4,"title":"Cats,","ispublic":1,"isfriend":0,"isfamily":0,"dateupload":"1381152015","views":"47234","url_s":"https:\/\/live.staticflickr.com\/3795\/10137167724_9248ce9010_m.jpg","height_s":"184","width_s":"240","url_m":"https:\/\/live.staticflickr.com\/3795\/10137167724_9248ce9010.jpg","height_m":"383","width_m":"500"},{"id":"13064453633","owner":"44912907@N05","secret":"00e65bfb8b","server":"3468","farm":4,"title":"Cat","ispublic":1,"isfriend":0,"isfamily":0,"dateupload":"1394473451","views":"144676","url_s":"https:\/\/live.staticflickr.com\/3468\/13064453633_00e65bfb8b_m.jpg","height_s":"160","width_s":"240","url_m":"https:\/\/live.staticflickr.com\/3468\/13064453633_00e65bfb8b.jpg","height_m":"333","width_m":"500"},{"id":"16711016861","owner":"63066146@N03","secret":"b4fa660422","server":"8610","farm":9,"title":"cat","ispublic":1,"isfriend":0,"isfamily":0,"dateupload":"1425457314","views":"69574","url_s":"https:\/\/live.staticflickr.com\/8610\/16711016861_b4fa660422_m.jpg","height_s":"169","width_s":"240","url_m":"https:\/\/live.staticflickr.com\/8610\/16711016861_b4fa660422.jpg","height_m":"351","width_m":"500"},{"id":"5315429920","owner":"50183570@N00","secret":"115eceff67","server":"5203","farm":6,"title":"Cat","ispublic":1,"isfriend":0,"isfamily":0,"dateupload":"1293956717","views":"74313","url_s":"https:\/\/live.staticflickr.com\/5203\/5315429920_115eceff67_m.jpg","height_s":"240","width_s":"160","url_m":"https:\/\/live.staticflickr.com\/5203\/5315429920_115eceff67.jpg","height_m":"500","width_m":"333"},{"id":"10106714366","owner":"28596055@N02","secret":"195108d8ec","server":"2830","farm":3,"title":"cat","ispublic":1,"isfriend":0,"isfamily":0,"dateupload":"1381009851","views":"62765","url_s":"https:\/\/live.staticflickr.com\/2830\/10106714366_195108d8ec_m.jpg","height_s":"161","width_s":"240","url_m":"https:\/\/live.staticflickr.com\/2830\/10106714366_195108d8ec.jpg","height_m":"336","width_m":"500"},{"id":"34738948615","owner":"153399780@N03","secret":"9ba2eba156","server":"4177","farm":5,"title":"cat","ispublic":1,"isfriend":0,"isfamily":0,"dateupload":"1495129529","views":"59722","url_s":"https:\/\/live.staticflickr.com\/4177\/34738948615_9ba2eba156_m.jpg","height_s":"152","width_s":"240","url_m":"https:\/\/live.staticflickr.com\/4177\/34738948615_9ba2eba156.jpg","height_m":"316","width_m":"500"},{"id":"2387006042","owner":"53141625@N00","secret":"edca9ba1b8","server":"3262","farm":4,"title":"Cat","ispublic":1,"isfriend":0,"isfamily":0,"dateupload":"1207284852","views":"5844","url_s":"https:\/\/live.staticflickr.com\/3262\/2387006042_edca9ba1b8_m.jpg","height_s":"240","width_s":"180","url_m":"https:\/\/live.staticflickr.com\/3262\/2387006042_edca9ba1b8.jpg","height_m":"500","width_m":"375"},{"id":"1090235720","owner":"11296584@N02","secret":"da0ca9dc95","server":"1204","farm":2,"title":"cat","ispublic":1,"isfriend":0,"isfamily":0,"dateupload":"1186899408","views":"94082","url_s":"https:\/\/live.staticflickr.com\/1204\/1090235720_da0ca9dc95_m.jpg","height_s":"189","width_s":"240","url_m":"https:\/\/live.staticflickr.com\/1204\/1090235720_da0ca9dc95.jpg","height_m":"393","width_m":"500"},{"id":"16386660144","owner":"21692577@N02","secret":"a6c4026657","server":"8750","farm":9,"title":"cat","ispublic":1,"isfriend":0,"isfamily":0,"dateupload":"1427976188","views":"149424","url_s":"https:\/\/live.staticflickr.com\/8750\/16386660144_a6c4026657_m.jpg","height_s":"158","width_s":"240","url_m":"https:\/\/live.staticflickr.com\/8750\/16386660144_a6c4026657.jpg","height_m":"329","width_m":"500"},{"id":"4227907168","owner":"82056689@N00","secret":"3574201e36","server":"2734","farm":3,"title":"Cats","ispublic":1,"isfriend":0,"isfamily":0,"dateupload":"1262158333","views":"39500","url_s":"https:\/\/live.staticflickr.com\/2734\/4227907168_3574201e36_m.jpg","height_s":"180","width_s":"240","url_m":"https:\/\/live.staticflickr.com\/2734\/4227907168_3574201e36.jpg","height_m":"375","width_m":"500"},{"id":"4276542790","owner":"21692577@N02","secret":"1cb7804331","server":"4013","farm":5,"title":"cat","ispublic":1,"isfriend":0,"isfamily":0,"dateupload":"1263559210","views":"144286","url_s":"https:\/\/live.staticflickr.com\/4013\/4276542790_1cb7804331_m.jpg","height_s":"160","width_s":"240","url_m":"https:\/\/live.staticflickr.com\/4013\/4276542790_1cb7804331.jpg","height_m":"333","width_m":"500"},{"id":"27257168879","owner":"110904760@N03","secret":"464200ea90","server":"4733","farm":5,"title":"Cat","ispublic":1,"isfriend":0,"isfamily":0,"dateupload":"1513188796","views":"28100","url_s":"https:\/\/live.staticflickr.com\/4733\/27257168879_464200ea90_m.jpg","height_s":"160","width_s":"240","url_m":"https:\/\/live.staticflickr.com\/4733\/27257168879_464200ea90.jpg","height_m":"333","width_m":"500"},{"id":"40222398544","owner":"155451282@N05","secret":"d1bb1ce7b7","server":"817","farm":1,"title":"cat","ispublic":1,"isfriend":0,"isfamily":0,"dateupload":"1521600164","views":"33940","url_s":"https:\/\/live.staticflickr.com\/817\/40222398544_d1bb1ce7b7_m.jpg","height_s":"162","width_s":"240","url_m":"https:\/\/live.staticflickr.com\/817\/40222398544_d1bb1ce7b7.jpg","height_m":"338","width_m":"500"},{"id":"16363904376","owner":"92583854@N03","secret":"8d4ed5c124","server":"8659","farm":9,"title":"Cat","ispublic":1,"isfriend":0,"isfamily":0,"dateupload":"1422469346","views":"46292","url_s":"https:\/\/live.staticflickr.com\/8659\/16363904376_8d4ed5c124_m.jpg","height_s":"179","width_s":"240","url_m":"https:\/\/live.staticflickr.com\/8659\/16363904376_8d4ed5c124.jpg","height_m":"374","width_m":"500"},{"id":"41676479745","owner":"93202062@N02","secret":"ae6d27ee9d","server":"1729","farm":2,"title":"cat","ispublic":1,"isfriend":0,"isfamily":0,"dateupload":"1528189621","views":"23479","url_s":"https:\/\/live.staticflickr.com\/1729\/41676479745_ae6d27ee9d_m.jpg","height_s":"174","width_s":"240","url_m":"https:\/\/live.staticflickr.com\/1729\/41676479745_ae6d27ee9d.jpg","height_m":"362","width_m":"500"},{"id":"14005711559","owner":"68908417@N02","secret":"27c019e0ea","server":"7396","farm":8,"title":"Cat","ispublic":1,"isfriend":0,"isfamily":0,"dateupload":"1400169626","views":"58398","url_s":"https:\/\/live.staticflickr.com\/7396\/14005711559_27c019e0ea_m.jpg","height_s":"168","width_s":"240","url_m":"https:\/\/live.staticflickr.com\/7396\/14005711559_27c019e0ea.jpg","height_m":"349","width_m":"500"},{"id":"15271257531","owner":"23891237@N03","secret":"b816e344c5","server":"3921","farm":4,"title":"cat","ispublic":1,"isfriend":0,"isfamily":0,"dateupload":"1411011632","views":"51216","url_s":"https:\/\/live.staticflickr.com\/3921\/15271257531_b816e344c5_m.jpg","height_s":"240","width_s":"161","url_m":"https:\/\/live.staticflickr.com\/3921\/15271257531_b816e344c5.jpg","height_m":"500","width_m":"335"},{"id":"3030522458","owner":"53929580@N00","secret":"d8e63a1195","server":"3144","farm":4,"title":"Cats","ispublic":1,"isfriend":0,"isfamily":0,"dateupload":"1226692320","views":"37812","url_s":"https:\/\/live.staticflickr.com\/3144\/3030522458_d8e63a1195_m.jpg","height_s":"240","width_s":"197","url_m":"https:\/\/live.staticflickr.com\/3144\/3030522458_d8e63a1195.jpg","height_m":"500","width_m":"411"},{"id":"11487405204","owner":"87724539@N02","secret":"998005754e","server":"3782","farm":4,"title":"Cat","ispublic":1,"isfriend":0,"isfamily":0,"dateupload":"1387672622","views":"152544","url_s":"https:\/\/live.staticflickr.com\/3782\/11487405204_998005754e_m.jpg","height_s":"159","width_s":"240","url_m":"https:\/\/live.staticflickr.com\/3782\/11487405204_998005754e.jpg","height_m":"331","width_m":"500"},{"id":"4349772680","owner":"44912907@N05","secret":"d2413c27d1","server":"4034","farm":5,"title":"Cat","ispublic":1,"isfriend":0,"isfamily":0,"dateupload":"1265922077","views":"72380","url_s":"https:\/\/live.staticflickr.com\/4034\/4349772680_d2413c27d1_m.jpg","height_s":"240","width_s":"161","url_m":"https:\/\/live.staticflickr.com\/4034\/4349772680_d2413c27d1.jpg","height_m":"500","width_m":"334"},{"id":"5315428814","owner":"50183570@N00","secret":"02b323b9cb","server":"5162","farm":6,"title":"Cat","ispublic":1,"isfriend":0,"isfamily":0,"dateupload":"1293956678","views":"41531","url_s":"https:\/\/live.staticflickr.com\/5162\/5315428814_02b323b9cb_m.jpg","height_s":"240","width_s":"160","url_m":"https:\/\/live.staticflickr.com\/5162\/5315428814_02b323b9cb.jpg","height_m":"500","width_m":"333"},{"id":"33522734484","owner":"142409708@N08","secret":"655cb6c80c","server":"2851","farm":3,"title":"Cat","ispublic":1,"isfriend":0,"isfamily":0,"dateupload":"1493575319","views":"49430","url_s":"https:\/\/live.staticflickr.com\/2851\/33522734484_655cb6c80c_m.jpg","height_s":"171","width_s":"240","url_m":"https:\/\/live.staticflickr.com\/2851\/33522734484_655cb6c80c.jpg","height_m":"357","width_m":"500"},{"id":"34582888851","owner":"20674281@N03","secret":"40ba188ff8","server":"4171","farm":5,"title":"cats","ispublic":1,"isfriend":0,"isfamily":0,"dateupload":"1495021830","views":"36087","url_s":"https:\/\/live.staticflickr.com\/4171\/34582888851_40ba188ff8_m.jpg","height_s":"240","width_s":"180","url_m":"https:\/\/live.staticflickr.com\/4171\/34582888851_40ba188ff8.jpg","height_m":"500","width_m":"375"},{"id":"2261238740","owner":"22754052@N05","secret":"50c6c0169e","server":"2415","farm":3,"title":"cat","ispublic":1,"isfriend":0,"isfamily":0,"dateupload":"1202843392","views":"44477","url_s":"https:\/\/live.staticflickr.com\/2415\/2261238740_50c6c0169e_m.jpg","height_s":"180","width_s":"240","url_m":"https:\/\/live.staticflickr.com\/2415\/2261238740_50c6c0169e.jpg","height_m":"375","width_m":"500"},{"id":"4298442411","owner":"12071643@N00","secret":"40f5df9c2c","server":"2803","farm":3,"title":"Cat!","ispublic":1,"isfriend":0,"isfamily":0,"dateupload":"1264293306","views":"58079","url_s":"https:\/\/live.staticflickr.com\/2803\/4298442411_40f5df9c2c_m.jpg","height_s":"240","width_s":"160","url_m":"https:\/\/live.staticflickr.com\/2803\/4298442411_40f5df9c2c.jpg","height_m":"500","width_m":"333"},{"id":"12657513705","owner":"96216549@N05","secret":"4a6b939e94","server":"7411","farm":8,"title":"Cat","ispublic":1,"isfriend":0,"isfamily":0,"dateupload":"1392912040","views":"73328","url_s":"https:\/\/live.staticflickr.com\/7411\/12657513705_4a6b939e94_m.jpg","height_s":"160","width_s":"240","url_m":"https:\/\/live.staticflickr.com\/7411\/12657513705_4a6b939e94.jpg","height_m":"333","width_m":"500"},{"id":"8675102549","owner":"8670276@N02","secret":"64a0b4c824","server":"8256","farm":9,"title":"Cat","ispublic":1,"isfriend":0,"isfamily":0,"dateupload":"1366742607","views":"35771","url_s":"https:\/\/live.staticflickr.com\/8256\/8675102549_64a0b4c824_m.jpg","height_s":"160","width_s":"240","url_m":"https:\/\/live.staticflickr.com\/8256\/8675102549_64a0b4c824.jpg","height_m":"334","width_m":"500"},{"id":"14666527370","owner":"54480943@N08","secret":"23753c8745","server":"5556","farm":6,"title":"Cat","ispublic":1,"isfriend":0,"isfamily":0,"dateupload":"1407432683","views":"27654","url_s":"https:\/\/live.staticflickr.com\/5556\/14666527370_23753c8745_m.jpg","height_s":"159","width_s":"240","url_m":"https:\/\/live.staticflickr.com\/5556\/14666527370_23753c8745.jpg","height_m":"331","width_m":"500"},{"id":"2592564716","owner":"14589775@N00","secret":"3b502db489","server":"3194","farm":4,"title":"cat","ispublic":1,"isfriend":0,"isfamily":0,"dateupload":"1213865958","views":"62501","url_s":"https:\/\/live.staticflickr.com\/3194\/2592564716_3b502db489_m.jpg","height_s":"178","width_s":"240","url_m":"https:\/\/live.staticflickr.com\/3194\/2592564716_3b502db489.jpg","height_m":"371","width_m":"500"},{"id":"24811748270","owner":"21692577@N02","secret":"3102fc52fb","server":"1701","farm":2,"title":"cat","ispublic":1,"isfriend":0,"isfamily":0,"dateupload":"1455801456","views":"47054","url_s":"https:\/\/live.staticflickr.com\/1701\/24811748270_3102fc52fb_m.jpg","height_s":"160","width_s":"240","url_m":"https:\/\/live.staticflickr.com\/1701\/24811748270_3102fc52fb.jpg","height_m":"333","width_m":"500"},{"id":"15317370767","owner":"126139693@N07","secret":"d01a2327a9","server":"3953","farm":4,"title":"Cat","ispublic":1,"isfriend":0,"isfamily":0,"dateupload":"1413030335","views":"169098","url_s":"https:\/\/live.staticflickr.com\/3953\/15317370767_d01a2327a9_m.jpg","height_s":"160","width_s":"240","url_m":"https:\/\/live.staticflickr.com\/3953\/15317370767_d01a2327a9.jpg","height_m":"334","width_m":"500"},{"id":"2314676429","owner":"93851844@N00","secret":"69af288bb8","server":"2097","farm":3,"title":"Cat","ispublic":1,"isfriend":0,"isfamily":0,"dateupload":"1204840876","views":"72456","url_s":"https:\/\/live.staticflickr.com\/2097\/2314676429_69af288bb8_m.jpg","height_s":"240","width_s":"160","url_m":"https:\/\/live.staticflickr.com\/2097\/2314676429_69af288bb8.jpg","height_m":"500","width_m":"333"},{"id":"3408990247","owner":"32558319@N03","secret":"d6f5a33da6","server":"3592","farm":4,"title":"cat","ispublic":1,"isfriend":0,"isfamily":0,"dateupload":"1238774811","views":"67004","url_s":"https:\/\/live.staticflickr.com\/3592\/3408990247_d6f5a33da6_m.jpg","height_s":"240","width_s":"161","url_m":"https:\/\/live.staticflickr.com\/3592\/3408990247_d6f5a33da6.jpg","height_m":"500","width_m":"335"},{"id":"2814778660","owner":"27959147@N08","secret":"1a4bf5c310","server":"3113","farm":4,"title":"Cat","ispublic":1,"isfriend":0,"isfamily":0,"dateupload":"1220202289","views":"39157","url_s":"https:\/\/live.staticflickr.com\/3113\/2814778660_1a4bf5c310_m.jpg","height_s":"240","width_s":"154","url_m":"https:\/\/live.staticflickr.com\/3113\/2814778660_1a4bf5c310.jpg","height_m":"500","width_m":"321"},{"id":"15029691960","owner":"87520129@N06","secret":"210bc914a1","server":"5556","farm":6,"title":"Cats","ispublic":1,"isfriend":0,"isfamily":0,"dateupload":"1410532151","views":"49559","url_s":"https:\/\/live.staticflickr.com\/5556\/15029691960_210bc914a1_m.jpg","height_s":"160","width_s":"240","url_m":"https:\/\/live.staticflickr.com\/5556\/15029691960_210bc914a1.jpg","height_m":"333","width_m":"500"},{"id":"8724522760","owner":"78453207@N00","secret":"3f140baab2","server":"7315","farm":8,"title":"cats","ispublic":1,"isfriend":0,"isfamily":0,"dateupload":"1368132380","views":"35881","url_s":"https:\/\/live.staticflickr.com\/7315\/8724522760_3f140baab2_m.jpg","height_s":"240","width_s":"160","url_m":"https:\/\/live.staticflickr.com\/7315\/8724522760_3f140baab2.jpg","height_m":"500","width_m":"333"},{"id":"4427227441","owner":"47759511@N05","secret":"993a923659","server":"4012","farm":5,"title":"Cat","ispublic":1,"isfriend":0,"isfamily":0,"dateupload":"1268426260","views":"35513","url_s":"https:\/\/live.staticflickr.com\/4012\/4427227441_993a923659_m.jpg","height_s":"240","width_s":"240","url_m":"https:\/\/live.staticflickr.com\/4012\/4427227441_993a923659.jpg","height_m":"500","width_m":"500"},{"id":"2052921948","owner":"51599422@N00","secret":"208d3de7de","server":"2195","farm":3,"title":"cat","ispublic":1,"isfriend":0,"isfamily":0,"dateupload":"1195658355","views":"30825","url_s":"https:\/\/live.staticflickr.com\/2195\/2052921948_208d3de7de_m.jpg","height_s":"161","width_s":"240","url_m":"https:\/\/live.staticflickr.com\/2195\/2052921948_208d3de7de.jpg","height_m":"335","width_m":"500"},{"id":"15428978066","owner":"37824553@N00","secret":"292fb1139e","server":"3935","farm":4,"title":"Cat","ispublic":1,"isfriend":0,"isfamily":0,"dateupload":"1412545186","views":"75225","url_s":"https:\/\/live.staticflickr.com\/3935\/15428978066_292fb1139e_m.jpg","height_s":"165","width_s":"240","url_m":"https:\/\/live.staticflickr.com\/3935\/15428978066_292fb1139e.jpg","height_m":"344","width_m":"500"},{"id":"7772888384","owner":"57301362@N03","secret":"b15680d709","server":"8445","farm":9,"title":"Cat","ispublic":1,"isfriend":0,"isfamily":0,"dateupload":"1344857109","views":"20379","url_s":"https:\/\/live.staticflickr.com\/8445\/7772888384_b15680d709_m.jpg","height_s":"160","width_s":"240","url_m":"https:\/\/live.staticflickr.com\/8445\/7772888384_b15680d709.jpg","height_m":"333","width_m":"500"},{"id":"15613863252","owner":"121728569@N03","secret":"27306fcb58","server":"3955","farm":4,"title":"cat","ispublic":1,"isfriend":0,"isfamily":0,"dateupload":"1414122260","views":"47288","url_s":"https:\/\/live.staticflickr.com\/3955\/15613863252_27306fcb58_m.jpg","height_s":"159","width_s":"240","url_m":"https:\/\/live.staticflickr.com\/3955\/15613863252_27306fcb58.jpg","height_m":"331","width_m":"500"},{"id":"15560709619","owner":"126760392@N05","secret":"b94f51a793","server":"3940","farm":4,"title":"Cat","ispublic":1,"isfriend":0,"isfamily":0,"dateupload":"1415532060","views":"31871","url_s":"https:\/\/live.staticflickr.com\/3940\/15560709619_b94f51a793_m.jpg","height_s":"160","width_s":"240","url_m":"https:\/\/live.staticflickr.com\/3940\/15560709619_b94f51a793.jpg","height_m":"334","width_m":"500"},{"id":"9676662229","owner":"97698383@N07","secret":"1aeda4e70f","server":"5485","farm":6,"title":"Cats","ispublic":1,"isfriend":0,"isfamily":0,"dateupload":"1378381912","views":"38902","url_s":"https:\/\/live.staticflickr.com\/5485\/9676662229_1aeda4e70f_m.jpg","height_s":"162","width_s":"240","url_m":"https:\/\/live.staticflickr.com\/5485\/9676662229_1aeda4e70f.jpg","height_m":"337","width_m":"500"},{"id":"5797397329","owner":"51180801@N07","secret":"d2a821c8b6","server":"3105","farm":4,"title":"CAT","ispublic":1,"isfriend":0,"isfamily":0,"dateupload":"1307222809","views":"28755","url_s":"https:\/\/live.staticflickr.com\/3105\/5797397329_d2a821c8b6_m.jpg","height_s":"179","width_s":"240","url_m":"https:\/\/live.staticflickr.com\/3105\/5797397329_d2a821c8b6.jpg","height_m":"372","width_m":"500"},{"id":"14554078573","owner":"93771303@N06","secret":"ffc40eb166","server":"3865","farm":4,"title":"cat","ispublic":1,"isfriend":0,"isfamily":0,"dateupload":"1404049841","views":"62087","url_s":"https:\/\/live.staticflickr.com\/3865\/14554078573_ffc40eb166_m.jpg","height_s":"160","width_s":"240","url_m":"https:\/\/live.staticflickr.com\/3865\/14554078573_ffc40eb166.jpg","height_m":"333","width_m":"500"},{"id":"6195688511","owner":"61434050@N04","secret":"63256fa80e","server":"6132","farm":7,"title":"cat","ispublic":1,"isfriend":0,"isfamily":0,"dateupload":"1317328231","views":"53752","url_s":"https:\/\/live.staticflickr.com\/6132\/6195688511_63256fa80e_m.jpg","height_s":"240","width_s":"180","url_m":"https:\/\/live.staticflickr.com\/6132\/6195688511_63256fa80e.jpg","height_m":"500","width_m":"375"}]},"stat":"ok"}