{"photos":{"page":5,"pages":51790,"perpage":50,"total":"2589493","photo":[{"id":"8004428013","owner":"34986002@N02","secret":"75e4efddc3","server":"8180","farm":9,"title":"cat","ispublic":1,"isfriend":0,"isfamily":0,"dateupload":"1348094711","views":"11437","url_s":"https:\/\/live.staticflickr.com\/8180\/8004428013_75e4efddc3_m.jpg","height_s":"180","width_s":"240","url_m":"https:\/\/live.staticflickr.com\/8180\/8004428013_75e4efddc3.jpg","height_m":"375","width_m":"500"},{"id":"33978738420","owner":"99089231@N04","secret":"12c9f9a46f","server":"2839","farm":3,"title":"Cat","ispublic":1,"isfriend":0,"isfamily":0,"dateupload":"1493569935","views":"13937","url_s":"https:\/\/live.staticflickr.com\/2839\/33978738420_12c9f9a46f_m.jpg","height_s":"160","width_s":"240","url_m":"https:\/\/live.staticflickr.com\/2839\/33978738420_12c9f9a46f.jpg","height_m":"333","width_m":"500"},{"id":"4509526640","owner":"9453805@N07","secret":"9b5f0c591c","server":"4018","farm":5,"title":"Cat","ispublic":1,"isfriend":0,"isfamily":0,"dateupload":"1270947715","views":"11743","url_s":"https:\/\/live.staticflickr.com\/4018\/4509526640_9b5f0c591c_m.jpg","height_s":"240","width_s":"164","url_m":"https:\/\/live.staticflickr.com\/4018\/4509526640_9b5f0c591c.jpg","height_m":"500","width_m":"341"},{"id":"8575361081","owner":"35430244@N08","secret":"01a33b84c4","server":"8527","farm":9,"title":"Cat","ispublic":1,"isfriend":0,"isfamily":0,"dateupload":"1363824882","views":"29768","url_s":"https:\/\/live.staticflickr.com\/8527\/8575361081_01a33b84c4_m.jpg","height_s":"159","width_s":"240","url_m":"https:\/\/live.staticflickr.com\/8527\/8575361081_01a33b84c4.jpg","height_m":"332","width_m":"500"},{"id":"2329873972","owner":"7374528@N03","secret":"75f00e4ca4","server":"3143","farm":4,"title":"Cat","ispublic":1,"isfriend":0,"isfamily":0,"dateupload":"1205355471","views":"8885","url_s":"https:\/\/live.staticflickr.com\/3143\/2329873972_75f00e4ca4_m.jpg","height_s":"240","width_s":"195","url_m":"https:\/\/live.staticflickr.com\/3143\/2329873972_75f00e4ca4.jpg","height_m":"500","width_m":"407"},{"id":"6843182477","owner":"74448702@N08","secret":"4b38905b09","server":"7011","farm":8,"title":"Cat","ispublic":1,"isfriend":0,"isfamily":0,"dateupload":"1328736727","views":"11705","url_s":"https:\/\/live.staticflickr.com\/7011\/6843182477_4b38905b09_m.jpg","height_s":"197","width_s":"240","url_m":"https:\/\/live.staticflickr.com\/7011\/6843182477_4b38905b09.jpg","height_m":"411","width_m":"500"},{"id":"25857232738","owner":"73422502@N08","secret":"6160b6f34d","server":"4708","farm":5,"title":"Cat","ispublic":1,"isfriend":0,"isfamily":0,"dateupload":"1516128902","views":"32773","url_s":"https:\/\/live.staticflickr.com\/4708\/25857232738_6160b6f34d_m.jpg","height_s":"160","width_s":"240","url_m":"https:\/\/live.staticflickr.com\/4708\/25857232738_6160b6f34d.jpg","height_m":"333","width_m":"500"},{"id":"14320933967","owner":"124511690@N04","secret":"26deed0505","server":"3895","farm":4,"title":"Cat","ispublic":1,"isfriend":0,"isfamily":0,"dateupload":"1403726249","views":"11997","url_s":"https:\/\/live.staticflickr.com\/3895\/14320933967_26deed0505_m.jpg","height_s":"159","width_s":"240","url_m":"https:\/\/live.staticflickr.com\/3895\/14320933967_26deed0505.jpg","height_m":"331","width_m":"500"},{"id":"9614952705","owner":"99171156@N04","secret":"0a3fa810c1","server":"2812","farm":3,"title":"cat","ispublic":1,"isfriend":0,"isfamily":0,"dateupload":"1377719796","views":"5612","url_s":"https:\/\/live.staticflickr.com\/2812\/9614952705_0a3fa810c1_m.jpg","height_s":"160","width_s":"240","url_m":"https:\/\/live.staticflickr.com\/2812\/9614952705_0a3fa810c1.jpg","height_m":"333","width_m":"500"},{"id":"9682788397","owner":"75527938@N03","secret":"be0129a1a4","server":"3715","farm":4,"title":"Cats","ispublic":1,"isfriend":0,"isfamily":0,"dateupload":"1378456734","views":"16465","url_s":"https:\/\/live.staticflickr.com\/3715\/9682788397_be0129a1a4_m.jpg","height_s":"160","width_s":"240","url_m":"https:\/\/live.staticflickr.com\/3715\/9682788397_be0129a1a4.jpg","height_m":"333","width_m":"500"},{"id":"327949731","owner":"50183570@N00","secret":"241ef18278","server":"137","farm":1,"title":"Cat","ispublic":1,"isfriend":0,"isfamily":0,"dateupload":"1166603042","views":"22211","url_s":"https:\/\/live.staticflickr.com\/137\/327949731_241ef18278_m.jpg","height_s":"240","width_s":"204","url_m":"https:\/\/live.staticflickr.com\/137\/327949731_241ef18278.jpg","height_m":"500","width_m":"424"},{"id":"5099549863","owner":"39518015@N02","secret":"2692de8a70","server":"1209","farm":2,"title":"cat","ispublic":1,"isfriend":0,"isfamily":0,"dateupload":"1287596703","views":"47253","url_s":"https:\/\/live.staticflickr.com\/1209\/5099549863_2692de8a70_m.jpg","height_s":"184","width_s":"240","url_m":"https:\/\/live.staticflickr.com\/1209\/5099549863_2692de8a70.jpg","height_m":"384","width_m":"500"},{"id":"15933625056","owner":"71544440@N08","secret":"1cb4b38fa3","server":"7486","farm":8,"title":"Cat","ispublic":1,"isfriend":0,"isfamily":0,"dateupload":"1417878244","views":"13629","url_s":"https:\/\/live.staticflickr.com\/7486\/15933625056_1cb4b38fa3_m.jpg","height_s":"160","width_s":"240","url_m":"https:\/\/live.staticflickr.com\/7486\/15933625056_1cb4b38fa3.jpg","height_m":"333","width_m":"500"},{"id":"15684648828","owner":"46390374@N07","secret":"a0f38e4bb0","server":"8590","farm":9,"title":"Cat","ispublic":1,"isfriend":0,"isfamily":0,"dateupload":"1416874197","views":"14540","url_s":"https:\/\/live.staticflickr.com\/8590\/15684648828_a0f38e4bb0_m.jpg","height_s":"240","width_s":"240","url_m":"https:\/\/live.staticflickr.com\/8590\/15684648828_a0f38e4bb0.jpg","height_m":"500","width_m":"500"},{"id":"8531704322","owner":"93386966@N05","secret":"9aaac48e6b","server":"8089","farm":9,"title":"cat","ispublic":1,"isfriend":0,"isfamily":0,"dateupload":"1362497748","views":"36318","url_s":"https:\/\/live.staticflickr.com\/8089\/8531704322_9aaac48e6b_m.jpg","height_s":"240","width_s":"160","url_m":"https:\/\/live.staticflickr.com\/8089\/8531704322_9aaac48e6b.jpg","height_m":"500","width_m":"333"},{"id":"33397190942","owner":"99089231@N04","secret":"d4ee9b873e","server":"3937","farm":4,"title":"Cat","ispublic":1,"isfriend":0,"isfamily":0,"dateupload":"1490031213","views":"16792","url_s":"https:\/\/live.staticflickr.com\/3937\/33397190942_d4ee9b873e_m.jpg","height_s":"160","width_s":"240","url_m":"https:\/\/live.staticflickr.com\/3937\/33397190942_d4ee9b873e.jpg","height_m":"333","width_m":"500"},{"id":"11796244136","owner":"58281752@N00","secret":"ca64548703","server":"5476","farm":6,"title":"Cat","ispublic":1,"isfriend":0,"isfamily":0,"dateupload":"1389002502","views":"15043","url_s":"https:\/\/live.staticflickr.com\/5476\/11796244136_ca64548703_m.jpg","height_s":"160","width_s":"240","url_m":"https:\/\/live.staticflickr.com\/5476\/11796244136_ca64548703.jpg","height_m":"333","width_m":"500"},{"id":"14519616956","owner":"13047824@N05","secret":"e50f44d11d","server":"3849","farm":4,"title":"cat","ispublic":1,"isfriend":0,"isfamily":0,"dateupload":"1404136680","views":"8777","url_s":"https:\/\/live.staticflickr.com\/3849\/14519616956_e50f44d11d_m.jpg","height_s":"240","width_s":"161","url_m":"https:\/\/live.staticflickr.com\/3849\/14519616956_e50f44d11d.jpg","height_m":"500","width_m":"334"},{"id":"30033063091","owner":"28596055@N02","secret":"7705ba4380","server":"5757","farm":6,"title":"cat","ispublic":1,"isfriend":0,"isfamily":0,"dateupload":"1475608428","views":"19615","url_s":"https:\/\/live.staticflickr.com\/5757\/30033063091_7705ba4380_m.jpg","height_s":"160","width_s":"240","url_m":"https:\/\/live.staticflickr.com\/5757\/30033063091_7705ba4380.jpg","height_m":"333","width_m":"500"},{"id":"26663494501","owner":"33909700@N02","secret":"1e868debf2","server":"1611","farm":2,"title":"Cat","ispublic":1,"isfriend":0,"isfamily":0,"dateupload":"1462026076","views":"12817","url_s":"https:\/\/live.staticflickr.com\/1611\/26663494501_1e868debf2_m.jpg","height_s":"240","width_s":"179","url_m":"https:\/\/live.staticflickr.com\/1611\/26663494501_1e868debf2.jpg","height_m":"500","width_m":"372"},{"id":"31671889412","owner":"28596055@N02","secret":"bb37b917be","server":"267","farm":1,"title":"cat","ispublic":1,"isfriend":0,"isfamily":0,"dateupload":"1482482088","views":"20468","url_s":"https:\/\/live.staticflickr.com\/267\/31671889412_bb37b917be_m.jpg","height_s":"192","width_s":"240","url_m":"https:\/\/live.staticflickr.com\/267\/31671889412_bb37b917be.jpg","height_m":"400","width_m":"500"},{"id":"32637191488","owner":"149038069@N08","secret":"22aaa4d032","server":"4891","farm":5,"title":"cat","ispublic":1,"isfriend":0,"isfamily":0,"dateupload":"1546071999","views":"6678","url_s":"https:\/\/live.staticflickr.com\/4891\/32637191488_22aaa4d032_m.jpg","height_s":"240","width_s":"170","url_m":"https:\/\/live.staticflickr.com\/4891\/32637191488_22aaa4d032.jpg","height_m":"500","width_m":"354"},{"id":"8211743904","owner":"89264210@N03","secret":"274a57bf0b","server":"8341","farm":9,"title":"cat !!!","ispublic":1,"isfriend":0,"isfamily":0,"dateupload":"1353689434","views":"9144","url_s":"https:\/\/live.staticflickr.com\/8341\/8211743904_274a57bf0b_m.jpg","height_s":"180","width_s":"240","url_m":"https:\/\/live.staticflickr.com\/8341\/8211743904_274a57bf0b.jpg","height_m":"375","width_m":"500"},{"id":"44910078221","owner":"167035855@N05","secret":"84b0721003","server":"1966","farm":2,"title":"cat","ispublic":1,"isfriend":0,"isfamily":0,"dateupload":"1537891001","views":"7113","url_s":"https:\/\/live.staticflickr.com\/1966\/44910078221_84b0721003_m.jpg","height_s":"187","width_s":"240","url_m":"https:\/\/live.staticflickr.com\/1966\/44910078221_84b0721003.jpg","height_m":"390","width_m":"500"},{"id":"31569971717","owner":"149038069@N08","secret":"eb41c4aa4a","server":"7811","farm":8,"title":"cat","ispublic":1,"isfriend":0,"isfamily":0,"dateupload":"1546070744","views":"7623","url_s":"https:\/\/live.staticflickr.com\/7811\/31569971717_eb41c4aa4a_m.jpg","height_s":"170","width_s":"240","url_m":"https:\/\/live.staticflickr.com\/7811\/31569971717_eb41c4aa4a.jpg","height_m":"354","width_m":"500"},{"id":"15226973236","owner":"54480943@N08","secret":"4f3b91cc0c","server":"3924","farm":4,"title":"Cat","ispublic":1,"isfriend":0,"isfamily":0,"dateupload":"1410805134","views":"18919","url_s":"https:\/\/live.staticflickr.com\/3924\/15226973236_4f3b91cc0c_m.jpg","height_s":"159","width_s":"240","url_m":"https:\/\/live.staticflickr.com\/3924\/15226973236_4f3b91cc0c.jpg","height_m":"331","width_m":"500"},{"id":"39599544590","owner":"131511194@N07","secret":"64709193d9","server":"805","farm":1,"title":"Cat","ispublic":1,"isfriend":0,"isfamily":0,"dateupload":"1523537882","views":"11392","url_s":"https:\/\/live.staticflickr.com\/805\/39599544590_64709193d9_m.jpg","height_s":"160","width_s":"240","url_m":"https:\/\/live.staticflickr.com\/805\/39599544590_64709193d9.jpg","height_m":"333","width_m":"500"},{"id":"235829529","owner":"29115041@N00","secret":"4071d37829","server":"80","farm":1,"title":"CAT","ispublic":1,"isfriend":0,"isfamily":0,"dateupload":"1157535044","views":"11356","url_s":"https:\/\/live.staticflickr.com\/80\/235829529_4071d37829_m.jpg","height_s":"240","width_s":"215","url_m":"https:\/\/live.staticflickr.com\/80\/235829529_4071d37829.jpg","height_m":"500","width_m":"447"},{"id":"4036020496","owner":"43800216@N05","secret":"ca6c2c3e75","server":"3146","farm":4,"title":"Cat","ispublic":1,"isfriend":0,"isfamily":0,"dateupload":"1256252865","views":"13400","url_s":"https:\/\/live.staticflickr.com\/3146\/4036020496_ca6c2c3e75_m.jpg","height_s":"240","width_s":"157","url_m":"https:\/\/live.staticflickr.com\/3146\/4036020496_ca6c2c3e75.jpg","height_m":"500","width_m":"328"},{"id":"4333760796","owner":"47236973@N06","secret":"ce1c8f8d20","server":"2783","farm":3,"title":"Cat","ispublic":1,"isfriend":0,"isfamily":0,"dateupload":"1265415570","views":"85333","url_s":"https:\/\/live.staticflickr.com\/2783\/4333760796_ce1c8f8d20_m.jpg","height_s":"180","width_s":"240","url_m":"https:\/\/live.staticflickr.com\/2783\/4333760796_ce1c8f8d20.jpg","height_m":"375","width_m":"500"},{"id":"7604106178","owner":"68050730@N03","secret":"32aac51d14","server":"7259","farm":8,"title":"cats","ispublic":1,"isfriend":0,"isfamily":0,"dateupload":"1342713883","views":"11766","url_s":"https:\/\/live.staticflickr.com\/7259\/7604106178_32aac51d14_m.jpg","height_s":"240","width_s":"205","url_m":"https:\/\/live.staticflickr.com\/7259\/7604106178_32aac51d14.jpg","height_m":"500","width_m":"427"},{"id":"3329845034","owner":"60174375@N00","secret":"e4ca9d34c5","server":"3314","farm":4,"title":"Cat","ispublic":1,"isfriend":0,"isfamily":0,"dateupload":"1236215071","views":"44273","url_s":"https:\/\/live.staticflickr.com\/3314\/3329845034_e4ca9d34c5_m.jpg","height_s":"180","width_s":"240","url_m":"https:\/\/live.staticflickr.com\/3314\/3329845034_e4ca9d34c5.jpg","height_m":"375","width_m":"500"},{"id":"33228507190","owner":"143422623@N02","secret":"89e7ca9837","server":"2917","farm":3,"title":"Cat","ispublic":1,"isfriend":0,"isfamily":0,"dateupload":"1490302829","views":"2020","url_s":"https:\/\/live.staticflickr.com\/2917\/33228507190_89e7ca9837_m.jpg","height_s":"156","width_s":"240","url_m":"https:\/\/live.staticflickr.com\/2917\/33228507190_89e7ca9837.jpg","height_m":"326","width_m":"500"},{"id":"3143242078","owner":"10600471@N07","secret":"951838a844","server":"3201","farm":4,"title":"Cats","ispublic":1,"isfriend":0,"isfamily":0,"dateupload":"1230435859","views":"14391","url_s":"https:\/\/live.staticflickr.com\/3201\/3143242078_951838a844_m.jpg","height_s":"183","width_s":"240","url_m":"https:\/\/live.staticflickr.com\/3201\/3143242078_951838a844.jpg","height_m":"381","width_m":"500"},{"id":"32995191458","owner":"149038069@N08","secret":"5fed17b363","server":"7887","farm":8,"title":"cat","ispublic":1,"isfriend":0,"isfamily":0,"dateupload":"1548415609","views":"1818","url_s":"https:\/\/live.staticflickr.com\/7887\/32995191458_5fed17b363_m.jpg","height_s":"170","width_s":"240","url_m":"https:\/\/live.staticflickr.com\/7887\/32995191458_5fed17b363.jpg","height_m":"354","width_m":"500"},{"id":"4705739843","owner":"47484024@N07","secret":"f6d9c7594f","server":"4069","farm":5,"title":"cat ?!","ispublic":1,"isfriend":0,"isfamily":0,"dateupload":"1276696678","views":"55251","url_s":"https:\/\/live.staticflickr.com\/4069\/4705739843_f6d9c7594f_m.jpg","height_s":"240","width_s":"180","url_m":"https:\/\/live.staticflickr.com\/4069\/4705739843_f6d9c7594f.jpg","height_m":"500","width_m":"375"},{"id":"40984173504","owner":"151652116@N03","secret":"651be2d93f","server":"946","farm":1,"title":"cat","ispublic":1,"isfriend":0,"isfamily":0,"dateupload":"1524686801","views":"11110","url_s":"https:\/\/live.staticflickr.com\/946\/40984173504_651be2d93f_m.jpg","height_s":"234","width_s":"240","url_m":"https:\/\/live.staticflickr.com\/946\/40984173504_651be2d93f.jpg","height_m":"488","width_m":"500"},{"id":"6693938923","owner":"54169606@N05","secret":"d42534196e","server":"7030","farm":8,"title":"Cat","ispublic":1,"isfriend":0,"isfamily":0,"dateupload":"1326531985","views":"14099","url_s":"https:\/\/live.staticflickr.com\/7030\/6693938923_d42534196e_m.jpg","height_s":"180","width_s":"240","url_m":"https:\/\/live.staticflickr.com\/7030\/6693938923_d42534196e.jpg","height_m":"375","width_m":"500"},{"id":"8886794421","owner":"59000961@N02","secret":"d6b3b5f4c8","server":"7388","farm":8,"title":"Cat","ispublic":1,"isfriend":0,"isfamily":0,"dateupload":"1369894598","views":"27242","url_s":"https:\/\/live.staticflickr.com\/7388\/8886794421_d6b3b5f4c8_m.jpg","height_s":"162","width_s":"240","url_m":"https:\/\/live.staticflickr.com\/7388\/8886794421_d6b3b5f4c8.jpg","height_m":"337","width_m":"500"},{"id":"16497004607","owner":"21692577@N02","secret":"579c2c9daf","server":"8657","farm":9,"title":"cat","ispublic":1,"isfriend":0,"isfamily":0,"dateupload":"1425389065","views":"62760","url_s":"https:\/\/live.staticflickr.com\/8657\/16497004607_579c2c9daf_m.jpg","height_s":"144","width_s":"240","url_m":"https:\/\/live.staticflickr.com\/8657\/16497004607_579c2c9daf.jpg","height_m":"301","width_m":"500"},{"id":"33767027808","owner":"166352944@N04","secret":"6009f8ae3f","server":"65535","farm":66,"title":"Cat","ispublic":1,"isfriend":0,"isfamily":0,"dateupload":"1555692832","views":"2917","url_s":"https:\/\/live.staticflickr.com\/65535\/33767027808_6009f8ae3f_m.jpg","height_s":"180","width_s":"240","url_m":"https:\/\/live.staticflickr.com\/65535\/33767027808_6009f8ae3f.jpg","height_m":"375","width_m":"500"},{"id":"32217344356","owner":"20674281@N03","secret":"93231d6603","server":"346","farm":1,"title":"cats","ispublic":1,"isfriend":0,"isfamily":0,"dateupload":"1484175883","views":"13629","url_s":"https:\/\/live.staticflickr.com\/346\/32217344356_93231d6603_m.jpg","height_s":"240","width_s":"180","url_m":"https:\/\/live.staticflickr.com\/346\/32217344356_93231d6603.jpg","height_m":"500","width_m":"375"},{"id":"8042237422","owner":"71979475@N05","secret":"f60d200e34","server":"8034","farm":9,"title":"cat","ispublic":1,"isfriend":0,"isfamily":0,"dateupload":"1349064636","views":"10498","url_s":"https:\/\/live.staticflickr.com\/8034\/8042237422_f60d200e34_m.jpg","height_s":"240","width_s":"160","url_m":"https:\/\/live.staticflickr.com\/8034\/8042237422_f60d200e34.jpg","height_m":"500","width_m":"333"},{"id":"14503317961","owner":"99089231@N04","secret":"c913c3b357","server":"3848","farm":4,"title":"Cat","ispublic":1,"isfriend":0,"isfamily":0,"dateupload":"1403720380","views":"18731","url_s":"https:\/\/live.staticflickr.com\/3848\/14503317961_c913c3b357_m.jpg","height_s":"160","width_s":"240","url_m":"https:\/\/live.staticflickr.com\/3848\/14503317961_c913c3b357.jpg","height_m":"333","width_m":"500"},{"id":"13779147345","owner":"122984444@N04","secret":"aa78a2ac1b","server":"7227","farm":8,"title":"Cat","ispublic":1,"isfriend":0,"isfamily":0,"dateupload":"1397226006","views":"5297","url_s":"https:\/\/live.staticflickr.com\/7227\/13779147345_aa78a2ac1b_m.jpg","height_s":"168","width_s":"240","url_m":"https:\/\/live.staticflickr.com\/7227\/13779147345_aa78a2ac1b.jpg","height_m":"351","width_m":"500"},{"id":"8004431642","owner":"34986002@N02","secret":"c98641b929","server":"8298","farm":9,"title":"cat","ispublic":1,"isfriend":0,"isfamily":0,"dateupload":"1348094708","views":"10371","url_s":"https:\/\/live.staticflickr.com\/8298\/8004431642_c98641b929_m.jpg","height_s":"180","width_s":"240","url_m":"https:\/\/live.staticflickr.com\/8298\/8004431642_c98641b929.jpg","height_m":"375","width_m":"500"},{"id":"14563596166","owner":"110904760@N03","secret":"4aa7ffed49","server":"5585","farm":6,"title":"Cat","ispublic":1,"isfriend":0,"isfamily":0,"dateupload":"1404651069","views":"4913","url_s":"https:\/\/live.staticflickr.com\/5585\/14563596166_4aa7ffed49_m.jpg","height_s":"160","width_s":"240","url_m":"https:\/\/live.staticflickr.com\/5585\/14563596166_4aa7ffed49.jpg","height_m":"333","width_m":"500"},{"id":"14855148901","owner":"125491437@N07","secret":"d6fb2d3153","server":"5553","farm":6,"title":"#Cat.","ispublic":1,"isfriend":0,"isfamily":0,"dateupload":"1407491845","views":"13036","url_s":"https:\/\/live.staticflickr.com\/5553\/14855148901_d6fb2d3153_m.jpg","height_s":"240","width_s":"135","url_m":"https:\/\/live.staticflickr.com\/5553\/14855148901_d6fb2d3153.jpg","height_m":"500","width_m":"281"},{"id":"14428725529","owner":"119639334@N04","secret":"75a6e2379f","server":"5033","farm":6,"title":"Cat","ispublic":1,"isfriend":0,"isfamily":0,"dateupload":"1404941077","views":"8172","url_s":"https:\/\/live.staticflickr.com\/5033\/14428725529_75a6e2379f_m.jpg","height_s":"160","width_s":"240","url_m":"https:\/\/live.staticflickr.com\/5033\/14428725529_75a6e2379f.jpg","height_m":"333","width_m":"500"},{"id":"11189972746","owner":"40832502@N06","secret":"76f6c5150b","server":"3697","farm":4,"title":"Cat","ispublic":1,"isfriend":0,"isfamily":0,"dateupload":"1386081049","views":"17581","url_s":"https:\/\/live.staticflickr.com\/3697\/11189972746_76f6c5150b_m.jpg","height_s":"160","width_s":"240","url_m":"https:\/\/live.staticflickr.com\/3697\/11189972746_76f6c5150b.jpg","height_m":"333","width_m":"500"}]},"stat":"ok"}