{"photos":{"page":1,"pages":51790,"perpage":50,"total":"2589493","photo":[{"id":"15867520885","owner":"119678691@N02","secret":"69d04f6ecc","server":"7560","farm":8,"title":"Cat","ispublic":1,"isfriend":0,"isfamily":0,"dateupload":"1416830740","views":"327586","url_s":"https:\/\/live.staticflickr.com\/7560\/15867520885_69d04f6ecc_m.jpg","height_s":"240","width_s":"180","url_m":"https:\/\/live.staticflickr.com\/7560\/15867520885_69d04f6ecc.jpg","height_m":"500","width_m":"375"},{"id":"5508784414","owner":"36587311@N08","secret":"d2d84f9c92","server":"5213","farm":6,"title":"cat","ispublic":1,"isfriend":0,"isfamily":0,"dateupload":"1299569712","views":"345611","url_s":"https:\/\/live.staticflickr.com\/5213\/5508784414_d2d84f9c92_m.jpg","height_s":"240","width_s":"240","url_m":"https:\/\/live.staticflickr.com\/5213\/5508784414_d2d84f9c92.jpg","height_m":"500","width_m":"500"},{"id":"2207159142","owner":"23001707@N04","secret":"8206ab6984","server":"2106","farm":3,"title":"Cat","ispublic":1,"isfriend":0,"isfamily":0,"dateupload":"1200856853","views":"227990","url_s":"https:\/\/live.staticflickr.com\/2106\/2207159142_8206ab6984_m.jpg","height_s":"240","width_s":"160","url_m":"https:\/\/live.staticflickr.com\/2106\/2207159142_8206ab6984.jpg","height_m":"500","width_m":"334"},{"id":"13545844805","owner":"28596055@N02","secret":"170ec3746b","server":"3677","farm":4,"title":"cat","ispublic":1,"isfriend":0,"isfamily":0,"dateupload":"1396297864","views":"208083","url_s":"https:\/\/live.staticflickr.com\/3677\/13545844805_170ec3746b_m.jpg","height_s":"177","width_s":"240","url_m":"https:\/\/live.staticflickr.com\/3677\/13545844805_170ec3746b.jpg","height_m":"369","width_m":"500"},{"id":"5881933297","owner":"28596055@N02","secret":"7974eaff82","server":"5036","farm":6,"title":"cat","ispublic":1,"isfriend":0,"isfamily":0,"dateupload":"1309296266","views":"183859","url_s":"https:\/\/live.staticflickr.com\/5036\/5881933297_7974eaff82_m.jpg","height_s":"180","width_s":"240","url_m":"https:\/\/live.staticflickr.com\/5036\/5881933297_7974eaff82.jpg","height_m":"375","width_m":"500"},{"id":"15171599148","owner":"103599376@N07","secret":"6ef1d09dab","server":"3914","farm":4,"title":"cat","ispublic":1,"isfriend":0,"isfamily":0,"dateupload":"1411722937","views":"176045","url_s":"https:\/\/live.staticflickr.com\/3914\/15171599148_6ef1d09dab_m.jpg","height_s":"180","width_s":"240","url_m":"https:\/\/live.staticflickr.com\/3914\/15171599148_6ef1d09dab.jpg","height_m":"375","width_m":"500"},{"id":"6828049582","owner":"28596055@N02","secret":"499de13cfb","server":"7183","farm":8,"title":"cat","ispublic":1,"isfriend":0,"isfamily":0,"dateupload":"1331507161","views":"181099","url_s":"https:\/\/live.staticflickr.com\/7183\/6828049582_499de13cfb_m.jpg","height_s":"160","width_s":"240","url_m":"https:\/\/live.staticflickr.com\/7183\/6828049582_499de13cfb.jpg","height_m":"333","width_m":"500"},{"id":"8168159947","owner":"21692577@N02","secret":"94b3a89a2a","server":"8065","farm":9,"title":"cat","ispublic":1,"isfriend":0,"isfamily":0,"dateupload":"1352420669","views":"233320","url_s":"https:\/\/live.staticflickr.com\/8065\/8168159947_94b3a89a2a_m.jpg","height_s":"166","width_s":"240","url_m":"https:\/\/live.staticflickr.com\/8065\/8168159947_94b3a89a2a.jpg","height_m":"347","width_m":"500"},{"id":"3977203168","owner":"21692577@N02","secret":"b9d02a0233","server":"2602","farm":3,"title":"cat","ispublic":1,"isfriend":0,"isfamily":0,"dateupload":"1254578618","views":"292851","url_s":"https:\/\/live.staticflickr.com\/2602\/3977203168_b9d02a0233_m.jpg","height_s":"160","width_s":"240","url_m":"https:\/\/live.staticflickr.com\/2602\/3977203168_b9d02a0233.jpg","height_m":"333","width_m":"500"},{"id":"8594699278","owner":"32594277@N04","secret":"dd256c10fd","server":"8110","farm":9,"title":"cat","ispublic":1,"isfriend":0,"isfamily":0,"dateupload":"1346476962","views":"328708","url_s":"https:\/\/live.staticflickr.com\/8110\/8594699278_dd256c10fd_m.jpg","height_s":"240","width_s":"160","url_m":"https:\/\/live.staticflickr.com\/8110\/8594699278_dd256c10fd.jpg","height_m":"500","width_m":"333"},{"id":"14934292534","owner":"27409143@N00","secret":"32b0302f2d","server":"3946","farm":4,"title":"Cat","ispublic":1,"isfriend":0,"isfamily":0,"dateupload":"1413538513","views":"112915","url_s":"https:\/\/live.staticflickr.com\/3946\/14934292534_32b0302f2d_m.jpg","height_s":"240","width_s":"231","url_m":"https:\/\/live.staticflickr.com\/3946\/14934292534_32b0302f2d.jpg","height_m":"500","width_m":"482"},{"id":"6330704947","owner":"36587311@N08","secret":"dd7e1b453c","server":"6092","farm":7,"title":"cat","ispublic":1,"isfriend":0,"isfamily":0,"dateupload":"1320912620","views":"2006573","url_s":"https:\/\/live.staticflickr.com\/6092\/6330704947_dd7e1b453c_m.jpg","height_s":"240","width_s":"240","url_m":"https:\/\/live.staticflickr.com\/6092\/6330704947_dd7e1b453c.jpg","height_m":"500","width_m":"500"},{"id":"9775005856","owner":"51107398@N06","secret":"9b5e0ebe16","server":"7313","farm":8,"title":"Cat","ispublic":1,"isfriend":0,"isfamily":0,"dateupload":"1379350213","views":"311698","url_s":"https:\/\/live.staticflickr.com\/7313\/9775005856_9b5e0ebe16_m.jpg","height_s":"160","width_s":"240","url_m":"https:\/\/live.staticflickr.com\/7313\/9775005856_9b5e0ebe16.jpg","height_m":"333","width_m":"500"},{"id":"7190755946","owner":"42882723@N03","secret":"ea97e85765","server":"7073","farm":8,"title":"cat","ispublic":1,"isfriend":0,"isfamily":0,"dateupload":"1336938645","views":"281758","url_s":"https:\/\/live.staticflickr.com\/7073\/7190755946_ea97e85765_m.jpg","height_s":"180","width_s":"240","url_m":"https:\/\/live.staticflickr.com\/7073\/7190755946_ea97e85765.jpg","height_m":"375","width_m":"500"},{"id":"15504684310","owner":"127350202@N02","secret":"f555c88915","server":"3940","farm":4,"title":"Cat","ispublic":1,"isfriend":0,"isfamily":0,"dateupload":"1414926833","views":"92608","url_s":"https:\/\/live.staticflickr.com\/3940\/15504684310_f555c88915_m.jpg","height_s":"160","width_s":"240","url_m":"https:\/\/live.staticflickr.com\/3940\/15504684310_f555c88915.jpg","height_m":"333","width_m":"500"},{"id":"16236770082","owner":"59151890@N07","secret":"205f4e358f","server":"7496","farm":8,"title":"cat","ispublic":1,"isfriend":0,"isfamily":0,"dateupload":"1420807780","views":"144740","url_s":"https:\/\/live.staticflickr.com\/7496\/16236770082_205f4e358f_m.jpg","height_s":"180","width_s":"240","url_m":"https:\/\/live.staticflickr.com\/7496\/16236770082_205f4e358f.jpg","height_m":"375","width_m":"500"},{"id":"17202266828","owner":"21692577@N02","secret":"46e1464ef1","server":"7786","farm":8,"title":"cat","ispublic":1,"isfriend":0,"isfamily":0,"dateupload":"1430915137","views":"149782","url_s":"https:\/\/live.staticflickr.com\/7786\/17202266828_46e1464ef1_m.jpg","height_s":"240","width_s":"173","url_m":"https:\/\/live.staticflickr.com\/7786\/17202266828_46e1464ef1.jpg","height_m":"500","width_m":"359"},{"id":"4051998735","owner":"21692577@N02","secret":"5b4863ac11","server":"3488","farm":4,"title":"cat","ispublic":1,"isfriend":0,"isfamily":0,"dateupload":"1256728389","views":"222164","url_s":"https:\/\/live.staticflickr.com\/3488\/4051998735_5b4863ac11_m.jpg","height_s":"240","width_s":"160","url_m":"https:\/\/live.staticflickr.com\/3488\/4051998735_5b4863ac11.jpg","height_m":"500","width_m":"333"},{"id":"14904790031","owner":"126084515@N02","secret":"b7aa34551f","server":"5562","farm":6,"title":"cat","ispublic":1,"isfriend":0,"isfamily":0,"dateupload":"1407946243","views":"67362","url_s":"https:\/\/live.staticflickr.com\/5562\/14904790031_b7aa34551f_m.jpg","height_s":"176","width_s":"240","url_m":"https:\/\/live.staticflickr.com\/5562\/14904790031_b7aa34551f.jpg","height_m":"368","width_m":"500"},{"id":"4064148118","owner":"21692577@N02","secret":"41665daa3d","server":"2698","farm":3,"title":"cat","ispublic":1,"isfriend":0,"isfamily":0,"dateupload":"1257079970","views":"172493","url_s":"https:\/\/live.staticflickr.com\/2698\/4064148118_41665daa3d_m.jpg","height_s":"160","width_s":"240","url_m":"https:\/\/live.staticflickr.com\/2698\/4064148118_41665daa3d.jpg","height_m":"333","width_m":"500"},{"id":"2434899664","owner":"25523238@N06","secret":"cf1ccc308f","server":"3064","farm":4,"title":"Cat","ispublic":1,"isfriend":0,"isfamily":0,"dateupload":"1208893868","views":"119447","url_s":"https:\/\/live.staticflickr.com\/3064\/2434899664_cf1ccc308f_m.jpg","height_s":"240","width_s":"160","url_m":"https:\/\/live.staticflickr.com\/3064\/2434899664_cf1ccc308f.jpg","height_m":"500","width_m":"333"},{"id":"5061790223","owner":"21692577@N02","secret":"b6ca46a9b0","server":"4150","farm":5,"title":"cat","ispublic":1,"isfriend":0,"isfamily":0,"dateupload":"1286542684","views":"153995","url_s":"https:\/\/live.staticflickr.com\/4150\/5061790223_b6ca46a9b0_m.jpg","height_s":"240","width_s":"196","url_m":"https:\/\/live.staticflickr.com\/4150\/5061790223_b6ca46a9b0.jpg","height_m":"500","width_m":"409"},{"id":"6611899387","owner":"28596055@N02","secret":"6c65ac564c","server":"7155","farm":8,"title":"cat","ispublic":1,"isfriend":0,"isfamily":0,"dateupload":"1325419118","views":"71880","url_s":"https:\/\/live.staticflickr.com\/7155\/6611899387_6c65ac564c_m.jpg","height_s":"160","width_s":"240","url_m":"https:\/\/live.staticflickr.com\/7155\/6611899387_6c65ac564c.jpg","height_m":"333","width_m":"500"},{"id":"175237265","owner":"57719811@N00","secret":"029f7974a2","server":"70","farm":1,"title":"Cat","ispublic":1,"isfriend":0,"isfamily":0,"dateupload":"1151303411","views":"125406","url_s":"https:\/\/live.staticflickr.com\/70\/175237265_029f7974a2_m.jpg","height_s":"160","width_s":"240","url_m":"https:\/\/live.staticflickr.com\/70\/175237265_029f7974a2.jpg","height_m":"333","width_m":"500"},{"id":"14308926248","owner":"32594277@N04","secret":"718a76913f","server":"5157","farm":6,"title":"cat","ispublic":1,"isfriend":0,"isfamily":0,"dateupload":"1389426446","views":"192621","url_s":"https:\/\/live.staticflickr.com\/5157\/14308926248_718a76913f_m.jpg","height_s":"240","width_s":"160","url_m":"https:\/\/live.staticflickr.com\/5157\/14308926248_718a76913f.jpg","height_m":"500","width_m":"333"},{"id":"7208990838","owner":"21692577@N02","secret":"ba4b093bbb","server":"5032","farm":6,"title":"cat","ispublic":1,"isfriend":0,"isfamily":0,"dateupload":"1337169889","views":"166389","url_s":"https:\/\/live.staticflickr.com\/5032\/7208990838_ba4b093bbb_m.jpg","height_s":"240","width_s":"240","url_m":"https:\/\/live.staticflickr.com\/5032\/7208990838_ba4b093bbb.jpg","height_m":"500","width_m":"500"},{"id":"6850934334","owner":"21692577@N02","secret":"e4d62ca933","server":"6103","farm":7,"title":"cat","ispublic":1,"isfriend":0,"isfamily":0,"dateupload":"1332173433","views":"140416","url_s":"https:\/\/live.staticflickr.com\/6103\/6850934334_e4d62ca933_m.jpg","height_s":"240","width_s":"179","url_m":"https:\/\/live.staticflickr.com\/6103\/6850934334_e4d62ca933.jpg","height_m":"500","width_m":"373"},{"id":"6303228181","owner":"34654941@N02","secret":"59371c29dc","server":"6100","farm":7,"title":"cat","ispublic":1,"isfriend":0,"isfamily":0,"dateupload":"1320179132","views":"222049","url_s":"https:\/\/live.staticflickr.com\/6100\/6303228181_59371c29dc_m.jpg","height_s":"227","width_s":"240","url_m":"https:\/\/live.staticflickr.com\/6100\/6303228181_59371c29dc.jpg","height_m":"473","width_m":"500"},{"id":"2321136879","owner":"7664470@N05","secret":"60075fbc4e","server":"3107","farm":4,"title":"cat","ispublic":1,"isfriend":0,"isfamily":0,"dateupload":"1205089579","views":"186891","url_s":"https:\/\/live.staticflickr.com\/3107\/2321136879_60075fbc4e_m.jpg","height_s":"240","width_s":"160","url_m":"https:\/\/live.staticflickr.com\/3107\/2321136879_60075fbc4e.jpg","height_m":"500","width_m":"333"},{"id":"3178132324","owner":"28596055@N02","secret":"38b2ccfba4","server":"3333","farm":4,"title":"cat","ispublic":1,"isfriend":0,"isfamily":0,"dateupload":"1231365004","views":"55904","url_s":"https:\/\/live.staticflickr.com\/3333\/3178132324_38b2ccfba4_m.jpg","height_s":"160","width_s":"240","url_m":"https:\/\/live.staticflickr.com\/3333\/3178132324_38b2ccfba4.jpg","height_m":"333","width_m":"500"},{"id":"6843831417","owner":"21692577@N02","secret":"861d6996e8","server":"7210","farm":8,"title":"Cat","ispublic":1,"isfriend":0,"isfamily":0,"dateupload":"1328746531","views":"172035","url_s":"https:\/\/live.staticflickr.com\/7210\/6843831417_861d6996e8_m.jpg","height_s":"153","width_s":"240","url_m":"https:\/\/live.staticflickr.com\/7210\/6843831417_861d6996e8.jpg","height_m":"318","width_m":"500"},{"id":"5299930670","owner":"36587311@N08","secret":"6a4d54488a","server":"5248","farm":6,"title":"cat","ispublic":1,"isfriend":0,"isfamily":0,"dateupload":"1293535523","views":"203710","url_s":"https:\/\/live.staticflickr.com\/5248\/5299930670_6a4d54488a_m.jpg","height_s":"240","width_s":"240","url_m":"https:\/\/live.staticflickr.com\/5248\/5299930670_6a4d54488a.jpg","height_m":"500","width_m":"500"},{"id":"4628642473","owner":"21692577@N02","secret":"ba24c6309a","server":"4035","farm":5,"title":"cat","ispublic":1,"isfriend":0,"isfamily":0,"dateupload":"1274534060","views":"160579","url_s":"https:\/\/live.staticflickr.com\/4035\/4628642473_ba24c6309a_m.jpg","height_s":"163","width_s":"240","url_m":"https:\/\/live.staticflickr.com\/4035\/4628642473_ba24c6309a.jpg","height_m":"340","width_m":"500"},{"id":"14993744669","owner":"127602382@N07","secret":"69f6df3a71","server":"3899","farm":4,"title":"Cat","ispublic":1,"isfriend":0,"isfamily":0,"dateupload":"1410195599","views":"95808","url_s":"https:\/\/live.staticflickr.com\/3899\/14993744669_69f6df3a71_m.jpg","height_s":"240","width_s":"182","url_m":"https:\/\/live.staticflickr.com\/3899\/14993744669_69f6df3a71.jpg","height_m":"500","width_m":"379"},{"id":"4638426067","owner":"50464358@N07","secret":"1a979d3690","server":"4066","farm":5,"title":"cat","ispublic":1,"isfriend":0,"isfamily":0,"dateupload":"1274794696","views":"172151","url_s":"https:\/\/live.staticflickr.com\/4066\/4638426067_1a979d3690_m.jpg","height_s":"240","width_s":"180","url_m":"https:\/\/live.staticflickr.com\/4066\/4638426067_1a979d3690.jpg","height_m":"500","width_m":"375"},{"id":"16044941077","owner":"59151890@N07","secret":"aa8574545f","server":"8565","farm":9,"title":"cat","ispublic":1,"isfriend":0,"isfamily":0,"dateupload":"1420729593","views":"102016","url_s":"https:\/\/live.staticflickr.com\/8565\/16044941077_aa8574545f_m.jpg","height_s":"180","width_s":"240","url_m":"https:\/\/live.staticflickr.com\/8565\/16044941077_aa8574545f.jpg","height_m":"375","width_m":"500"},{"id":"11323195453","owner":"21692577@N02","secret":"edb16e5953","server":"3777","farm":4,"title":"cat","ispublic":1,"isfriend":0,"isfamily":0,"dateupload":"1386766976","views":"174182","url_s":"https:\/\/live.staticflickr.com\/3777\/11323195453_edb16e5953_m.jpg","height_s":"160","width_s":"240","url_m":"https:\/\/live.staticflickr.com\/3777\/11323195453_edb16e5953.jpg","height_m":"333","width_m":"500"},{"id":"4220856234","owner":"36587311@N08","secret":"029e5b8348","server":"2570","farm":3,"title":"cat","ispublic":1,"isfriend":0,"isfamily":0,"dateupload":"1261964406","views":"1932265","url_s":"https:\/\/live.staticflickr.com\/2570\/4220856234_029e5b8348_m.jpg","height_s":"240","width_s":"240","url_m":"https:\/\/live.staticflickr.com\/2570\/4220856234_029e5b8348.jpg","height_m":"500","width_m":"500"},{"id":"5688281541","owner":"21692577@N02","secret":"65d9d561b4","server":"5062","farm":6,"title":"cat","ispublic":1,"isfriend":0,"isfamily":0,"dateupload":"1304554120","views":"113508","url_s":"https:\/\/live.staticflickr.com\/5062\/5688281541_65d9d561b4_m.jpg","height_s":"150","width_s":"240","url_m":"https:\/\/live.staticflickr.com\/5062\/5688281541_65d9d561b4.jpg","height_m":"312","width_m":"500"},{"id":"15171601338","owner":"103599376@N07","secret":"bc4e3b0ff2","server":"2946","farm":3,"title":"cat","ispublic":1,"isfriend":0,"isfamily":0,"dateupload":"1411722937","views":"90828","url_s":"https:\/\/live.staticflickr.com\/2946\/15171601338_bc4e3b0ff2_m.jpg","height_s":"160","width_s":"240","url_m":"https:\/\/live.staticflickr.com\/2946\/15171601338_bc4e3b0ff2.jpg","height_m":"333","width_m":"500"},{"id":"12174748174","owner":"81196303@N08","secret":"27491cde33","server":"2858","farm":3,"title":"Cat","ispublic":1,"isfriend":0,"isfamily":0,"dateupload":"1390841055","views":"112575","url_s":"https:\/\/live.staticflickr.com\/2858\/12174748174_27491cde33_m.jpg","height_s":"160","width_s":"240","url_m":"https:\/\/live.staticflickr.com\/2858\/12174748174_27491cde33.jpg","height_m":"334","width_m":"500"},{"id":"8374414005","owner":"91943071@N02","secret":"9d9cc93a93","server":"8470","farm":9,"title":"Cat","ispublic":1,"isfriend":0,"isfamily":0,"dateupload":"1358047884","views":"105915","url_s":"https:\/\/live.staticflickr.com\/8470\/8374414005_9d9cc93a93_m.jpg","height_s":"180","width_s":"240","url_m":"https:\/\/live.staticflickr.com\/8470\/8374414005_9d9cc93a93.jpg","height_m":"375","width_m":"500"},{"id":"6172321760","owner":"55959716@N08","secret":"2910977035","server":"6174","farm":7,"title":"cat","ispublic":1,"isfriend":0,"isfamily":0,"dateupload":"1316698397","views":"72252","url_s":"https:\/\/live.staticflickr.com\/6174\/6172321760_2910977035_m.jpg","height_s":"145","width_s":"240","url_m":"https:\/\/live.staticflickr.com\/6174\/6172321760_2910977035.jpg","height_m":"302","width_m":"500"},{"id":"9836993995","owner":"79766186@N04","secret":"36d4291c78","server":"3671","farm":4,"title":"Cat","ispublic":1,"isfriend":0,"isfamily":0,"dateupload":"1379687477","views":"81141","url_s":"https:\/\/live.staticflickr.com\/3671\/9836993995_36d4291c78_m.jpg","height_s":"180","width_s":"240","url_m":"https:\/\/live.staticflickr.com\/3671\/9836993995_36d4291c78.jpg","height_m":"375","width_m":"500"},{"id":"46550224945","owner":"145661355@N07","secret":"577b036632","server":"7830","farm":8,"title":"Cat","ispublic":1,"isfriend":0,"isfamily":0,"dateupload":"1553533315","views":"14908","url_s":"https:\/\/live.staticflickr.com\/7830\/46550224945_577b036632_m.jpg","height_s":"160","width_s":"240","url_m":"https:\/\/live.staticflickr.com\/7830\/46550224945_577b036632.jpg","height_m":"333","width_m":"500"},{"id":"3357505904","owner":"14470376@N04","secret":"e5156c3948","server":"3454","farm":4,"title":"Cat","ispublic":1,"isfriend":0,"isfamily":0,"dateupload":"1237144694","views":"27592","url_s":"https:\/\/live.staticflickr.com\/3454\/3357505904_e5156c3948_m.jpg","height_s":"160","width_s":"240","url_m":"https:\/\/live.staticflickr.com\/3454\/3357505904_e5156c3948.jpg","height_m":"333","width_m":"500"},{"id":"13607990214","owner":"12024547@N06","secret":"34f9fea37f","server":"5487","farm":6,"title":"Cat","ispublic":1,"isfriend":0,"isfamily":0,"dateupload":"1396550422","views":"225145","url_s":"https:\/\/live.staticflickr.com\/5487\/13607990214_34f9fea37f_m.jpg","height_s":"192","width_s":"240","url_m":"https:\/\/live.staticflickr.com\/5487\/13607990214_34f9fea37f.jpg","height_m":"400","width_m":"500"},{"id":"6243090894","owner":"36587311@N08","secret":"8b8dd862cd","server":"6213","farm":7,"title":"cat","ispublic":1,"isfriend":0,"isfamily":0,"dateupload":"1318577157","views":"1849858","url_s":"https:\/\/live.staticflickr.com\/6213\/6243090894_8b8dd862cd_m.jpg","height_s":"240","width_s":"240","url_m":"https:\/\/live.staticflickr.com\/6213\/6243090894_8b8dd862cd.jpg","height_m":"500","width_m":"500"},{"id":"14283488479","owner":"32594277@N04","secret":"155a3ef254","server":"3903","farm":4,"title":"Cat","ispublic":1,"isfriend":0,"isfamily":0,"dateupload":"1371006444","views":"117304","url_s":"https:\/\/live.staticflickr.com\/3903\/14283488479_155a3ef254_m.jpg","height_s":"240","width_s":"160","url_m":"https:\/\/live.staticflickr.com\/3903\/14283488479_155a3ef254.jpg","height_m":"500","width_m":"333"},{"id":"16000794300","owner":"63576088@N08","secret":"5a485bef1c","server":"7484","farm":8,"title":"Cat","ispublic":1,"isfriend":0,"isfamily":0,"dateupload":"1420320924","views":"52869","url_s":"https:\/\/live.staticflickr.com\/7484\/16000794300_5a485bef1c_m.jpg","height_s":"180","width_s":"240","url_m":"https:\/\/live.staticflickr.com\/7484\/16000794300_5a485bef1c.jpg","height_m":"375","width_m":"500"}]},"stat":"ok"}