{"photos":{"page":3,"pages":51790,"perpage":50,"total":"2589493","photo":[{"id":"1453969858","owner":"10184120@N03","secret":"1f6311158b","server":"1137","farm":2,"title":"cat","ispublic":1,"isfriend":0,"isfamily":0,"dateupload":"1190996976","views":"40785","url_s":"https:\/\/live.staticflickr.com\/1137\/1453969858_1f6311158b_m.jpg","height_s":"160","width_s":"240","url_m":"https:\/\/live.staticflickr.com\/1137\/1453969858_1f6311158b.jpg","height_m":"333","width_m":"500"},{"id":"14243232640","owner":"109488968@N06","secret":"c037956d99","server":"5194","farm":6,"title":"Cat","ispublic":1,"isfriend":0,"isfamily":0,"dateupload":"1402860081","views":"47316","url_s":"https:\/\/live.staticflickr.com\/5194\/14243232640_c037956d99_m.jpg","height_s":"240","width_s":"160","url_m":"https:\/\/live.staticflickr.com\/5194\/14243232640_c037956d99.jpg","height_m":"500","width_m":"333"},{"id":"3216572338","owner":"33974853@N04","secret":"eb4575dfd7","server":"3530","farm":4,"title":"Cat","ispublic":1,"isfriend":0,"isfamily":0,"dateupload":"1232576070","views":"31304","url_s":"https:\/\/live.staticflickr.com\/3530\/3216572338_eb4575dfd7_m.jpg","height_s":"161","width_s":"240","url_m":"https:\/\/live.staticflickr.com\/3530\/3216572338_eb4575dfd7.jpg","height_m":"334","width_m":"500"},{"id":"7992858380","owner":"49539160@N08","secret":"6c4dbe517a","server":"8176","farm":9,"title":"Cats","ispublic":1,"isfriend":0,"isfamily":0,"dateupload":"1347820538","views":"23375","url_s":"https:\/\/live.staticflickr.com\/8176\/7992858380_6c4dbe517a_m.jpg","height_s":"160","width_s":"240","url_m":"https:\/\/live.staticflickr.com\/8176\/7992858380_6c4dbe517a.jpg","height_m":"333","width_m":"500"},{"id":"15116765570","owner":"13697798@N00","secret":"73c8d0399a","server":"3878","farm":4,"title":"Cat","ispublic":1,"isfriend":0,"isfamily":0,"dateupload":"1411264240","views":"54588","url_s":"https:\/\/live.staticflickr.com\/3878\/15116765570_73c8d0399a_m.jpg","height_s":"160","width_s":"240","url_m":"https:\/\/live.staticflickr.com\/3878\/15116765570_73c8d0399a.jpg","height_m":"334","width_m":"500"},{"id":"16316696022","owner":"99089231@N04","secret":"7e63aa45d1","server":"7525","farm":8,"title":"cat","ispublic":1,"isfriend":0,"isfamily":0,"dateupload":"1421676127","views":"39633","url_s":"https:\/\/live.staticflickr.com\/7525\/16316696022_7e63aa45d1_m.jpg","height_s":"160","width_s":"240","url_m":"https:\/\/live.staticflickr.com\/7525\/16316696022_7e63aa45d1.jpg","height_m":"333","width_m":"500"},{"id":"5589342177","owner":"24561846@N00","secret":"a73a5457bf","server":"5187","farm":6,"title":"Cat","ispublic":1,"isfriend":0,"isfamily":0,"dateupload":"1301944184","views":"34565","url_s":"https:\/\/live.staticflickr.com\/5187\/5589342177_a73a5457bf_m.jpg","height_s":"161","width_s":"240","url_m":"https:\/\/live.staticflickr.com\/5187\/5589342177_a73a5457bf.jpg","height_m":"334","width_m":"500"},{"id":"13937007530","owner":"98871360@N04","secret":"89cdd5aee2","server":"7348","farm":8,"title":"Cat","ispublic":1,"isfriend":0,"isfamily":0,"dateupload":"1399393966","views":"35970","url_s":"https:\/\/live.staticflickr.com\/7348\/13937007530_89cdd5aee2_m.jpg","height_s":"160","width_s":"240","url_m":"https:\/\/live.staticflickr.com\/7348\/13937007530_89cdd5aee2.jpg","height_m":"334","width_m":"500"},{"id":"6299559830","owner":"32509688@N07","secret":"7e6c36f997","server":"6222","farm":7,"title":"Cat","ispublic":1,"isfriend":0,"isfamily":0,"dateupload":"1320083076","views":"26448","url_s":"https:\/\/live.staticflickr.com\/6222\/6299559830_7e6c36f997_m.jpg","height_s":"168","width_s":"240","url_m":"https:\/\/live.staticflickr.com\/6222\/6299559830_7e6c36f997.jpg","height_m":"350","width_m":"500"},{"id":"169329862","owner":"19951543@N00","secret":"b3b297c7a9","server":"51","farm":1,"title":"Cat","ispublic":1,"isfriend":0,"isfamily":0,"dateupload":"1150602978","views":"133031","url_s":"https:\/\/live.staticflickr.com\/51\/169329862_b3b297c7a9_m.jpg","height_s":"180","width_s":"240","url_m":"https:\/\/live.staticflickr.com\/51\/169329862_b3b297c7a9.jpg","height_m":"375","width_m":"500"},{"id":"9703060618","owner":"87545054@N08","secret":"ab93386ffd","server":"5331","farm":6,"title":"Cat","ispublic":1,"isfriend":0,"isfamily":0,"dateupload":"1378657968","views":"27975","url_s":"https:\/\/live.staticflickr.com\/5331\/9703060618_ab93386ffd_m.jpg","height_s":"160","width_s":"240","url_m":"https:\/\/live.staticflickr.com\/5331\/9703060618_ab93386ffd.jpg","height_m":"333","width_m":"500"},{"id":"8326417203","owner":"47089964@N07","secret":"fbaeb344b9","server":"8080","farm":9,"title":"Cat","ispublic":1,"isfriend":0,"isfamily":0,"dateupload":"1356901712","views":"34930","url_s":"https:\/\/live.staticflickr.com\/8080\/8326417203_fbaeb344b9_m.jpg","height_s":"190","width_s":"240","url_m":"https:\/\/live.staticflickr.com\/8080\/8326417203_fbaeb344b9.jpg","height_m":"395","width_m":"500"},{"id":"13305969974","owner":"102590103@N05","secret":"02a81b01df","server":"3737","farm":4,"title":"Cat","ispublic":1,"isfriend":0,"isfamily":0,"dateupload":"1395398747","views":"25227","url_s":"https:\/\/live.staticflickr.com\/3737\/13305969974_02a81b01df_m.jpg","height_s":"160","width_s":"240","url_m":"https:\/\/live.staticflickr.com\/3737\/13305969974_02a81b01df.jpg","height_m":"333","width_m":"500"},{"id":"46120583435","owner":"65343418@N08","secret":"c784c4211c","server":"7841","farm":8,"title":"\u4ef2\u826f\u3057cat","ispublic":1,"isfriend":0,"isfamily":0,"dateupload":"1549697765","views":"14802","url_s":"https:\/\/live.staticflickr.com\/7841\/46120583435_c784c4211c_m.jpg","height_s":"160","width_s":"240","url_m":"https:\/\/live.staticflickr.com\/7841\/46120583435_c784c4211c.jpg","height_m":"333","width_m":"500"},{"id":"8522830357","owner":"59103653@N02","secret":"1b8d5cb087","server":"8228","farm":9,"title":"cat","ispublic":1,"isfriend":0,"isfamily":0,"dateupload":"1362297908","views":"61322","url_s":"https:\/\/live.staticflickr.com\/8228\/8522830357_1b8d5cb087_m.jpg","height_s":"160","width_s":"240","url_m":"https:\/\/live.staticflickr.com\/8228\/8522830357_1b8d5cb087.jpg","height_m":"333","width_m":"500"},{"id":"23554364098","owner":"28596055@N02","secret":"2f558cf9f3","server":"4400","farm":5,"title":"cat","ispublic":1,"isfriend":0,"isfamily":0,"dateupload":"1506766913","views":"28824","url_s":"https:\/\/live.staticflickr.com\/4400\/23554364098_2f558cf9f3_m.jpg","height_s":"195","width_s":"240","url_m":"https:\/\/live.staticflickr.com\/4400\/23554364098_2f558cf9f3.jpg","height_m":"406","width_m":"500"},{"id":"14036081495","owner":"99089231@N04","secret":"a12e52f769","server":"7238","farm":8,"title":"Cat","ispublic":1,"isfriend":0,"isfamily":0,"dateupload":"1398617047","views":"33948","url_s":"https:\/\/live.staticflickr.com\/7238\/14036081495_a12e52f769_m.jpg","height_s":"240","width_s":"160","url_m":"https:\/\/live.staticflickr.com\/7238\/14036081495_a12e52f769.jpg","height_m":"500","width_m":"333"},{"id":"9676663217","owner":"97698383@N07","secret":"37db384d58","server":"3782","farm":4,"title":"Cats","ispublic":1,"isfriend":0,"isfamily":0,"dateupload":"1378381911","views":"27063","url_s":"https:\/\/live.staticflickr.com\/3782\/9676663217_37db384d58_m.jpg","height_s":"188","width_s":"240","url_m":"https:\/\/live.staticflickr.com\/3782\/9676663217_37db384d58.jpg","height_m":"392","width_m":"500"},{"id":"15063747768","owner":"7788419@N05","secret":"1e63529953","server":"3849","farm":4,"title":"Cat","ispublic":1,"isfriend":0,"isfamily":0,"dateupload":"1410807575","views":"64041","url_s":"https:\/\/live.staticflickr.com\/3849\/15063747768_1e63529953_m.jpg","height_s":"159","width_s":"240","url_m":"https:\/\/live.staticflickr.com\/3849\/15063747768_1e63529953.jpg","height_m":"331","width_m":"500"},{"id":"2807383855","owner":"29834187@N05","secret":"9739a235f4","server":"3121","farm":4,"title":"|...cat","ispublic":1,"isfriend":0,"isfamily":0,"dateupload":"1219994207","views":"30543","url_s":"https:\/\/live.staticflickr.com\/3121\/2807383855_9739a235f4_m.jpg","height_s":"240","width_s":"233","url_m":"https:\/\/live.staticflickr.com\/3121\/2807383855_9739a235f4.jpg","height_m":"500","width_m":"486"},{"id":"15297345575","owner":"127185787@N07","secret":"98a3cb9518","server":"5595","farm":6,"title":"cat","ispublic":1,"isfriend":0,"isfamily":0,"dateupload":"1411220622","views":"24707","url_s":"https:\/\/live.staticflickr.com\/5595\/15297345575_98a3cb9518_m.jpg","height_s":"240","width_s":"160","url_m":"https:\/\/live.staticflickr.com\/5595\/15297345575_98a3cb9518.jpg","height_m":"500","width_m":"333"},{"id":"14371655125","owner":"34296778@N03","secret":"f8940e5e46","server":"3880","farm":4,"title":"CAT","ispublic":1,"isfriend":0,"isfamily":0,"dateupload":"1402213008","views":"25835","url_s":"https:\/\/live.staticflickr.com\/3880\/14371655125_f8940e5e46_m.jpg","height_s":"162","width_s":"240","url_m":"https:\/\/live.staticflickr.com\/3880\/14371655125_f8940e5e46.jpg","height_m":"337","width_m":"500"},{"id":"4394525996","owner":"10065795@N00","secret":"eb4251df16","server":"4016","farm":5,"title":"Cat","ispublic":1,"isfriend":0,"isfamily":0,"dateupload":"1267345825","views":"20835","url_s":"https:\/\/live.staticflickr.com\/4016\/4394525996_eb4251df16_m.jpg","height_s":"192","width_s":"240","url_m":"https:\/\/live.staticflickr.com\/4016\/4394525996_eb4251df16.jpg","height_m":"400","width_m":"500"},{"id":"5695891871","owner":"26037046@N00","secret":"a390aaa97b","server":"3445","farm":4,"title":"Cat","ispublic":1,"isfriend":0,"isfamily":0,"dateupload":"1304781269","views":"56953","url_s":"https:\/\/live.staticflickr.com\/3445\/5695891871_a390aaa97b_m.jpg","height_s":"240","width_s":"240","url_m":"https:\/\/live.staticflickr.com\/3445\/5695891871_a390aaa97b.jpg","height_m":"500","width_m":"500"},{"id":"7136168605","owner":"65082450@N05","secret":"362034e796","server":"7041","farm":8,"title":"CAT","ispublic":1,"isfriend":0,"isfamily":0,"dateupload":"1335980245","views":"35015","url_s":"https:\/\/live.staticflickr.com\/7041\/7136168605_362034e796_m.jpg","height_s":"180","width_s":"240","url_m":"https:\/\/live.staticflickr.com\/7041\/7136168605_362034e796.jpg","height_m":"375","width_m":"500"},{"id":"5651362497","owner":"15621131@N03","secret":"ec72ceced6","server":"5309","farm":6,"title":"Cat","ispublic":1,"isfriend":0,"isfamily":0,"dateupload":"1303694143","views":"28363","url_s":"https:\/\/live.staticflickr.com\/5309\/5651362497_ec72ceced6_m.jpg","height_s":"157","width_s":"240","url_m":"https:\/\/live.staticflickr.com\/5309\/5651362497_ec72ceced6.jpg","height_m":"327","width_m":"500"},{"id":"6485554303","owner":"57873464@N06","secret":"8da8f556bf","server":"7170","farm":8,"title":"cat","ispublic":1,"isfriend":0,"isfamily":0,"dateupload":"1323502365","views":"49025","url_s":"https:\/\/live.staticflickr.com\/7170\/6485554303_8da8f556bf_m.jpg","height_s":"180","width_s":"240","url_m":"https:\/\/live.staticflickr.com\/7170\/6485554303_8da8f556bf.jpg","height_m":"375","width_m":"500"},{"id":"16243932128","owner":"78453207@N00","secret":"5dbedec668","server":"8647","farm":9,"title":"cat","ispublic":1,"isfriend":0,"isfamily":0,"dateupload":"1422923914","views":"38891","url_s":"https:\/\/live.staticflickr.com\/8647\/16243932128_5dbedec668_m.jpg","height_s":"160","width_s":"240","url_m":"https:\/\/live.staticflickr.com\/8647\/16243932128_5dbedec668.jpg","height_m":"333","width_m":"500"},{"id":"4064392815","owner":"41911923@N05","secret":"9e76477015","server":"2440","farm":3,"title":"Cat.","ispublic":1,"isfriend":0,"isfamily":0,"dateupload":"1257097784","views":"12465","url_s":"https:\/\/live.staticflickr.com\/2440\/4064392815_9e76477015_m.jpg","height_s":"240","width_s":"180","url_m":"https:\/\/live.staticflickr.com\/2440\/4064392815_9e76477015.jpg","height_m":"500","width_m":"375"},{"id":"6093923823","owner":"61167098@N07","secret":"dc22edc536","server":"6203","farm":7,"title":"Cat","ispublic":1,"isfriend":0,"isfamily":0,"dateupload":"1314651570","views":"32054","url_s":"https:\/\/live.staticflickr.com\/6203\/6093923823_dc22edc536_m.jpg","height_s":"160","width_s":"240","url_m":"https:\/\/live.staticflickr.com\/6203\/6093923823_dc22edc536.jpg","height_m":"333","width_m":"500"},{"id":"14347303350","owner":"93771303@N06","secret":"2827d5ffa9","server":"5516","farm":6,"title":"cat","ispublic":1,"isfriend":0,"isfamily":0,"dateupload":"1404049841","views":"27232","url_s":"https:\/\/live.staticflickr.com\/5516\/14347303350_2827d5ffa9_m.jpg","height_s":"160","width_s":"240","url_m":"https:\/\/live.staticflickr.com\/5516\/14347303350_2827d5ffa9.jpg","height_m":"333","width_m":"500"},{"id":"9112985087","owner":"38253624@N06","secret":"1827d6659e","server":"7436","farm":8,"title":"cat","ispublic":1,"isfriend":0,"isfamily":0,"dateupload":"1371976663","views":"25253","url_s":"https:\/\/live.staticflickr.com\/7436\/9112985087_1827d6659e_m.jpg","height_s":"160","width_s":"240","url_m":"https:\/\/live.staticflickr.com\/7436\/9112985087_1827d6659e.jpg","height_m":"333","width_m":"500"},{"id":"4811820206","owner":"27479864@N04","secret":"d91b504dbd","server":"4138","farm":5,"title":"Cat","ispublic":1,"isfriend":0,"isfamily":0,"dateupload":"1279613762","views":"22094","url_s":"https:\/\/live.staticflickr.com\/4138\/4811820206_d91b504dbd_m.jpg","height_s":"162","width_s":"240","url_m":"https:\/\/live.staticflickr.com\/4138\/4811820206_d91b504dbd.jpg","height_m":"338","width_m":"500"},{"id":"9215714975","owner":"97255581@N07","secret":"f701835ba3","server":"5473","farm":6,"title":"Cat","ispublic":1,"isfriend":0,"isfamily":0,"dateupload":"1373050363","views":"23598","url_s":"https:\/\/live.staticflickr.com\/5473\/9215714975_f701835ba3_m.jpg","height_s":"159","width_s":"240","url_m":"https:\/\/live.staticflickr.com\/5473\/9215714975_f701835ba3.jpg","height_m":"332","width_m":"500"},{"id":"5908228142","owner":"33083463@N07","secret":"08bd96dc47","server":"5312","farm":6,"title":"Cat","ispublic":1,"isfriend":0,"isfamily":0,"dateupload":"1309939759","views":"26690","url_s":"https:\/\/live.staticflickr.com\/5312\/5908228142_08bd96dc47_m.jpg","height_s":"240","width_s":"211","url_m":"https:\/\/live.staticflickr.com\/5312\/5908228142_08bd96dc47.jpg","height_m":"500","width_m":"439"},{"id":"16531665360","owner":"119166445@N05","secret":"b3940dc4c4","server":"8635","farm":9,"title":"_cat","ispublic":1,"isfriend":0,"isfamily":0,"dateupload":"1425515415","views":"29857","url_s":"https:\/\/live.staticflickr.com\/8635\/16531665360_b3940dc4c4_m.jpg","height_s":"240","width_s":"160","url_m":"https:\/\/live.staticflickr.com\/8635\/16531665360_b3940dc4c4.jpg","height_m":"500","width_m":"333"},{"id":"6259797167","owner":"61989792@N05","secret":"a5662f0409","server":"6049","farm":7,"title":"cat","ispublic":1,"isfriend":0,"isfamily":0,"dateupload":"1319017693","views":"35206","url_s":"https:\/\/live.staticflickr.com\/6049\/6259797167_a5662f0409_m.jpg","height_s":"161","width_s":"240","url_m":"https:\/\/live.staticflickr.com\/6049\/6259797167_a5662f0409.jpg","height_m":"334","width_m":"500"},{"id":"16668149421","owner":"120862522@N04","secret":"cd8a273af6","server":"8567","farm":9,"title":"cat","ispublic":1,"isfriend":0,"isfamily":0,"dateupload":"1425111861","views":"29758","url_s":"https:\/\/live.staticflickr.com\/8567\/16668149421_cd8a273af6_m.jpg","height_s":"240","width_s":"203","url_m":"https:\/\/live.staticflickr.com\/8567\/16668149421_cd8a273af6.jpg","height_m":"500","width_m":"424"},{"id":"6754561479","owner":"22895884@N07","secret":"d0d81e7be8","server":"7170","farm":8,"title":"Cat","ispublic":1,"isfriend":0,"isfamily":0,"dateupload":"1327408762","views":"21137","url_s":"https:\/\/live.staticflickr.com\/7170\/6754561479_d0d81e7be8_m.jpg","height_s":"240","width_s":"192","url_m":"https:\/\/live.staticflickr.com\/7170\/6754561479_d0d81e7be8.jpg","height_m":"500","width_m":"399"},{"id":"8165273701","owner":"54822729@N05","secret":"2da745c6af","server":"8477","farm":9,"title":"Cat","ispublic":1,"isfriend":0,"isfamily":0,"dateupload":"1352330081","views":"25721","url_s":"https:\/\/live.staticflickr.com\/8477\/8165273701_2da745c6af_m.jpg","height_s":"193","width_s":"240","url_m":"https:\/\/live.staticflickr.com\/8477\/8165273701_2da745c6af.jpg","height_m":"402","width_m":"500"},{"id":"37749303714","owner":"138301460@N06","secret":"af34161049","server":"4560","farm":5,"title":"Cat","ispublic":1,"isfriend":0,"isfamily":0,"dateupload":"1510850415","views":"13655","url_s":"https:\/\/live.staticflickr.com\/4560\/37749303714_af34161049_m.jpg","height_s":"159","width_s":"240","url_m":"https:\/\/live.staticflickr.com\/4560\/37749303714_af34161049.jpg","height_m":"331","width_m":"500"},{"id":"7759457524","owner":"84721180@N07","secret":"37c5129580","server":"8429","farm":9,"title":"Cat","ispublic":1,"isfriend":0,"isfamily":0,"dateupload":"1344700432","views":"23802","url_s":"https:\/\/live.staticflickr.com\/8429\/7759457524_37c5129580_m.jpg","height_s":"240","width_s":"160","url_m":"https:\/\/live.staticflickr.com\/8429\/7759457524_37c5129580.jpg","height_m":"500","width_m":"333"},{"id":"9504389798","owner":"99089231@N04","secret":"091a24179a","server":"7433","farm":8,"title":"Cat","ispublic":1,"isfriend":0,"isfamily":0,"dateupload":"1376412955","views":"26996","url_s":"https:\/\/live.staticflickr.com\/7433\/9504389798_091a24179a_m.jpg","height_s":"240","width_s":"160","url_m":"https:\/\/live.staticflickr.com\/7433\/9504389798_091a24179a.jpg","height_m":"500","width_m":"333"},{"id":"8086454631","owner":"50154521@N08","secret":"5f21f34e3d","server":"8190","farm":9,"title":"Cat","ispublic":1,"isfriend":0,"isfamily":0,"dateupload":"1350227472","views":"19246","url_s":"https:\/\/live.staticflickr.com\/8190\/8086454631_5f21f34e3d_m.jpg","height_s":"160","width_s":"240","url_m":"https:\/\/live.staticflickr.com\/8190\/8086454631_5f21f34e3d.jpg","height_m":"333","width_m":"500"},{"id":"8538116180","owner":"78453207@N00","secret":"b68a8797ff","server":"8109","farm":9,"title":"cats","ispublic":1,"isfriend":0,"isfamily":0,"dateupload":"1362693794","views":"9245","url_s":"https:\/\/live.staticflickr.com\/8109\/8538116180_b68a8797ff_m.jpg","height_s":"240","width_s":"160","url_m":"https:\/\/live.staticflickr.com\/8109\/8538116180_b68a8797ff.jpg","height_m":"500","width_m":"333"},{"id":"14106581685","owner":"99089231@N04","secret":"7f300c9b2f","server":"7193","farm":8,"title":"Cat","ispublic":1,"isfriend":0,"isfamily":0,"dateupload":"1399228635","views":"27820","url_s":"https:\/\/live.staticflickr.com\/7193\/14106581685_7f300c9b2f_m.jpg","height_s":"240","width_s":"160","url_m":"https:\/\/live.staticflickr.com\/7193\/14106581685_7f300c9b2f.jpg","height_m":"500","width_m":"333"},{"id":"4957267113","owner":"63085988@N00","secret":"fe7f8f0e3e","server":"4126","farm":5,"title":"cat","ispublic":1,"isfriend":0,"isfamily":0,"dateupload":"1283625806","views":"8102","url_s":"https:\/\/live.staticflickr.com\/4126\/4957267113_fe7f8f0e3e_m.jpg","height_s":"161","width_s":"240","url_m":"https:\/\/live.staticflickr.com\/4126\/4957267113_fe7f8f0e3e.jpg","height_m":"334","width_m":"500"},{"id":"14272101008","owner":"110904760@N03","secret":"bf4dd36587","server":"3867","farm":4,"title":"Cat","ispublic":1,"isfriend":0,"isfamily":0,"dateupload":"1403186366","views":"25721","url_s":"https:\/\/live.staticflickr.com\/3867\/14272101008_bf4dd36587_m.jpg","height_s":"160","width_s":"240","url_m":"https:\/\/live.staticflickr.com\/3867\/14272101008_bf4dd36587.jpg","height_m":"333","width_m":"500"},{"id":"16429825711","owner":"78453207@N00","secret":"dc87a7e602","server":"8589","farm":9,"title":"cat","ispublic":1,"isfriend":0,"isfamily":0,"dateupload":"1422923891","views":"20891","url_s":"https:\/\/live.staticflickr.com\/8589\/16429825711_dc87a7e602_m.jpg","height_s":"240","width_s":"160","url_m":"https:\/\/live.staticflickr.com\/8589\/16429825711_dc87a7e602.jpg","height_m":"500","width_m":"333"},{"id":"11287597886","owner":"52906636@N02","secret":"20d85a762b","server":"3734","farm":4,"title":"Cat","ispublic":1,"isfriend":0,"isfamily":0,"dateupload":"1386586455","views":"34774","url_s":"https:\/\/live.staticflickr.com\/3734\/11287597886_20d85a762b_m.jpg","height_s":"160","width_s":"240","url_m":"https:\/\/live.staticflickr.com\/3734\/11287597886_20d85a762b.jpg","height_m":"333","width_m":"500"}]},"stat":"ok"}