{"photos":{"page":4,"pages":40559,"perpage":50,"total":"2027918","photo":[{"id":"1064735160","owner":"31852645@N00","secret":"93094a23ae","server":"1003","farm":2,"title":"Dog","ispublic":1,"isfriend":0,"isfamily":0,"dateupload":"1186692658","views":"21053","url_s":"https:\/\/live.staticflickr.com\/1003\/1064735160_93094a23ae_m.jpg","height_s":"180","width_s":"240","url_m":"https:\/\/live.staticflickr.com\/1003\/1064735160_93094a23ae.jpg","height_m":"375","width_m":"500"},{"id":"12876496715","owner":"100640170@N05","secret":"2e4c9471cc","server":"2824","farm":3,"title":"Dogs","ispublic":1,"isfriend":0,"isfamily":0,"dateupload":"1393762871","views":"18869","url_s":"https:\/\/live.staticflickr.com\/2824\/12876496715_2e4c9471cc_m.jpg","height_s":"240","width_s":"159","url_m":"https:\/\/live.staticflickr.com\/2824\/12876496715_2e4c9471cc.jpg","height_m":"500","width_m":"331"},{"id":"9477656267","owner":"98931411@N05","secret":"413a970052","server":"2867","farm":3,"title":"dog","ispublic":1,"isfriend":0,"isfamily":0,"dateupload":"1376149704","views":"19513","url_s":"https:\/\/live.staticflickr.com\/2867\/9477656267_413a970052_m.jpg","height_s":"240","width_s":"182","url_m":"https:\/\/live.staticflickr.com\/2867\/9477656267_413a970052.jpg","height_m":"500","width_m":"379"},{"id":"1467269422","owner":"10511912@N02","secret":"cc40b31c06","server":"1346","farm":2,"title":"Dog...","ispublic":1,"isfriend":0,"isfamily":0,"dateupload":"1191226742","views":"22590","url_s":"https:\/\/live.staticflickr.com\/1346\/1467269422_cc40b31c06_m.jpg","height_s":"160","width_s":"240","url_m":"https:\/\/live.staticflickr.com\/1346\/1467269422_cc40b31c06.jpg","height_m":"333","width_m":"500"},{"id":"6882749425","owner":"64216914@N08","secret":"5ab2ee9fd1","server":"7059","farm":8,"title":"dog","ispublic":1,"isfriend":0,"isfamily":0,"dateupload":"1329338554","views":"7402","url_s":"https:\/\/live.staticflickr.com\/7059\/6882749425_5ab2ee9fd1_m.jpg","height_s":"240","width_s":"160","url_m":"https:\/\/live.staticflickr.com\/7059\/6882749425_5ab2ee9fd1.jpg","height_m":"500","width_m":"333"},{"id":"5276473070","owner":"53875246@N02","secret":"71ac1b9719","server":"5288","farm":6,"title":"Dog","ispublic":1,"isfriend":0,"isfamily":0,"dateupload":"1292820344","views":"14478","url_s":"https:\/\/live.staticflickr.com\/5288\/5276473070_71ac1b9719_m.jpg","height_s":"178","width_s":"240","url_m":"https:\/\/live.staticflickr.com\/5288\/5276473070_71ac1b9719.jpg","height_m":"370","width_m":"500"},{"id":"40247231463","owner":"146750410@N06","secret":"0926fc2c0e","server":"7914","farm":8,"title":"dog","ispublic":1,"isfriend":0,"isfamily":0,"dateupload":"1551130599","views":"7301","url_s":"https:\/\/live.staticflickr.com\/7914\/40247231463_0926fc2c0e_m.jpg","height_s":"160","width_s":"240","url_m":"https:\/\/live.staticflickr.com\/7914\/40247231463_0926fc2c0e.jpg","height_m":"333","width_m":"500"},{"id":"13539116335","owner":"52287882@N05","secret":"fd88c0f93f","server":"2810","farm":3,"title":"Dog","ispublic":1,"isfriend":0,"isfamily":0,"dateupload":"1396278423","views":"11166","url_s":"https:\/\/live.staticflickr.com\/2810\/13539116335_fd88c0f93f_m.jpg","height_s":"240","width_s":"240","url_m":"https:\/\/live.staticflickr.com\/2810\/13539116335_fd88c0f93f.jpg","height_m":"500","width_m":"500"},{"id":"44085089061","owner":"78970829@N05","secret":"f0c8446fb8","server":"1795","farm":2,"title":"Dog","ispublic":1,"isfriend":0,"isfamily":0,"dateupload":"1534485055","views":"15641","url_s":"https:\/\/live.staticflickr.com\/1795\/44085089061_f0c8446fb8_m.jpg","height_s":"160","width_s":"240","url_m":"https:\/\/live.staticflickr.com\/1795\/44085089061_f0c8446fb8.jpg","height_m":"333","width_m":"500"},{"id":"26210854037","owner":"84161520@N00","secret":"e5076a7bdf","server":"787","farm":1,"title":"Dog","ispublic":1,"isfriend":0,"isfamily":0,"dateupload":"1522278447","views":"15654","url_s":"https:\/\/live.staticflickr.com\/787\/26210854037_e5076a7bdf_m.jpg","height_s":"160","width_s":"240","url_m":"https:\/\/live.staticflickr.com\/787\/26210854037_e5076a7bdf.jpg","height_m":"334","width_m":"500"},{"id":"7801204152","owner":"85237817@N08","secret":"ca445cea77","server":"8424","farm":9,"title":"dog","ispublic":1,"isfriend":0,"isfamily":0,"dateupload":"1345203220","views":"18649","url_s":"https:\/\/live.staticflickr.com\/8424\/7801204152_ca445cea77_m.jpg","height_s":"163","width_s":"240","url_m":"https:\/\/live.staticflickr.com\/8424\/7801204152_ca445cea77.jpg","height_m":"339","width_m":"500"},{"id":"7702558880","owner":"24125445@N04","secret":"aa0cba6c49","server":"8160","farm":9,"title":"Dogs","ispublic":1,"isfriend":0,"isfamily":0,"dateupload":"1343972310","views":"9372","url_s":"https:\/\/live.staticflickr.com\/8160\/7702558880_aa0cba6c49_m.jpg","height_s":"160","width_s":"240","url_m":"https:\/\/live.staticflickr.com\/8160\/7702558880_aa0cba6c49.jpg","height_m":"333","width_m":"500"},{"id":"14979855572","owner":"115377107@N03","secret":"b60329d847","server":"3863","farm":4,"title":"Dogs","ispublic":1,"isfriend":0,"isfamily":0,"dateupload":"1408555012","views":"7446","url_s":"https:\/\/live.staticflickr.com\/3863\/14979855572_b60329d847_m.jpg","height_s":"163","width_s":"240","url_m":"https:\/\/live.staticflickr.com\/3863\/14979855572_b60329d847.jpg","height_m":"340","width_m":"500"},{"id":"331808127","owner":"90458625@N00","secret":"1eed6d3fd3","server":"157","farm":1,"title":"Dog","ispublic":1,"isfriend":0,"isfamily":0,"dateupload":"1166971120","views":"14559","url_s":"https:\/\/live.staticflickr.com\/157\/331808127_1eed6d3fd3_m.jpg","height_s":"240","width_s":"240","url_m":"https:\/\/live.staticflickr.com\/157\/331808127_1eed6d3fd3.jpg","height_m":"500","width_m":"500"},{"id":"8034047795","owner":"74097368@N04","secret":"aaf6810610","server":"8312","farm":9,"title":"Dog","ispublic":1,"isfriend":0,"isfamily":0,"dateupload":"1348872801","views":"9723","url_s":"https:\/\/live.staticflickr.com\/8312\/8034047795_aaf6810610_m.jpg","height_s":"160","width_s":"240","url_m":"https:\/\/live.staticflickr.com\/8312\/8034047795_aaf6810610.jpg","height_m":"333","width_m":"500"},{"id":"14044671487","owner":"65919190@N07","secret":"51c179c410","server":"2929","farm":3,"title":"Dog","ispublic":1,"isfriend":0,"isfamily":0,"dateupload":"1400610521","views":"18690","url_s":"https:\/\/live.staticflickr.com\/2929\/14044671487_51c179c410_m.jpg","height_s":"160","width_s":"240","url_m":"https:\/\/live.staticflickr.com\/2929\/14044671487_51c179c410.jpg","height_m":"333","width_m":"500"},{"id":"4700159890","owner":"13956135@N04","secret":"9de4c46a79","server":"1282","farm":2,"title":"Dog","ispublic":1,"isfriend":0,"isfamily":0,"dateupload":"1276527070","views":"6342","url_s":"https:\/\/live.staticflickr.com\/1282\/4700159890_9de4c46a79_m.jpg","height_s":"240","width_s":"177","url_m":"https:\/\/live.staticflickr.com\/1282\/4700159890_9de4c46a79.jpg","height_m":"500","width_m":"369"},{"id":"17010075230","owner":"128609218@N08","secret":"a906b303c4","server":"8693","farm":9,"title":"Dogs","ispublic":1,"isfriend":0,"isfamily":0,"dateupload":"1429440106","views":"20432","url_s":"https:\/\/live.staticflickr.com\/8693\/17010075230_a906b303c4_m.jpg","height_s":"162","width_s":"240","url_m":"https:\/\/live.staticflickr.com\/8693\/17010075230_a906b303c4.jpg","height_m":"338","width_m":"500"},{"id":"22830093510","owner":"21692577@N02","secret":"393de59392","server":"5672","farm":6,"title":"dogs","ispublic":1,"isfriend":0,"isfamily":0,"dateupload":"1447962818","views":"34170","url_s":"https:\/\/live.staticflickr.com\/5672\/22830093510_393de59392_m.jpg","height_s":"148","width_s":"240","url_m":"https:\/\/live.staticflickr.com\/5672\/22830093510_393de59392.jpg","height_m":"308","width_m":"500"},{"id":"4442001036","owner":"47548656@N03","secret":"656c031ced","server":"2684","farm":3,"title":"Dog","ispublic":1,"isfriend":0,"isfamily":0,"dateupload":"1268866344","views":"18896","url_s":"https:\/\/live.staticflickr.com\/2684\/4442001036_656c031ced_m.jpg","height_s":"160","width_s":"240","url_m":"https:\/\/live.staticflickr.com\/2684\/4442001036_656c031ced.jpg","height_m":"333","width_m":"500"},{"id":"4785058462","owner":"24208395@N02","secret":"aef64971fb","server":"4114","farm":5,"title":"Dog.","ispublic":1,"isfriend":0,"isfamily":0,"dateupload":"1278896238","views":"14670","url_s":"https:\/\/live.staticflickr.com\/4114\/4785058462_aef64971fb_m.jpg","height_s":"160","width_s":"240","url_m":"https:\/\/live.staticflickr.com\/4114\/4785058462_aef64971fb.jpg","height_m":"333","width_m":"500"},{"id":"27096184677","owner":"161601567@N08","secret":"36c47d1b0a","server":"907","farm":1,"title":"#dog","ispublic":1,"isfriend":0,"isfamily":0,"dateupload":"1525746699","views":"6491","url_s":"https:\/\/live.staticflickr.com\/907\/27096184677_36c47d1b0a_m.jpg","height_s":"160","width_s":"240","url_m":"https:\/\/live.staticflickr.com\/907\/27096184677_36c47d1b0a.jpg","height_m":"333","width_m":"500"},{"id":"39293029294","owner":"9631696@N05","secret":"2ed39bc47c","server":"4608","farm":5,"title":"Dog","ispublic":1,"isfriend":0,"isfamily":0,"dateupload":"1517404188","views":"15125","url_s":"https:\/\/live.staticflickr.com\/4608\/39293029294_2ed39bc47c_m.jpg","height_s":"160","width_s":"240","url_m":"https:\/\/live.staticflickr.com\/4608\/39293029294_2ed39bc47c.jpg","height_m":"333","width_m":"500"},{"id":"28099242248","owner":"136852301@N05","secret":"e29f942f69","server":"950","farm":1,"title":"Cute litlle dog","ispublic":1,"isfriend":0,"isfamily":0,"dateupload":"1525771764","views":"32138","url_s":"https:\/\/live.staticflickr.com\/950\/28099242248_e29f942f69_m.jpg","height_s":"240","width_s":"180","url_m":"https:\/\/live.staticflickr.com\/950\/28099242248_e29f942f69.jpg","height_m":"500","width_m":"375"},{"id":"4846858996","owner":"50657150@N03","secret":"42a929e7aa","server":"4133","farm":5,"title":"Dog","ispublic":1,"isfriend":0,"isfamily":0,"dateupload":"1280594487","views":"50814","url_s":"https:\/\/live.staticflickr.com\/4133\/4846858996_42a929e7aa_m.jpg","height_s":"180","width_s":"240","url_m":"https:\/\/live.staticflickr.com\/4133\/4846858996_42a929e7aa.jpg","height_m":"375","width_m":"500"},{"id":"14305998936","owner":"7577456@N07","secret":"937380eddf","server":"5484","farm":6,"title":"dogs","ispublic":1,"isfriend":0,"isfamily":0,"dateupload":"1401715263","views":"8086","url_s":"https:\/\/live.staticflickr.com\/5484\/14305998936_937380eddf_m.jpg","height_s":"160","width_s":"240","url_m":"https:\/\/live.staticflickr.com\/5484\/14305998936_937380eddf.jpg","height_m":"333","width_m":"500"},{"id":"8301648682","owner":"35010510@N06","secret":"1c3b654efd","server":"8218","farm":9,"title":"Dog!","ispublic":1,"isfriend":0,"isfamily":0,"dateupload":"1356294983","views":"23842","url_s":"https:\/\/live.staticflickr.com\/8218\/8301648682_1c3b654efd_m.jpg","height_s":"160","width_s":"240","url_m":"https:\/\/live.staticflickr.com\/8218\/8301648682_1c3b654efd.jpg","height_m":"333","width_m":"500"},{"id":"14349303523","owner":"7577456@N07","secret":"0b9e080815","server":"5475","farm":6,"title":"dogs","ispublic":1,"isfriend":0,"isfamily":0,"dateupload":"1401715031","views":"16984","url_s":"https:\/\/live.staticflickr.com\/5475\/14349303523_0b9e080815_m.jpg","height_s":"160","width_s":"240","url_m":"https:\/\/live.staticflickr.com\/5475\/14349303523_0b9e080815.jpg","height_m":"333","width_m":"500"},{"id":"7662075992","owner":"68451295@N03","secret":"cfd3f23c59","server":"8017","farm":9,"title":"Dog.","ispublic":1,"isfriend":0,"isfamily":0,"dateupload":"1343485670","views":"14868","url_s":"https:\/\/live.staticflickr.com\/8017\/7662075992_cfd3f23c59_m.jpg","height_s":"134","width_s":"240","url_m":"https:\/\/live.staticflickr.com\/8017\/7662075992_cfd3f23c59.jpg","height_m":"278","width_m":"500"},{"id":"14668953516","owner":"94909931@N02","secret":"5570fb5827","server":"3918","farm":4,"title":"Dog","ispublic":1,"isfriend":0,"isfamily":0,"dateupload":"1405788487","views":"6640","url_s":"https:\/\/live.staticflickr.com\/3918\/14668953516_5570fb5827_m.jpg","height_s":"160","width_s":"240","url_m":"https:\/\/live.staticflickr.com\/3918\/14668953516_5570fb5827.jpg","height_m":"333","width_m":"500"},{"id":"17255384452","owner":"65422370@N08","secret":"c21416c1f2","server":"7601","farm":8,"title":"Dog","ispublic":1,"isfriend":0,"isfamily":0,"dateupload":"1429898604","views":"15736","url_s":"https:\/\/live.staticflickr.com\/7601\/17255384452_c21416c1f2_m.jpg","height_s":"180","width_s":"240","url_m":"https:\/\/live.staticflickr.com\/7601\/17255384452_c21416c1f2.jpg","height_m":"375","width_m":"500"},{"id":"5476763105","owner":"10033329@N04","secret":"8e39725237","server":"5297","farm":6,"title":"Dog","ispublic":1,"isfriend":0,"isfamily":0,"dateupload":"1298666123","views":"140385","url_s":"https:\/\/live.staticflickr.com\/5297\/5476763105_8e39725237_m.jpg","height_s":"240","width_s":"217","url_m":"https:\/\/live.staticflickr.com\/5297\/5476763105_8e39725237.jpg","height_m":"480","width_m":"433"},{"id":"6771586183","owner":"9027560@N05","secret":"6dcc3d31d3","server":"7154","farm":8,"title":"Dog","ispublic":1,"isfriend":0,"isfamily":0,"dateupload":"1327684188","views":"16259","url_s":"https:\/\/live.staticflickr.com\/7154\/6771586183_6dcc3d31d3_m.jpg","height_s":"240","width_s":"160","url_m":"https:\/\/live.staticflickr.com\/7154\/6771586183_6dcc3d31d3.jpg","height_m":"500","width_m":"333"},{"id":"11054709683","owner":"37653851@N08","secret":"7d86907170","server":"7342","farm":8,"title":"Dogs!!!","ispublic":1,"isfriend":0,"isfamily":0,"dateupload":"1385409218","views":"17005","url_s":"https:\/\/live.staticflickr.com\/7342\/11054709683_7d86907170_m.jpg","height_s":"160","width_s":"240","url_m":"https:\/\/live.staticflickr.com\/7342\/11054709683_7d86907170.jpg","height_m":"333","width_m":"500"},{"id":"14160877157","owner":"65420655@N06","secret":"ca7ea0fd2d","server":"2920","farm":3,"title":"dog","ispublic":1,"isfriend":0,"isfamily":0,"dateupload":"1401915015","views":"19035","url_s":"https:\/\/live.staticflickr.com\/2920\/14160877157_ca7ea0fd2d_m.jpg","height_s":"215","width_s":"240","url_m":"https:\/\/live.staticflickr.com\/2920\/14160877157_ca7ea0fd2d.jpg","height_m":"449","width_m":"500"},{"id":"6490792251","owner":"65677630@N08","secret":"c0617611e5","server":"7150","farm":8,"title":"Dog","ispublic":1,"isfriend":0,"isfamily":0,"dateupload":"1323582454","views":"20867","url_s":"https:\/\/live.staticflickr.com\/7150\/6490792251_c0617611e5_m.jpg","height_s":"160","width_s":"240","url_m":"https:\/\/live.staticflickr.com\/7150\/6490792251_c0617611e5.jpg","height_m":"333","width_m":"500"},{"id":"4908475389","owner":"41312432@N06","secret":"329be7e04a","server":"4143","farm":5,"title":"dog","ispublic":1,"isfriend":0,"isfamily":0,"dateupload":"1282262854","views":"10247","url_s":"https:\/\/live.staticflickr.com\/4143\/4908475389_329be7e04a_m.jpg","height_s":"214","width_s":"240","url_m":"https:\/\/live.staticflickr.com\/4143\/4908475389_329be7e04a.jpg","height_m":"445","width_m":"500"},{"id":"6129947477","owner":"65401415@N02","secret":"c112e2e702","server":"6196","farm":7,"title":"dog","ispublic":1,"isfriend":0,"isfamily":0,"dateupload":"1315582798","views":"18962","url_s":"https:\/\/live.staticflickr.com\/6196\/6129947477_c112e2e702_m.jpg","height_s":"160","width_s":"240","url_m":"https:\/\/live.staticflickr.com\/6196\/6129947477_c112e2e702.jpg","height_m":"333","width_m":"500"},{"id":"5576737547","owner":"30075426@N08","secret":"788dc1ecb0","server":"5102","farm":6,"title":"Dogs","ispublic":1,"isfriend":0,"isfamily":0,"dateupload":"1301586942","views":"485","url_s":"https:\/\/live.staticflickr.com\/5102\/5576737547_788dc1ecb0_m.jpg","height_s":"172","width_s":"240","url_m":"https:\/\/live.staticflickr.com\/5102\/5576737547_788dc1ecb0.jpg","height_m":"358","width_m":"500"},{"id":"6385350355","owner":"46317268@N06","secret":"d03a4d5fb5","server":"6115","farm":7,"title":"Dog","ispublic":1,"isfriend":0,"isfamily":0,"dateupload":"1321997530","views":"19535","url_s":"https:\/\/live.staticflickr.com\/6115\/6385350355_d03a4d5fb5_m.jpg","height_s":"240","width_s":"160","url_m":"https:\/\/live.staticflickr.com\/6115\/6385350355_d03a4d5fb5.jpg","height_m":"500","width_m":"333"},{"id":"7148433385","owner":"64739312@N03","secret":"cf6966137b","server":"7098","farm":8,"title":"Dog","ispublic":1,"isfriend":0,"isfamily":0,"dateupload":"1336312456","views":"5755","url_s":"https:\/\/live.staticflickr.com\/7098\/7148433385_cf6966137b_m.jpg","height_s":"240","width_s":"159","url_m":"https:\/\/live.staticflickr.com\/7098\/7148433385_cf6966137b.jpg","height_m":"500","width_m":"332"},{"id":"8153507018","owner":"66766724@N07","secret":"7407c28481","server":"7140","farm":8,"title":"dog","ispublic":1,"isfriend":0,"isfamily":0,"dateupload":"1352028782","views":"145048","url_s":"https:\/\/live.staticflickr.com\/7140\/8153507018_7407c28481_m.jpg","height_s":"219","width_s":"240","url_m":"https:\/\/live.staticflickr.com\/7140\/8153507018_7407c28481.jpg","height_m":"456","width_m":"500"},{"id":"30735884998","owner":"160109254@N08","secret":"046b95b54f","server":"1894","farm":2,"title":"Dogs","ispublic":1,"isfriend":0,"isfamily":0,"dateupload":"1536630267","views":"6047","url_s":"https:\/\/live.staticflickr.com\/1894\/30735884998_046b95b54f_m.jpg","height_s":"168","width_s":"240","url_m":"https:\/\/live.staticflickr.com\/1894\/30735884998_046b95b54f.jpg","height_m":"349","width_m":"500"},{"id":"8133377074","owner":"89330540@N03","secret":"e8646bbd10","server":"8050","farm":9,"title":"Dog","ispublic":1,"isfriend":0,"isfamily":0,"dateupload":"1351474753","views":"13514","url_s":"https:\/\/live.staticflickr.com\/8050\/8133377074_e8646bbd10_m.jpg","height_s":"160","width_s":"240","url_m":"https:\/\/live.staticflickr.com\/8050\/8133377074_e8646bbd10.jpg","height_m":"333","width_m":"500"},{"id":"14792593459","owner":"126287378@N04","secret":"9ab28559b0","server":"3864","farm":4,"title":"dog","ispublic":1,"isfriend":0,"isfamily":0,"dateupload":"1408538170","views":"16854","url_s":"https:\/\/live.staticflickr.com\/3864\/14792593459_9ab28559b0_m.jpg","height_s":"240","width_s":"160","url_m":"https:\/\/live.staticflickr.com\/3864\/14792593459_9ab28559b0.jpg","height_m":"500","width_m":"333"},{"id":"9893489803","owner":"10688073@N06","secret":"f9f207247e","server":"7336","farm":8,"title":"Dog","ispublic":1,"isfriend":0,"isfamily":0,"dateupload":"1379927964","views":"13550","url_s":"https:\/\/live.staticflickr.com\/7336\/9893489803_f9f207247e_m.jpg","height_s":"160","width_s":"240","url_m":"https:\/\/live.staticflickr.com\/7336\/9893489803_f9f207247e.jpg","height_m":"333","width_m":"500"},{"id":"32965749343","owner":"134277520@N03","secret":"ccfdd7cb06","server":"2929","farm":3,"title":"Dogs","ispublic":1,"isfriend":0,"isfamily":0,"dateupload":"1491074515","views":"11932","url_s":"https:\/\/live.staticflickr.com\/2929\/32965749343_ccfdd7cb06_m.jpg","height_s":"160","width_s":"240","url_m":"https:\/\/live.staticflickr.com\/2929\/32965749343_ccfdd7cb06.jpg","height_m":"333","width_m":"500"},{"id":"37751231862","owner":"138910100@N04","secret":"6f6c646019","server":"4501","farm":5,"title":"Dog","ispublic":1,"isfriend":0,"isfamily":0,"dateupload":"1508369421","views":"6916","url_s":"https:\/\/live.staticflickr.com\/4501\/37751231862_6f6c646019_m.jpg","height_s":"160","width_s":"240","url_m":"https:\/\/live.staticflickr.com\/4501\/37751231862_6f6c646019.jpg","height_m":"333","width_m":"500"},{"id":"24443378954","owner":"21680391@N04","secret":"cf4548cb56","server":"1521","farm":2,"title":"dog","ispublic":1,"isfriend":0,"isfamily":0,"dateupload":"1197259732","views":"105088","url_s":"https:\/\/live.staticflickr.com\/1521\/24443378954_cf4548cb56_m.jpg","height_s":"240","width_s":"240","url_m":"https:\/\/live.staticflickr.com\/1521\/24443378954_cf4548cb56.jpg","height_m":"500","width_m":"500"},{"id":"43057031205","owner":"141775211@N03","secret":"252919a7e3","server":"1814","farm":2,"title":"Dog","ispublic":1,"isfriend":0,"isfamily":0,"dateupload":"1533904346","views":"7914","url_s":"https:\/\/live.staticflickr.com\/1814\/43057031205_252919a7e3_m.jpg","height_s":"150","width_s":"240","url_m":"https:\/\/live.staticflickr.com\/1814\/43057031205_252919a7e3.jpg","height_m":"313","width_m":"500"}]},"stat":"ok"}