{"photos":{"page":3,"pages":40508,"perpage":50,"total":"2025396","photo":[{"id":"16303593632","owner":"96768881@N08","secret":"976ab0a3db","server":"7481","farm":8,"title":"Dog","ispublic":1,"isfriend":0,"isfamily":0,"dateupload":"1421540627","views":"38786","url_s":"https:\/\/live.staticflickr.com\/7481\/16303593632_976ab0a3db_m.jpg","height_s":"160","width_s":"240","url_m":"https:\/\/live.staticflickr.com\/7481\/16303593632_976ab0a3db.jpg","height_m":"333","width_m":"500"},{"id":"28410970637","owner":"92492454@N00","secret":"4e219a87fa","server":"923","farm":1,"title":"Dogs","ispublic":1,"isfriend":0,"isfamily":0,"dateupload":"1531069504","views":"8598","url_s":"https:\/\/live.staticflickr.com\/923\/28410970637_4e219a87fa_m.jpg","height_s":"240","width_s":"180","url_m":"https:\/\/live.staticflickr.com\/923\/28410970637_4e219a87fa.jpg","height_m":"500","width_m":"375"},{"id":"6277863598","owner":"65865817@N04","secret":"5d0d1d278b","server":"6101","farm":7,"title":"dog","ispublic":1,"isfriend":0,"isfamily":0,"dateupload":"1319488178","views":"33405","url_s":"https:\/\/live.staticflickr.com\/6101\/6277863598_5d0d1d278b_m.jpg","height_s":"160","width_s":"240","url_m":"https:\/\/live.staticflickr.com\/6101\/6277863598_5d0d1d278b.jpg","height_m":"333","width_m":"500"},{"id":"13765425815","owner":"77245515@N02","secret":"961a3aa3ef","server":"7458","farm":8,"title":"Dog","ispublic":1,"isfriend":0,"isfamily":0,"dateupload":"1397161047","views":"36620","url_s":"https:\/\/live.staticflickr.com\/7458\/13765425815_961a3aa3ef_m.jpg","height_s":"160","width_s":"240","url_m":"https:\/\/live.staticflickr.com\/7458\/13765425815_961a3aa3ef.jpg","height_m":"333","width_m":"500"},{"id":"8447795436","owner":"57302588@N07","secret":"309e064cd7","server":"8374","farm":9,"title":"Dogs","ispublic":1,"isfriend":0,"isfamily":0,"dateupload":"1360068132","views":"9254","url_s":"https:\/\/live.staticflickr.com\/8374\/8447795436_309e064cd7_m.jpg","height_s":"162","width_s":"240","url_m":"https:\/\/live.staticflickr.com\/8374\/8447795436_309e064cd7.jpg","height_m":"338","width_m":"500"},{"id":"39397079150","owner":"93754546@N02","secret":"62eda3ec01","server":"870","farm":1,"title":"Dog","ispublic":1,"isfriend":0,"isfamily":0,"dateupload":"1522757218","views":"23771","url_s":"https:\/\/live.staticflickr.com\/870\/39397079150_62eda3ec01_m.jpg","height_s":"160","width_s":"240","url_m":"https:\/\/live.staticflickr.com\/870\/39397079150_62eda3ec01.jpg","height_m":"333","width_m":"500"},{"id":"41772251740","owner":"151302305@N08","secret":"6c2351cc0e","server":"858","farm":1,"title":"Dog","ispublic":1,"isfriend":0,"isfamily":0,"dateupload":"1532314056","views":"9951","url_s":"https:\/\/live.staticflickr.com\/858\/41772251740_6c2351cc0e_m.jpg","height_s":"160","width_s":"240","url_m":"https:\/\/live.staticflickr.com\/858\/41772251740_6c2351cc0e.jpg","height_m":"333","width_m":"500"},{"id":"3013287500","owner":"63826378@N00","secret":"258d27c365","server":"3022","farm":4,"title":"Dog","ispublic":1,"isfriend":0,"isfamily":0,"dateupload":"1226163335","views":"23105","url_s":"https:\/\/live.staticflickr.com\/3022\/3013287500_258d27c365_m.jpg","height_s":"161","width_s":"240","url_m":"https:\/\/live.staticflickr.com\/3022\/3013287500_258d27c365.jpg","height_m":"335","width_m":"500"},{"id":"8307822871","owner":"91535232@N06","secret":"3b3296f7b6","server":"8353","farm":9,"title":"dog","ispublic":1,"isfriend":0,"isfamily":0,"dateupload":"1356477894","views":"32192","url_s":"https:\/\/live.staticflickr.com\/8353\/8307822871_3b3296f7b6_m.jpg","height_s":"160","width_s":"240","url_m":"https:\/\/live.staticflickr.com\/8353\/8307822871_3b3296f7b6.jpg","height_m":"333","width_m":"500"},{"id":"4073677420","owner":"32573704@N00","secret":"76ba2ee2c0","server":"2526","farm":3,"title":"Dogs!","ispublic":1,"isfriend":0,"isfamily":0,"dateupload":"1257291679","views":"43912","url_s":"https:\/\/live.staticflickr.com\/2526\/4073677420_76ba2ee2c0_m.jpg","height_s":"161","width_s":"240","url_m":"https:\/\/live.staticflickr.com\/2526\/4073677420_76ba2ee2c0.jpg","height_m":"334","width_m":"500"},{"id":"15011692015","owner":"98553360@N03","secret":"603aa64db0","server":"3852","farm":4,"title":"DOG","ispublic":1,"isfriend":0,"isfamily":0,"dateupload":"1408822870","views":"36082","url_s":"https:\/\/live.staticflickr.com\/3852\/15011692015_603aa64db0_m.jpg","height_s":"136","width_s":"240","url_m":"https:\/\/live.staticflickr.com\/3852\/15011692015_603aa64db0.jpg","height_m":"283","width_m":"500"},{"id":"7064844221","owner":"68683680@N07","secret":"a156eb7312","server":"7131","farm":8,"title":"dog","ispublic":1,"isfriend":0,"isfamily":0,"dateupload":"1334075017","views":"32332","url_s":"https:\/\/live.staticflickr.com\/7131\/7064844221_a156eb7312_m.jpg","height_s":"160","width_s":"240","url_m":"https:\/\/live.staticflickr.com\/7131\/7064844221_a156eb7312.jpg","height_m":"333","width_m":"500"},{"id":"12925002265","owner":"118747511@N02","secret":"e15a18baf2","server":"3785","farm":4,"title":"dog","ispublic":1,"isfriend":0,"isfamily":0,"dateupload":"1393930786","views":"16674","url_s":"https:\/\/live.staticflickr.com\/3785\/12925002265_e15a18baf2_m.jpg","height_s":"160","width_s":"240","url_m":"https:\/\/live.staticflickr.com\/3785\/12925002265_e15a18baf2.jpg","height_m":"333","width_m":"500"},{"id":"8877244682","owner":"16075290@N00","secret":"268208301c","server":"5463","farm":6,"title":"dog","ispublic":1,"isfriend":0,"isfamily":0,"dateupload":"1369821644","views":"9209","url_s":"https:\/\/live.staticflickr.com\/5463\/8877244682_268208301c_m.jpg","height_s":"160","width_s":"240","url_m":"https:\/\/live.staticflickr.com\/5463\/8877244682_268208301c.jpg","height_m":"333","width_m":"500"},{"id":"4857809340","owner":"48173546@N05","secret":"a9a1713c8f","server":"4120","farm":5,"title":"dog.","ispublic":1,"isfriend":0,"isfamily":0,"dateupload":"1280859980","views":"31052","url_s":"https:\/\/live.staticflickr.com\/4120\/4857809340_a9a1713c8f_m.jpg","height_s":"180","width_s":"240","url_m":"https:\/\/live.staticflickr.com\/4120\/4857809340_a9a1713c8f.jpg","height_m":"375","width_m":"500"},{"id":"15270725173","owner":"49907242@N05","secret":"96ae050af2","server":"7546","farm":8,"title":"dog","ispublic":1,"isfriend":0,"isfamily":0,"dateupload":"1417098632","views":"25696","url_s":"https:\/\/live.staticflickr.com\/7546\/15270725173_96ae050af2_m.jpg","height_s":"240","width_s":"240","url_m":"https:\/\/live.staticflickr.com\/7546\/15270725173_96ae050af2.jpg","height_m":"500","width_m":"500"},{"id":"5427821783","owner":"59272925@N04","secret":"fc299d6344","server":"5173","farm":6,"title":"dog","ispublic":1,"isfriend":0,"isfamily":0,"dateupload":"1297260684","views":"15300","url_s":"https:\/\/live.staticflickr.com\/5173\/5427821783_fc299d6344_m.jpg","height_s":"160","width_s":"240","url_m":"https:\/\/live.staticflickr.com\/5173\/5427821783_fc299d6344.jpg","height_m":"333","width_m":"500"},{"id":"30735891958","owner":"160109254@N08","secret":"50be3691f6","server":"1899","farm":2,"title":"Dogs","ispublic":1,"isfriend":0,"isfamily":0,"dateupload":"1536630264","views":"1160","url_s":"https:\/\/live.staticflickr.com\/1899\/30735891958_50be3691f6_m.jpg","height_s":"160","width_s":"240","url_m":"https:\/\/live.staticflickr.com\/1899\/30735891958_50be3691f6.jpg","height_m":"333","width_m":"500"},{"id":"12876507943","owner":"100640170@N05","secret":"996466e8bd","server":"7459","farm":8,"title":"Dogs","ispublic":1,"isfriend":0,"isfamily":0,"dateupload":"1393762871","views":"31319","url_s":"https:\/\/live.staticflickr.com\/7459\/12876507943_996466e8bd_m.jpg","height_s":"159","width_s":"240","url_m":"https:\/\/live.staticflickr.com\/7459\/12876507943_996466e8bd.jpg","height_m":"331","width_m":"500"},{"id":"6393580733","owner":"54169606@N05","secret":"466944cac9","server":"7013","farm":8,"title":"Dog","ispublic":1,"isfriend":0,"isfamily":0,"dateupload":"1322123456","views":"26711","url_s":"https:\/\/live.staticflickr.com\/7013\/6393580733_466944cac9_m.jpg","height_s":"180","width_s":"240","url_m":"https:\/\/live.staticflickr.com\/7013\/6393580733_466944cac9.jpg","height_m":"375","width_m":"500"},{"id":"6971623973","owner":"16309307@N04","secret":"6ec6541027","server":"7059","farm":8,"title":"Dog","ispublic":1,"isfriend":0,"isfamily":0,"dateupload":"1331446616","views":"25627","url_s":"https:\/\/live.staticflickr.com\/7059\/6971623973_6ec6541027_m.jpg","height_s":"240","width_s":"160","url_m":"https:\/\/live.staticflickr.com\/7059\/6971623973_6ec6541027.jpg","height_m":"500","width_m":"333"},{"id":"5319459668","owner":"52295252@N06","secret":"523a6c4e75","server":"1411","farm":2,"title":"Dog","ispublic":1,"isfriend":0,"isfamily":0,"dateupload":"1294040356","views":"12242","url_s":"https:\/\/live.staticflickr.com\/1411\/5319459668_523a6c4e75_m.jpg","height_s":"180","width_s":"240","url_m":"https:\/\/live.staticflickr.com\/1411\/5319459668_523a6c4e75.jpg","height_m":"375","width_m":"500"},{"id":"2879493607","owner":"29345761@N04","secret":"221b200f8f","server":"3173","farm":4,"title":"Dog","ispublic":1,"isfriend":0,"isfamily":0,"dateupload":"1222115498","views":"14293","url_s":"https:\/\/live.staticflickr.com\/3173\/2879493607_221b200f8f_m.jpg","height_s":"171","width_s":"240","url_m":"https:\/\/live.staticflickr.com\/3173\/2879493607_221b200f8f.jpg","height_m":"357","width_m":"500"},{"id":"33086947290","owner":"21680391@N04","secret":"c7b72f1e0e","server":"727","farm":1,"title":"Dog","ispublic":1,"isfriend":0,"isfamily":0,"dateupload":"1489654690","views":"77328","url_s":"https:\/\/live.staticflickr.com\/727\/33086947290_c7b72f1e0e_m.jpg","height_s":"148","width_s":"240","url_m":"https:\/\/live.staticflickr.com\/727\/33086947290_c7b72f1e0e.jpg","height_m":"309","width_m":"500"},{"id":"8034052074","owner":"74097368@N04","secret":"e487fa4a66","server":"8178","farm":9,"title":"Dog","ispublic":1,"isfriend":0,"isfamily":0,"dateupload":"1348872798","views":"17335","url_s":"https:\/\/live.staticflickr.com\/8178\/8034052074_e487fa4a66_m.jpg","height_s":"240","width_s":"208","url_m":"https:\/\/live.staticflickr.com\/8178\/8034052074_e487fa4a66.jpg","height_m":"500","width_m":"434"},{"id":"14527972592","owner":"35925433@N06","secret":"d945d346c7","server":"5574","farm":6,"title":"dog","ispublic":1,"isfriend":0,"isfamily":0,"dateupload":"1403988628","views":"38091","url_s":"https:\/\/live.staticflickr.com\/5574\/14527972592_d945d346c7_m.jpg","height_s":"159","width_s":"240","url_m":"https:\/\/live.staticflickr.com\/5574\/14527972592_d945d346c7.jpg","height_m":"331","width_m":"500"},{"id":"43293863672","owner":"75227907@N00","secret":"d84227a8d5","server":"1761","farm":2,"title":"Dog","ispublic":1,"isfriend":0,"isfamily":0,"dateupload":"1531320427","views":"8439","url_s":"https:\/\/live.staticflickr.com\/1761\/43293863672_d84227a8d5_m.jpg","height_s":"160","width_s":"240","url_m":"https:\/\/live.staticflickr.com\/1761\/43293863672_d84227a8d5.jpg","height_m":"333","width_m":"500"},{"id":"14582371751","owner":"119128663@N05","secret":"5ef6893177","server":"3922","farm":4,"title":"Dog","ispublic":1,"isfriend":0,"isfamily":0,"dateupload":"1404638936","views":"26075","url_s":"https:\/\/live.staticflickr.com\/3922\/14582371751_5ef6893177_m.jpg","height_s":"173","width_s":"240","url_m":"https:\/\/live.staticflickr.com\/3922\/14582371751_5ef6893177.jpg","height_m":"360","width_m":"500"},{"id":"3177359906","owner":"92945201@N00","secret":"603a53083b","server":"3427","farm":4,"title":"Dog","ispublic":1,"isfriend":0,"isfamily":0,"dateupload":"1231345668","views":"20044","url_s":"https:\/\/live.staticflickr.com\/3427\/3177359906_603a53083b_m.jpg","height_s":"240","width_s":"187","url_m":"https:\/\/live.staticflickr.com\/3427\/3177359906_603a53083b.jpg","height_m":"500","width_m":"389"},{"id":"7921338116","owner":"28389839@N00","secret":"ebc7c646bf","server":"8301","farm":9,"title":"Dog","ispublic":1,"isfriend":0,"isfamily":0,"dateupload":"1346679395","views":"11016","url_s":"https:\/\/live.staticflickr.com\/8301\/7921338116_ebc7c646bf_m.jpg","height_s":"240","width_s":"184","url_m":"https:\/\/live.staticflickr.com\/8301\/7921338116_ebc7c646bf.jpg","height_m":"500","width_m":"384"},{"id":"2647653070","owner":"10639842@N05","secret":"0572f6bcbf","server":"3158","farm":4,"title":"Dog","ispublic":1,"isfriend":0,"isfamily":0,"dateupload":"1215466005","views":"28513","url_s":"https:\/\/live.staticflickr.com\/3158\/2647653070_0572f6bcbf_m.jpg","height_s":"240","width_s":"180","url_m":"https:\/\/live.staticflickr.com\/3158\/2647653070_0572f6bcbf.jpg","height_m":"500","width_m":"375"},{"id":"15247152313","owner":"71544440@N08","secret":"e5182270d5","server":"8596","farm":9,"title":"Dog","ispublic":1,"isfriend":0,"isfamily":0,"dateupload":"1416820782","views":"20253","url_s":"https:\/\/live.staticflickr.com\/8596\/15247152313_e5182270d5_m.jpg","height_s":"160","width_s":"240","url_m":"https:\/\/live.staticflickr.com\/8596\/15247152313_e5182270d5.jpg","height_m":"333","width_m":"500"},{"id":"16052606775","owner":"128359190@N06","secret":"8672d4a42c","server":"8584","farm":9,"title":"Dog","ispublic":1,"isfriend":0,"isfamily":0,"dateupload":"1418941119","views":"26389","url_s":"https:\/\/live.staticflickr.com\/8584\/16052606775_8672d4a42c_m.jpg","height_s":"240","width_s":"208","url_m":"https:\/\/live.staticflickr.com\/8584\/16052606775_8672d4a42c.jpg","height_m":"500","width_m":"434"},{"id":"14793554227","owner":"115377107@N03","secret":"f26b55f9fb","server":"5581","farm":6,"title":"Dog","ispublic":1,"isfriend":0,"isfamily":0,"dateupload":"1408555014","views":"21008","url_s":"https:\/\/live.staticflickr.com\/5581\/14793554227_f26b55f9fb_m.jpg","height_s":"160","width_s":"240","url_m":"https:\/\/live.staticflickr.com\/5581\/14793554227_f26b55f9fb.jpg","height_m":"333","width_m":"500"},{"id":"16612314500","owner":"64211968@N04","secret":"7fe3231b20","server":"7649","farm":8,"title":"Dog","ispublic":1,"isfriend":0,"isfamily":0,"dateupload":"1426221161","views":"51243","url_s":"https:\/\/live.staticflickr.com\/7649\/16612314500_7fe3231b20_m.jpg","height_s":"160","width_s":"240","url_m":"https:\/\/live.staticflickr.com\/7649\/16612314500_7fe3231b20.jpg","height_m":"333","width_m":"500"},{"id":"12290639504","owner":"76961448@N03","secret":"0883903387","server":"5485","farm":6,"title":"Dog","ispublic":1,"isfriend":0,"isfamily":0,"dateupload":"1391446756","views":"22557","url_s":"https:\/\/live.staticflickr.com\/5485\/12290639504_0883903387_m.jpg","height_s":"240","width_s":"130","url_m":"https:\/\/live.staticflickr.com\/5485\/12290639504_0883903387.jpg","height_m":"500","width_m":"270"},{"id":"5237869640","owner":"47768498@N08","secret":"68512a64b8","server":"5202","farm":6,"title":"dog","ispublic":1,"isfriend":0,"isfamily":0,"dateupload":"1291636186","views":"29845","url_s":"https:\/\/live.staticflickr.com\/5202\/5237869640_68512a64b8_m.jpg","height_s":"190","width_s":"240","url_m":"https:\/\/live.staticflickr.com\/5202\/5237869640_68512a64b8.jpg","height_m":"395","width_m":"500"},{"id":"16132373301","owner":"13523064@N03","secret":"2e46a33cae","server":"7499","farm":8,"title":"Dogs","ispublic":1,"isfriend":0,"isfamily":0,"dateupload":"1419824032","views":"29266","url_s":"https:\/\/live.staticflickr.com\/7499\/16132373301_2e46a33cae_m.jpg","height_s":"160","width_s":"240","url_m":"https:\/\/live.staticflickr.com\/7499\/16132373301_2e46a33cae.jpg","height_m":"333","width_m":"500"},{"id":"9900776034","owner":"54169606@N05","secret":"827fbbf65a","server":"5496","farm":6,"title":"Dog","ispublic":1,"isfriend":0,"isfamily":0,"dateupload":"1379958211","views":"54486","url_s":"https:\/\/live.staticflickr.com\/5496\/9900776034_827fbbf65a_m.jpg","height_s":"180","width_s":"240","url_m":"https:\/\/live.staticflickr.com\/5496\/9900776034_827fbbf65a.jpg","height_m":"375","width_m":"500"},{"id":"116694254","owner":"52184765@N00","secret":"9ee8c78055","server":"35","farm":1,"title":"dogs","ispublic":1,"isfriend":0,"isfamily":0,"dateupload":"1125298813","views":"25719","url_s":"https:\/\/live.staticflickr.com\/35\/116694254_9ee8c78055_m.jpg","height_s":"180","width_s":"240","url_m":"https:\/\/live.staticflickr.com\/35\/116694254_9ee8c78055.jpg","height_m":"375","width_m":"500"},{"id":"2561239806","owner":"43787651@N00","secret":"f87643c72f","server":"2206","farm":3,"title":"dog","ispublic":1,"isfriend":0,"isfamily":0,"dateupload":"1212932351","views":"22943","url_s":"https:\/\/live.staticflickr.com\/2206\/2561239806_f87643c72f_m.jpg","height_s":"240","width_s":"160","url_m":"https:\/\/live.staticflickr.com\/2206\/2561239806_f87643c72f.jpg","height_m":"500","width_m":"333"},{"id":"3359532438","owner":"28840463@N03","secret":"56eeae14a4","server":"3588","farm":4,"title":"Dog..","ispublic":1,"isfriend":0,"isfamily":0,"dateupload":"1237192602","views":"16403","url_s":"https:\/\/live.staticflickr.com\/3588\/3359532438_56eeae14a4_m.jpg","height_s":"190","width_s":"240","url_m":"https:\/\/live.staticflickr.com\/3588\/3359532438_56eeae14a4.jpg","height_m":"396","width_m":"500"},{"id":"45962676905","owner":"142791213@N03","secret":"2aff19e4c0","server":"4877","farm":5,"title":"#dogs","ispublic":1,"isfriend":0,"isfamily":0,"dateupload":"1548466313","views":"3688","url_s":"https:\/\/live.staticflickr.com\/4877\/45962676905_2aff19e4c0_m.jpg","height_s":"240","width_s":"180","url_m":"https:\/\/live.staticflickr.com\/4877\/45962676905_2aff19e4c0.jpg","height_m":"500","width_m":"375"},{"id":"10157877334","owner":"62528499@N03","secret":"3a095f2fa3","server":"7392","farm":8,"title":"Dog","ispublic":1,"isfriend":0,"isfamily":0,"dateupload":"1381253599","views":"20549","url_s":"https:\/\/live.staticflickr.com\/7392\/10157877334_3a095f2fa3_m.jpg","height_s":"240","width_s":"160","url_m":"https:\/\/live.staticflickr.com\/7392\/10157877334_3a095f2fa3.jpg","height_m":"500","width_m":"333"},{"id":"33588728640","owner":"126135960@N04","secret":"deacb1fb9d","server":"2946","farm":3,"title":"Dogs","ispublic":1,"isfriend":0,"isfamily":0,"dateupload":"1491914934","views":"57284","url_s":"https:\/\/live.staticflickr.com\/2946\/33588728640_deacb1fb9d_m.jpg","height_s":"160","width_s":"240","url_m":"https:\/\/live.staticflickr.com\/2946\/33588728640_deacb1fb9d.jpg","height_m":"333","width_m":"500"},{"id":"14390189059","owner":"90486841@N00","secret":"253c02434e","server":"2936","farm":3,"title":"Dog","ispublic":1,"isfriend":0,"isfamily":0,"dateupload":"1404535532","views":"20955","url_s":"https:\/\/live.staticflickr.com\/2936\/14390189059_253c02434e_m.jpg","height_s":"159","width_s":"240","url_m":"https:\/\/live.staticflickr.com\/2936\/14390189059_253c02434e.jpg","height_m":"332","width_m":"500"},{"id":"40123212242","owner":"8114397@N03","secret":"6fbe325d94","server":"4631","farm":5,"title":"Dog","ispublic":1,"isfriend":0,"isfamily":0,"dateupload":"1518117644","views":"18810","url_s":"https:\/\/live.staticflickr.com\/4631\/40123212242_6fbe325d94_m.jpg","height_s":"170","width_s":"240","url_m":"https:\/\/live.staticflickr.com\/4631\/40123212242_6fbe325d94.jpg","height_m":"354","width_m":"500"},{"id":"30735855818","owner":"160109254@N08","secret":"254ccc46b2","server":"1876","farm":2,"title":"Dogs","ispublic":1,"isfriend":0,"isfamily":0,"dateupload":"1536630266","views":"1182","url_s":"https:\/\/live.staticflickr.com\/1876\/30735855818_254ccc46b2_m.jpg","height_s":"160","width_s":"240","url_m":"https:\/\/live.staticflickr.com\/1876\/30735855818_254ccc46b2.jpg","height_m":"333","width_m":"500"},{"id":"36406030694","owner":"78970829@N05","secret":"f27eaaf73f","server":"4396","farm":5,"title":"Dog","ispublic":1,"isfriend":0,"isfamily":0,"dateupload":"1505489577","views":"11998","url_s":"https:\/\/live.staticflickr.com\/4396\/36406030694_f27eaaf73f_m.jpg","height_s":"240","width_s":"210","url_m":"https:\/\/live.staticflickr.com\/4396\/36406030694_f27eaaf73f.jpg","height_m":"500","width_m":"438"},{"id":"8510605005","owner":"31145629@N05","secret":"72b02fa543","server":"8232","farm":9,"title":"Dog","ispublic":1,"isfriend":0,"isfamily":0,"dateupload":"1361923723","views":"31291","url_s":"https:\/\/live.staticflickr.com\/8232\/8510605005_72b02fa543_m.jpg","height_s":"159","width_s":"240","url_m":"https:\/\/live.staticflickr.com\/8232\/8510605005_72b02fa543.jpg","height_m":"332","width_m":"500"}]},"stat":"ok"}