{"photos":{"page":5,"pages":40590,"perpage":50,"total":"2029500","photo":[{"id":"39521244030","owner":"153653558@N02","secret":"2949110e46","server":"895","farm":1,"title":"Dog","ispublic":1,"isfriend":0,"isfamily":0,"dateupload":"1523237280","views":"6554","url_s":"https:\/\/live.staticflickr.com\/895\/39521244030_2949110e46_m.jpg","height_s":"160","width_s":"240","url_m":"https:\/\/live.staticflickr.com\/895\/39521244030_2949110e46.jpg","height_m":"333","width_m":"500"},{"id":"43110757262","owner":"84134078@N02","secret":"f40c6bba92","server":"1767","farm":2,"title":"Dog","ispublic":1,"isfriend":0,"isfamily":0,"dateupload":"1530567742","views":"7114","url_s":"https:\/\/live.staticflickr.com\/1767\/43110757262_f40c6bba92_m.jpg","height_s":"159","width_s":"240","url_m":"https:\/\/live.staticflickr.com\/1767\/43110757262_f40c6bba92.jpg","height_m":"331","width_m":"500"},{"id":"13995474648","owner":"7821285@N08","secret":"33e7ba6d3b","server":"7403","farm":8,"title":"Dogs","ispublic":1,"isfriend":0,"isfamily":0,"dateupload":"1400038854","views":"463","url_s":"https:\/\/live.staticflickr.com\/7403\/13995474648_33e7ba6d3b_m.jpg","height_s":"160","width_s":"240","url_m":"https:\/\/live.staticflickr.com\/7403\/13995474648_33e7ba6d3b.jpg","height_m":"333","width_m":"500"},{"id":"45862362844","owner":"142984947@N08","secret":"584eed91b4","server":"4889","farm":5,"title":"Dogs","ispublic":1,"isfriend":0,"isfamily":0,"dateupload":"1546529475","views":"6676","url_s":"https:\/\/live.staticflickr.com\/4889\/45862362844_584eed91b4_m.jpg","height_s":"152","width_s":"240","url_m":"https:\/\/live.staticflickr.com\/4889\/45862362844_584eed91b4.jpg","height_m":"316","width_m":"500"},{"id":"44486756384","owner":"155724126@N06","secret":"99e2e4ed99","server":"1915","farm":2,"title":"Billy #Dog","ispublic":1,"isfriend":0,"isfamily":0,"dateupload":"1539111020","views":"7617","url_s":"https:\/\/live.staticflickr.com\/1915\/44486756384_99e2e4ed99_m.jpg","height_s":"240","width_s":"180","url_m":"https:\/\/live.staticflickr.com\/1915\/44486756384_99e2e4ed99.jpg","height_m":"500","width_m":"375"},{"id":"14615452909","owner":"115377107@N03","secret":"522ab37af9","server":"2902","farm":3,"title":"Dog","ispublic":1,"isfriend":0,"isfamily":0,"dateupload":"1406919546","views":"2725","url_s":"https:\/\/live.staticflickr.com\/2902\/14615452909_522ab37af9_m.jpg","height_s":"160","width_s":"240","url_m":"https:\/\/live.staticflickr.com\/2902\/14615452909_522ab37af9.jpg","height_m":"333","width_m":"500"},{"id":"37934631371","owner":"10310451@N05","secret":"9300d3d66f","server":"4497","farm":5,"title":"Dog","ispublic":1,"isfriend":0,"isfamily":0,"dateupload":"1508973868","views":"6702","url_s":"https:\/\/live.staticflickr.com\/4497\/37934631371_9300d3d66f_m.jpg","height_s":"240","width_s":"160","url_m":"https:\/\/live.staticflickr.com\/4497\/37934631371_9300d3d66f.jpg","height_m":"500","width_m":"333"},{"id":"6272228474","owner":"34229420@N05","secret":"09ace569ac","server":"6101","farm":7,"title":"DOg","ispublic":1,"isfriend":0,"isfamily":0,"dateupload":"1319366575","views":"14158","url_s":"https:\/\/live.staticflickr.com\/6101\/6272228474_09ace569ac_m.jpg","height_s":"188","width_s":"240","url_m":"https:\/\/live.staticflickr.com\/6101\/6272228474_09ace569ac.jpg","height_m":"393","width_m":"500"},{"id":"44173254600","owner":"137191771@N05","secret":"c66448d92a","server":"4859","farm":5,"title":"dog","ispublic":1,"isfriend":0,"isfamily":0,"dateupload":"1542827598","views":"6827","url_s":"https:\/\/live.staticflickr.com\/4859\/44173254600_c66448d92a_m.jpg","height_s":"160","width_s":"240","url_m":"https:\/\/live.staticflickr.com\/4859\/44173254600_c66448d92a.jpg","height_m":"333","width_m":"500"},{"id":"46877042001","owner":"142791213@N03","secret":"1a402d83cd","server":"7927","farm":8,"title":"#dogs","ispublic":1,"isfriend":0,"isfamily":0,"dateupload":"1548466365","views":"2744","url_s":"https:\/\/live.staticflickr.com\/7927\/46877042001_1a402d83cd_m.jpg","height_s":"240","width_s":"180","url_m":"https:\/\/live.staticflickr.com\/7927\/46877042001_1a402d83cd.jpg","height_m":"500","width_m":"375"},{"id":"521245995","owner":"7879131@N08","secret":"acedc3d772","server":"197","farm":1,"title":"Dog","ispublic":1,"isfriend":0,"isfamily":0,"dateupload":"1180516207","views":"8037","url_s":"https:\/\/live.staticflickr.com\/197\/521245995_acedc3d772_m.jpg","height_s":"240","width_s":"146","url_m":"https:\/\/live.staticflickr.com\/197\/521245995_acedc3d772.jpg","height_m":"500","width_m":"304"},{"id":"5677342114","owner":"40715911@N07","secret":"4e0810dd2a","server":"5109","farm":6,"title":"Dog","ispublic":1,"isfriend":0,"isfamily":0,"dateupload":"1304282575","views":"14049","url_s":"https:\/\/live.staticflickr.com\/5109\/5677342114_4e0810dd2a_m.jpg","height_s":"218","width_s":"240","url_m":"https:\/\/live.staticflickr.com\/5109\/5677342114_4e0810dd2a.jpg","height_m":"454","width_m":"500"},{"id":"5558838337","owner":"61038776@N04","secret":"e939ce9626","server":"5298","farm":6,"title":"dog","ispublic":1,"isfriend":0,"isfamily":0,"dateupload":"1301081964","views":"11082","url_s":"https:\/\/live.staticflickr.com\/5298\/5558838337_e939ce9626_m.jpg","height_s":"160","width_s":"240","url_m":"https:\/\/live.staticflickr.com\/5298\/5558838337_e939ce9626.jpg","height_m":"334","width_m":"500"},{"id":"13695434335","owner":"118518574@N04","secret":"5ecd750fbe","server":"2936","farm":3,"title":"Dog.","ispublic":1,"isfriend":0,"isfamily":0,"dateupload":"1396885094","views":"8252","url_s":"https:\/\/live.staticflickr.com\/2936\/13695434335_5ecd750fbe_m.jpg","height_s":"160","width_s":"240","url_m":"https:\/\/live.staticflickr.com\/2936\/13695434335_5ecd750fbe.jpg","height_m":"333","width_m":"500"},{"id":"17027618746","owner":"46361720@N03","secret":"2e6c99fd28","server":"7677","farm":8,"title":"dog","ispublic":1,"isfriend":0,"isfamily":0,"dateupload":"1428322438","views":"11568","url_s":"https:\/\/live.staticflickr.com\/7677\/17027618746_2e6c99fd28_m.jpg","height_s":"240","width_s":"192","url_m":"https:\/\/live.staticflickr.com\/7677\/17027618746_2e6c99fd28.jpg","height_m":"500","width_m":"400"},{"id":"33165002938","owner":"50414688@N03","secret":"e2e6ea9281","server":"7898","farm":8,"title":"dog","ispublic":1,"isfriend":0,"isfamily":0,"dateupload":"1549743402","views":"4386","url_s":"https:\/\/live.staticflickr.com\/7898\/33165002938_e2e6ea9281_m.jpg","height_s":"160","width_s":"240","url_m":"https:\/\/live.staticflickr.com\/7898\/33165002938_e2e6ea9281.jpg","height_m":"333","width_m":"500"},{"id":"5164287","owner":"68776313@N00","secret":"3fceb7f8ca","server":"3","farm":1,"title":"dog","ispublic":1,"isfriend":0,"isfamily":0,"dateupload":"1108973589","views":"47946","url_s":"https:\/\/live.staticflickr.com\/3\/5164287_3fceb7f8ca_m.jpg","height_s":"214","width_s":"240","url_m":"https:\/\/live.staticflickr.com\/3\/5164287_3fceb7f8ca.jpg","height_m":"445","width_m":"500"},{"id":"42796507750","owner":"160109254@N08","secret":"1747da0630","server":"1892","farm":2,"title":"Dogs","ispublic":1,"isfriend":0,"isfamily":0,"dateupload":"1536630267","views":"7349","url_s":"https:\/\/live.staticflickr.com\/1892\/42796507750_1747da0630_m.jpg","height_s":"174","width_s":"240","url_m":"https:\/\/live.staticflickr.com\/1892\/42796507750_1747da0630.jpg","height_m":"362","width_m":"500"},{"id":"46822675814","owner":"53326314@N04","secret":"d0c866938f","server":"7812","farm":8,"title":"Working Dog","ispublic":1,"isfriend":0,"isfamily":0,"dateupload":"1554518766","views":"5685","url_s":"https:\/\/live.staticflickr.com\/7812\/46822675814_d0c866938f_m.jpg","height_s":"172","width_s":"240","url_m":"https:\/\/live.staticflickr.com\/7812\/46822675814_d0c866938f.jpg","height_m":"358","width_m":"500"},{"id":"14737767945","owner":"117574923@N04","secret":"fefe22cb94","server":"5583","farm":6,"title":"Dog","ispublic":1,"isfriend":0,"isfamily":0,"dateupload":"1406248921","views":"12390","url_s":"https:\/\/live.staticflickr.com\/5583\/14737767945_fefe22cb94_m.jpg","height_s":"160","width_s":"240","url_m":"https:\/\/live.staticflickr.com\/5583\/14737767945_fefe22cb94.jpg","height_m":"333","width_m":"500"},{"id":"4754347097","owner":"51739077@N08","secret":"7b6b1b40a2","server":"4140","farm":5,"title":"Dog","ispublic":1,"isfriend":0,"isfamily":0,"dateupload":"1278077504","views":"14852","url_s":"https:\/\/live.staticflickr.com\/4140\/4754347097_7b6b1b40a2_m.jpg","height_s":"160","width_s":"240","url_m":"https:\/\/live.staticflickr.com\/4140\/4754347097_7b6b1b40a2.jpg","height_m":"333","width_m":"500"},{"id":"10350118465","owner":"54942754@N02","secret":"e7aec3fc92","server":"2860","farm":3,"title":"Dog","ispublic":1,"isfriend":0,"isfamily":0,"dateupload":"1382124776","views":"13025","url_s":"https:\/\/live.staticflickr.com\/2860\/10350118465_e7aec3fc92_m.jpg","height_s":"160","width_s":"240","url_m":"https:\/\/live.staticflickr.com\/2860\/10350118465_e7aec3fc92.jpg","height_m":"333","width_m":"500"},{"id":"1505004884","owner":"14668985@N03","secret":"e77fcff0fc","server":"2167","farm":3,"title":"DOG","ispublic":1,"isfriend":0,"isfamily":0,"dateupload":"1191754152","views":"8277","url_s":"https:\/\/live.staticflickr.com\/2167\/1505004884_e77fcff0fc_m.jpg","height_s":"180","width_s":"240","url_m":"https:\/\/live.staticflickr.com\/2167\/1505004884_e77fcff0fc.jpg","height_m":"375","width_m":"500"},{"id":"2488602582","owner":"71719439@N00","secret":"c99402f13d","server":"2199","farm":3,"title":"dog","ispublic":1,"isfriend":0,"isfamily":0,"dateupload":"1210646919","views":"11212","url_s":"https:\/\/live.staticflickr.com\/2199\/2488602582_c99402f13d_m.jpg","height_s":"160","width_s":"240","url_m":"https:\/\/live.staticflickr.com\/2199\/2488602582_c99402f13d.jpg","height_m":"333","width_m":"500"},{"id":"24325018901","owner":"137715888@N03","secret":"6cbc0b3a11","server":"1489","farm":2,"title":"Dog","ispublic":1,"isfriend":0,"isfamily":0,"dateupload":"1452917074","views":"7509","url_s":"https:\/\/live.staticflickr.com\/1489\/24325018901_6cbc0b3a11_m.jpg","height_s":"160","width_s":"240","url_m":"https:\/\/live.staticflickr.com\/1489\/24325018901_6cbc0b3a11.jpg","height_m":"333","width_m":"500"},{"id":"6178468958","owner":"55298774@N07","secret":"fc7ef6fd94","server":"6179","farm":7,"title":"Dog","ispublic":1,"isfriend":0,"isfamily":0,"dateupload":"1316882799","views":"37154","url_s":"https:\/\/live.staticflickr.com\/6179\/6178468958_fc7ef6fd94_m.jpg","height_s":"180","width_s":"240","url_m":"https:\/\/live.staticflickr.com\/6179\/6178468958_fc7ef6fd94.jpg","height_m":"375","width_m":"500"},{"id":"4822576274","owner":"50410954@N04","secret":"0b58cef5f9","server":"4119","farm":5,"title":"dog","ispublic":1,"isfriend":0,"isfamily":0,"dateupload":"1279929989","views":"10334","url_s":"https:\/\/live.staticflickr.com\/4119\/4822576274_0b58cef5f9_m.jpg","height_s":"160","width_s":"240","url_m":"https:\/\/live.staticflickr.com\/4119\/4822576274_0b58cef5f9.jpg","height_m":"333","width_m":"500"},{"id":"7282855672","owner":"64216914@N08","secret":"a033b1ae69","server":"7235","farm":8,"title":"dog","ispublic":1,"isfriend":0,"isfamily":0,"dateupload":"1338160921","views":"5819","url_s":"https:\/\/live.staticflickr.com\/7235\/7282855672_a033b1ae69_m.jpg","height_s":"160","width_s":"240","url_m":"https:\/\/live.staticflickr.com\/7235\/7282855672_a033b1ae69.jpg","height_m":"333","width_m":"500"},{"id":"16057090696","owner":"130256284@N08","secret":"269dd09963","server":"7552","farm":8,"title":"Suri. #dog","ispublic":1,"isfriend":0,"isfamily":0,"dateupload":"1419286791","views":"8435","url_s":"https:\/\/live.staticflickr.com\/7552\/16057090696_269dd09963_m.jpg","height_s":"160","width_s":"240","url_m":"https:\/\/live.staticflickr.com\/7552\/16057090696_269dd09963.jpg","height_m":"333","width_m":"500"},{"id":"14060315220","owner":"49907242@N05","secret":"99505bf55a","server":"2929","farm":3,"title":"dog","ispublic":1,"isfriend":0,"isfamily":0,"dateupload":"1400816226","views":"19521","url_s":"https:\/\/live.staticflickr.com\/2929\/14060315220_99505bf55a_m.jpg","height_s":"160","width_s":"240","url_m":"https:\/\/live.staticflickr.com\/2929\/14060315220_99505bf55a.jpg","height_m":"333","width_m":"500"},{"id":"3288443479","owner":"35517844@N06","secret":"c0de1809fa","server":"3465","farm":4,"title":"Dog","ispublic":1,"isfriend":0,"isfamily":0,"dateupload":"1234917660","views":"11932","url_s":"https:\/\/live.staticflickr.com\/3465\/3288443479_c0de1809fa_m.jpg","height_s":"180","width_s":"240","url_m":"https:\/\/live.staticflickr.com\/3465\/3288443479_c0de1809fa.jpg","height_m":"375","width_m":"500"},{"id":"42108734725","owner":"132646554@N08","secret":"da589ce288","server":"1776","farm":2,"title":"DOG","ispublic":1,"isfriend":0,"isfamily":0,"dateupload":"1529973533","views":"4693","url_s":"https:\/\/live.staticflickr.com\/1776\/42108734725_da589ce288_m.jpg","height_s":"240","width_s":"183","url_m":"https:\/\/live.staticflickr.com\/1776\/42108734725_da589ce288.jpg","height_m":"500","width_m":"381"},{"id":"955649536","owner":"10141647@N06","secret":"4ae3d9792b","server":"1415","farm":2,"title":"Dog","ispublic":1,"isfriend":0,"isfamily":0,"dateupload":"1185830740","views":"11837","url_s":"https:\/\/live.staticflickr.com\/1415\/955649536_4ae3d9792b_m.jpg","height_s":"240","width_s":"213","url_m":"https:\/\/live.staticflickr.com\/1415\/955649536_4ae3d9792b.jpg","height_m":"500","width_m":"443"},{"id":"4582991692","owner":"46043429@N07","secret":"d35aaf3162","server":"4034","farm":5,"title":":) dog","ispublic":1,"isfriend":0,"isfamily":0,"dateupload":"1273108264","views":"11674","url_s":"https:\/\/live.staticflickr.com\/4034\/4582991692_d35aaf3162_m.jpg","height_s":"160","width_s":"240","url_m":"https:\/\/live.staticflickr.com\/4034\/4582991692_d35aaf3162.jpg","height_m":"334","width_m":"500"},{"id":"26097353177","owner":"134420837@N02","secret":"3f47dc46ac","server":"4784","farm":5,"title":"Playing dogs","ispublic":1,"isfriend":0,"isfamily":0,"dateupload":"1521808794","views":"12873","url_s":"https:\/\/live.staticflickr.com\/4784\/26097353177_3f47dc46ac_m.jpg","height_s":"160","width_s":"240","url_m":"https:\/\/live.staticflickr.com\/4784\/26097353177_3f47dc46ac.jpg","height_m":"333","width_m":"500"},{"id":"41049509904","owner":"144832744@N08","secret":"f578bfdc44","server":"955","farm":1,"title":"dogs.","ispublic":1,"isfriend":0,"isfamily":0,"dateupload":"1524961542","views":"742","url_s":"https:\/\/live.staticflickr.com\/955\/41049509904_f578bfdc44_m.jpg","height_s":"160","width_s":"240","url_m":"https:\/\/live.staticflickr.com\/955\/41049509904_f578bfdc44.jpg","height_m":"333","width_m":"500"},{"id":"2675133924","owner":"28709821@N00","secret":"6a71c7e053","server":"3244","farm":4,"title":"dog","ispublic":1,"isfriend":0,"isfamily":0,"dateupload":"1216234777","views":"18843","url_s":"https:\/\/live.staticflickr.com\/3244\/2675133924_6a71c7e053_m.jpg","height_s":"180","width_s":"240","url_m":"https:\/\/live.staticflickr.com\/3244\/2675133924_6a71c7e053.jpg","height_m":"375","width_m":"500"},{"id":"9628625810","owner":"77980038@N05","secret":"ee469bb246","server":"5489","farm":6,"title":"Dog","ispublic":1,"isfriend":0,"isfamily":0,"dateupload":"1377850339","views":"4783","url_s":"https:\/\/live.staticflickr.com\/5489\/9628625810_ee469bb246_m.jpg","height_s":"240","width_s":"160","url_m":"https:\/\/live.staticflickr.com\/5489\/9628625810_ee469bb246.jpg","height_m":"500","width_m":"333"},{"id":"44607076531","owner":"160109254@N08","secret":"0f89807c64","server":"1843","farm":2,"title":"Dog","ispublic":1,"isfriend":0,"isfamily":0,"dateupload":"1536630269","views":"3499","url_s":"https:\/\/live.staticflickr.com\/1843\/44607076531_0f89807c64_m.jpg","height_s":"240","width_s":"219","url_m":"https:\/\/live.staticflickr.com\/1843\/44607076531_0f89807c64.jpg","height_m":"500","width_m":"456"},{"id":"45937447772","owner":"31455740@N06","secret":"49afb0647d","server":"4898","farm":5,"title":"Dog","ispublic":1,"isfriend":0,"isfamily":0,"dateupload":"1542815033","views":"3087","url_s":"https:\/\/live.staticflickr.com\/4898\/45937447772_49afb0647d_m.jpg","height_s":"117","width_s":"240","url_m":"https:\/\/live.staticflickr.com\/4898\/45937447772_49afb0647d.jpg","height_m":"243","width_m":"500"},{"id":"9174340885","owner":"97923631@N04","secret":"748d25574b","server":"7366","farm":8,"title":"Dog","ispublic":1,"isfriend":0,"isfamily":0,"dateupload":"1372609942","views":"13757","url_s":"https:\/\/live.staticflickr.com\/7366\/9174340885_748d25574b_m.jpg","height_s":"180","width_s":"240","url_m":"https:\/\/live.staticflickr.com\/7366\/9174340885_748d25574b.jpg","height_m":"375","width_m":"500"},{"id":"33015398380","owner":"8009375@N03","secret":"9461f921af","server":"628","farm":1,"title":"Stray Dog","ispublic":1,"isfriend":0,"isfamily":0,"dateupload":"1489333392","views":"14860","url_s":"https:\/\/live.staticflickr.com\/628\/33015398380_9461f921af_m.jpg","height_s":"160","width_s":"240","url_m":"https:\/\/live.staticflickr.com\/628\/33015398380_9461f921af.jpg","height_m":"333","width_m":"500"},{"id":"8225647281","owner":"67788274@N08","secret":"31f25a1642","server":"8487","farm":9,"title":"Dog","ispublic":1,"isfriend":0,"isfamily":0,"dateupload":"1354091265","views":"4604","url_s":"https:\/\/live.staticflickr.com\/8487\/8225647281_31f25a1642_m.jpg","height_s":"160","width_s":"240","url_m":"https:\/\/live.staticflickr.com\/8487\/8225647281_31f25a1642.jpg","height_m":"333","width_m":"500"},{"id":"8851694566","owner":"92130016@N05","secret":"6cf38e0816","server":"7453","farm":8,"title":"Dog","ispublic":1,"isfriend":0,"isfamily":0,"dateupload":"1369641842","views":"12716","url_s":"https:\/\/live.staticflickr.com\/7453\/8851694566_6cf38e0816_m.jpg","height_s":"160","width_s":"240","url_m":"https:\/\/live.staticflickr.com\/7453\/8851694566_6cf38e0816.jpg","height_m":"333","width_m":"500"},{"id":"8539986914","owner":"93155677@N00","secret":"68e21bfa1c","server":"8511","farm":9,"title":"A dog","ispublic":1,"isfriend":0,"isfamily":0,"dateupload":"1362760758","views":"14275","url_s":"https:\/\/live.staticflickr.com\/8511\/8539986914_68e21bfa1c_m.jpg","height_s":"240","width_s":"240","url_m":"https:\/\/live.staticflickr.com\/8511\/8539986914_68e21bfa1c.jpg","height_m":"500","width_m":"500"},{"id":"7467024014","owner":"45659406@N03","secret":"c8a4ef4c23","server":"7261","farm":8,"title":"Dog","ispublic":1,"isfriend":0,"isfamily":0,"dateupload":"1340982537","views":"9313","url_s":"https:\/\/live.staticflickr.com\/7261\/7467024014_c8a4ef4c23_m.jpg","height_s":"159","width_s":"240","url_m":"https:\/\/live.staticflickr.com\/7261\/7467024014_c8a4ef4c23.jpg","height_m":"331","width_m":"500"},{"id":"41200346000","owner":"132646554@N08","secret":"9bdc1fbc2f","server":"1813","farm":2,"title":"DOG","ispublic":1,"isfriend":0,"isfamily":0,"dateupload":"1529973540","views":"2109","url_s":"https:\/\/live.staticflickr.com\/1813\/41200346000_9bdc1fbc2f_m.jpg","height_s":"240","width_s":"160","url_m":"https:\/\/live.staticflickr.com\/1813\/41200346000_9bdc1fbc2f.jpg","height_m":"500","width_m":"333"},{"id":"13330949444","owner":"11015562@N04","secret":"e3256cfe53","server":"7348","farm":8,"title":"Dog","ispublic":1,"isfriend":0,"isfamily":0,"dateupload":"1395501883","views":"15067","url_s":"https:\/\/live.staticflickr.com\/7348\/13330949444_e3256cfe53_m.jpg","height_s":"160","width_s":"240","url_m":"https:\/\/live.staticflickr.com\/7348\/13330949444_e3256cfe53.jpg","height_m":"333","width_m":"500"},{"id":"5895239656","owner":"62053271@N05","secret":"1a16496193","server":"5313","farm":6,"title":"Dog","ispublic":1,"isfriend":0,"isfamily":0,"dateupload":"1309641365","views":"11817","url_s":"https:\/\/live.staticflickr.com\/5313\/5895239656_1a16496193_m.jpg","height_s":"160","width_s":"240","url_m":"https:\/\/live.staticflickr.com\/5313\/5895239656_1a16496193.jpg","height_m":"333","width_m":"500"},{"id":"28396191378","owner":"9631696@N05","secret":"103d96126b","server":"974","farm":1,"title":"Dog","ispublic":1,"isfriend":0,"isfamily":0,"dateupload":"1526958576","views":"8036","url_s":"https:\/\/live.staticflickr.com\/974\/28396191378_103d96126b_m.jpg","height_s":"160","width_s":"240","url_m":"https:\/\/live.staticflickr.com\/974\/28396191378_103d96126b.jpg","height_m":"333","width_m":"500"}]},"stat":"ok"}