{"photos":{"page":1,"pages":40729,"perpage":50,"total":"2036404","photo":[{"id":"5340131446","owner":"58130019@N08","secret":"3b7c380bea","server":"5244","farm":6,"title":"dog","ispublic":1,"isfriend":0,"isfamily":0,"dateupload":"1329159361","views":"290036","url_s":"https:\/\/live.staticflickr.com\/5244\/5340131446_3b7c380bea_m.jpg","height_s":"240","width_s":"150","url_m":"https:\/\/live.staticflickr.com\/5244\/5340131446_3b7c380bea.jpg","height_m":"500","width_m":"313"},{"id":"5338762379","owner":"58130019@N08","secret":"59f7435b93","server":"5284","farm":6,"title":"Dog","ispublic":1,"isfriend":0,"isfamily":0,"dateupload":"1335707597","views":"126964","url_s":"https:\/\/live.staticflickr.com\/5284\/5338762379_59f7435b93_m.jpg","height_s":"240","width_s":"216","url_m":"https:\/\/live.staticflickr.com\/5284\/5338762379_59f7435b93.jpg","height_m":"500","width_m":"451"},{"id":"4846208207","owner":"21692577@N02","secret":"eb7d525741","server":"4131","farm":5,"title":"dog","ispublic":1,"isfriend":0,"isfamily":0,"dateupload":"1280593715","views":"247970","url_s":"https:\/\/live.staticflickr.com\/4131\/4846208207_eb7d525741_m.jpg","height_s":"240","width_s":"185","url_m":"https:\/\/live.staticflickr.com\/4131\/4846208207_eb7d525741.jpg","height_m":"500","width_m":"386"},{"id":"2385191991","owner":"21692577@N02","secret":"53e2ed8af9","server":"2365","farm":3,"title":"dog","ispublic":1,"isfriend":0,"isfamily":0,"dateupload":"1207252299","views":"263060","url_s":"https:\/\/live.staticflickr.com\/2365\/2385191991_53e2ed8af9_m.jpg","height_s":"165","width_s":"240","url_m":"https:\/\/live.staticflickr.com\/2365\/2385191991_53e2ed8af9.jpg","height_m":"343","width_m":"500"},{"id":"7012277475","owner":"58130019@N08","secret":"7e126fd8b6","server":"7127","farm":8,"title":"Dog","ispublic":1,"isfriend":0,"isfamily":0,"dateupload":"1328252940","views":"105664","url_s":"https:\/\/live.staticflickr.com\/7127\/7012277475_7e126fd8b6_m.jpg","height_s":"162","width_s":"240","url_m":"https:\/\/live.staticflickr.com\/7127\/7012277475_7e126fd8b6.jpg","height_m":"337","width_m":"500"},{"id":"11142920583","owner":"21692577@N02","secret":"ed24465d2b","server":"3833","farm":4,"title":"dog","ispublic":1,"isfriend":0,"isfamily":0,"dateupload":"1385861948","views":"329046","url_s":"https:\/\/live.staticflickr.com\/3833\/11142920583_ed24465d2b_m.jpg","height_s":"160","width_s":"240","url_m":"https:\/\/live.staticflickr.com\/3833\/11142920583_ed24465d2b.jpg","height_m":"333","width_m":"500"},{"id":"10418196934","owner":"58130019@N08","secret":"8bd1da85ba","server":"7361","farm":8,"title":"Dog","ispublic":1,"isfriend":0,"isfamily":0,"dateupload":"1382430720","views":"101423","url_s":"https:\/\/live.staticflickr.com\/7361\/10418196934_8bd1da85ba_m.jpg","height_s":"240","width_s":"200","url_m":"https:\/\/live.staticflickr.com\/7361\/10418196934_8bd1da85ba.jpg","height_m":"500","width_m":"416"},{"id":"12503570275","owner":"58808943@N03","secret":"f04761135b","server":"5517","farm":6,"title":"dog","ispublic":1,"isfriend":0,"isfamily":0,"dateupload":"1392312969","views":"150179","url_s":"https:\/\/live.staticflickr.com\/5517\/12503570275_f04761135b_m.jpg","height_s":"240","width_s":"240","url_m":"https:\/\/live.staticflickr.com\/5517\/12503570275_f04761135b.jpg","height_m":"500","width_m":"500"},{"id":"31964411303","owner":"21680391@N04","secret":"4b42b64d18","server":"614","farm":1,"title":"dog","ispublic":1,"isfriend":0,"isfamily":0,"dateupload":"1486541892","views":"140271","url_s":"https:\/\/live.staticflickr.com\/614\/31964411303_4b42b64d18_m.jpg","height_s":"240","width_s":"192","url_m":"https:\/\/live.staticflickr.com\/614\/31964411303_4b42b64d18.jpg","height_m":"500","width_m":"400"},{"id":"32598752764","owner":"58130019@N08","secret":"b62a07cf43","server":"3667","farm":4,"title":"Dog","ispublic":1,"isfriend":0,"isfamily":0,"dateupload":"1489517330","views":"75545","url_s":"https:\/\/live.staticflickr.com\/3667\/32598752764_b62a07cf43_m.jpg","height_s":"180","width_s":"240","url_m":"https:\/\/live.staticflickr.com\/3667\/32598752764_b62a07cf43.jpg","height_m":"375","width_m":"500"},{"id":"15131237412","owner":"58130019@N08","secret":"268a1e41a3","server":"3910","farm":4,"title":"Dog","ispublic":1,"isfriend":0,"isfamily":0,"dateupload":"1420919776","views":"182602","url_s":"https:\/\/live.staticflickr.com\/3910\/15131237412_268a1e41a3_m.jpg","height_s":"240","width_s":"222","url_m":"https:\/\/live.staticflickr.com\/3910\/15131237412_268a1e41a3.jpg","height_m":"500","width_m":"462"},{"id":"5395681878","owner":"58130019@N08","secret":"35ebbbcbe8","server":"5016","farm":6,"title":"Dog","ispublic":1,"isfriend":0,"isfamily":0,"dateupload":"1330090638","views":"162453","url_s":"https:\/\/live.staticflickr.com\/5016\/5395681878_35ebbbcbe8_m.jpg","height_s":"165","width_s":"240","url_m":"https:\/\/live.staticflickr.com\/5016\/5395681878_35ebbbcbe8.jpg","height_m":"343","width_m":"500"},{"id":"6872928870","owner":"58130019@N08","secret":"69a00123b5","server":"6212","farm":7,"title":"Dog","ispublic":1,"isfriend":0,"isfamily":0,"dateupload":"1327968000","views":"93296","url_s":"https:\/\/live.staticflickr.com\/6212\/6872928870_69a00123b5_m.jpg","height_s":"226","width_s":"240","url_m":"https:\/\/live.staticflickr.com\/6212\/6872928870_69a00123b5.jpg","height_m":"470","width_m":"500"},{"id":"5022927104","owner":"21692577@N02","secret":"515e808b66","server":"4148","farm":5,"title":"dog","ispublic":1,"isfriend":0,"isfamily":0,"dateupload":"1285416442","views":"127109","url_s":"https:\/\/live.staticflickr.com\/4148\/5022927104_515e808b66_m.jpg","height_s":"240","width_s":"188","url_m":"https:\/\/live.staticflickr.com\/4148\/5022927104_515e808b66.jpg","height_m":"500","width_m":"391"},{"id":"5395084891","owner":"58130019@N08","secret":"07c9272b37","server":"4085","farm":5,"title":"Dog","ispublic":1,"isfriend":0,"isfamily":0,"dateupload":"1328708244","views":"85095","url_s":"https:\/\/live.staticflickr.com\/4085\/5395084891_07c9272b37_m.jpg","height_s":"131","width_s":"240","url_m":"https:\/\/live.staticflickr.com\/4085\/5395084891_07c9272b37.jpg","height_m":"273","width_m":"500"},{"id":"10527416296","owner":"21644167@N04","secret":"b469373fcc","server":"5514","farm":6,"title":"Dog","ispublic":1,"isfriend":0,"isfamily":0,"dateupload":"1382494983","views":"282173","url_s":"https:\/\/live.staticflickr.com\/5514\/10527416296_b469373fcc_m.jpg","height_s":"240","width_s":"157","url_m":"https:\/\/live.staticflickr.com\/5514\/10527416296_b469373fcc.jpg","height_m":"500","width_m":"326"},{"id":"9791205146","owner":"58130019@N08","secret":"1064e82aa0","server":"7307","farm":8,"title":"Dog","ispublic":1,"isfriend":0,"isfamily":0,"dateupload":"1379462471","views":"130219","url_s":"https:\/\/live.staticflickr.com\/7307\/9791205146_1064e82aa0_m.jpg","height_s":"181","width_s":"240","url_m":"https:\/\/live.staticflickr.com\/7307\/9791205146_1064e82aa0.jpg","height_m":"377","width_m":"500"},{"id":"6109700078","owner":"58130019@N08","secret":"b742254cd4","server":"6064","farm":7,"title":"Dog","ispublic":1,"isfriend":0,"isfamily":0,"dateupload":"1329761821","views":"165722","url_s":"https:\/\/live.staticflickr.com\/6064\/6109700078_b742254cd4_m.jpg","height_s":"180","width_s":"240","url_m":"https:\/\/live.staticflickr.com\/6064\/6109700078_b742254cd4.jpg","height_m":"374","width_m":"500"},{"id":"15479778255","owner":"58130019@N08","secret":"c7eb157180","server":"5608","farm":6,"title":"Dog","ispublic":1,"isfriend":0,"isfamily":0,"dateupload":"1412226236","views":"81908","url_s":"https:\/\/live.staticflickr.com\/5608\/15479778255_c7eb157180_m.jpg","height_s":"240","width_s":"164","url_m":"https:\/\/live.staticflickr.com\/5608\/15479778255_c7eb157180.jpg","height_m":"500","width_m":"342"},{"id":"5341518498","owner":"58130019@N08","secret":"c7f8cb5274","server":"5047","farm":6,"title":"Dog","ispublic":1,"isfriend":0,"isfamily":0,"dateupload":"1330309800","views":"92233","url_s":"https:\/\/live.staticflickr.com\/5047\/5341518498_c7f8cb5274_m.jpg","height_s":"180","width_s":"240","url_m":"https:\/\/live.staticflickr.com\/5047\/5341518498_c7f8cb5274.jpg","height_m":"374","width_m":"500"},{"id":"33336453970","owner":"58130019@N08","secret":"5e0213d5b5","server":"2855","farm":3,"title":"Dog","ispublic":1,"isfriend":0,"isfamily":0,"dateupload":"1490800539","views":"68701","url_s":"https:\/\/live.staticflickr.com\/2855\/33336453970_5e0213d5b5_m.jpg","height_s":"168","width_s":"240","url_m":"https:\/\/live.staticflickr.com\/2855\/33336453970_5e0213d5b5.jpg","height_m":"350","width_m":"500"},{"id":"5556571169","owner":"53253718@N08","secret":"ab5418f6f8","server":"5070","farm":6,"title":"Dog","ispublic":1,"isfriend":0,"isfamily":0,"dateupload":"1301005583","views":"116581","url_s":"https:\/\/live.staticflickr.com\/5070\/5556571169_ab5418f6f8_m.jpg","height_s":"160","width_s":"240","url_m":"https:\/\/live.staticflickr.com\/5070\/5556571169_ab5418f6f8.jpg","height_m":"333","width_m":"500"},{"id":"40882481714","owner":"55959716@N08","secret":"42c7d4e062","server":"891","farm":1,"title":"dog","ispublic":1,"isfriend":0,"isfamily":0,"dateupload":"1524283207","views":"52044","url_s":"https:\/\/live.staticflickr.com\/891\/40882481714_42c7d4e062_m.jpg","height_s":"160","width_s":"240","url_m":"https:\/\/live.staticflickr.com\/891\/40882481714_42c7d4e062.jpg","height_m":"333","width_m":"500"},{"id":"7012276041","owner":"58130019@N08","secret":"161b7d2e93","server":"7099","farm":8,"title":"Dog","ispublic":1,"isfriend":0,"isfamily":0,"dateupload":"1329498000","views":"156755","url_s":"https:\/\/live.staticflickr.com\/7099\/7012276041_161b7d2e93_m.jpg","height_s":"240","width_s":"233","url_m":"https:\/\/live.staticflickr.com\/7099\/7012276041_161b7d2e93.jpg","height_m":"500","width_m":"486"},{"id":"6385347933","owner":"46317268@N06","secret":"dc5197077a","server":"6229","farm":7,"title":"Dog","ispublic":1,"isfriend":0,"isfamily":0,"dateupload":"1321997503","views":"131711","url_s":"https:\/\/live.staticflickr.com\/6229\/6385347933_dc5197077a_m.jpg","height_s":"240","width_s":"160","url_m":"https:\/\/live.staticflickr.com\/6229\/6385347933_dc5197077a.jpg","height_m":"500","width_m":"333"},{"id":"2386027276","owner":"21692577@N02","secret":"2af490ec56","server":"3294","farm":4,"title":"dog","ispublic":1,"isfriend":0,"isfamily":0,"dateupload":"1207252398","views":"169123","url_s":"https:\/\/live.staticflickr.com\/3294\/2386027276_2af490ec56_m.jpg","height_s":"240","width_s":"201","url_m":"https:\/\/live.staticflickr.com\/3294\/2386027276_2af490ec56.jpg","height_m":"500","width_m":"418"},{"id":"14783825047","owner":"58130019@N08","secret":"c19ff16f0f","server":"3870","farm":4,"title":"Dog","ispublic":1,"isfriend":0,"isfamily":0,"dateupload":"1325608179","views":"72490","url_s":"https:\/\/live.staticflickr.com\/3870\/14783825047_c19ff16f0f_m.jpg","height_s":"109","width_s":"240","url_m":"https:\/\/live.staticflickr.com\/3870\/14783825047_c19ff16f0f.jpg","height_m":"227","width_m":"500"},{"id":"6448649605","owner":"58130019@N08","secret":"620f46bd5b","server":"7027","farm":8,"title":"Dog","ispublic":1,"isfriend":0,"isfamily":0,"dateupload":"1330204078","views":"141339","url_s":"https:\/\/live.staticflickr.com\/7027\/6448649605_620f46bd5b_m.jpg","height_s":"222","width_s":"240","url_m":"https:\/\/live.staticflickr.com\/7027\/6448649605_620f46bd5b.jpg","height_m":"463","width_m":"500"},{"id":"33659529142","owner":"58130019@N08","secret":"788cf750f0","server":"2921","farm":3,"title":"Dog","ispublic":1,"isfriend":0,"isfamily":0,"dateupload":"1294759497","views":"90690","url_s":"https:\/\/live.staticflickr.com\/2921\/33659529142_788cf750f0_m.jpg","height_s":"173","width_s":"240","url_m":"https:\/\/live.staticflickr.com\/2921\/33659529142_788cf750f0.jpg","height_m":"360","width_m":"500"},{"id":"14708052359","owner":"58130019@N08","secret":"2cccd06748","server":"5589","farm":6,"title":"Dog","ispublic":1,"isfriend":0,"isfamily":0,"dateupload":"1412586981","views":"76651","url_s":"https:\/\/live.staticflickr.com\/5589\/14708052359_2cccd06748_m.jpg","height_s":"164","width_s":"240","url_m":"https:\/\/live.staticflickr.com\/5589\/14708052359_2cccd06748.jpg","height_m":"341","width_m":"500"},{"id":"34953871486","owner":"21680391@N04","secret":"b3f14bf0d3","server":"4221","farm":5,"title":"Dog","ispublic":1,"isfriend":0,"isfamily":0,"dateupload":"1496163309","views":"92717","url_s":"https:\/\/live.staticflickr.com\/4221\/34953871486_b3f14bf0d3_m.jpg","height_s":"192","width_s":"240","url_m":"https:\/\/live.staticflickr.com\/4221\/34953871486_b3f14bf0d3.jpg","height_m":"400","width_m":"500"},{"id":"38548544882","owner":"21692577@N02","secret":"40c8ec0e7f","server":"4572","farm":5,"title":"dogs","ispublic":1,"isfriend":0,"isfamily":0,"dateupload":"1511357742","views":"34911","url_s":"https:\/\/live.staticflickr.com\/4572\/38548544882_40c8ec0e7f_m.jpg","height_s":"151","width_s":"240","url_m":"https:\/\/live.staticflickr.com\/4572\/38548544882_40c8ec0e7f.jpg","height_m":"314","width_m":"500"},{"id":"2699088006","owner":"57719811@N00","secret":"85e58eb619","server":"3005","farm":4,"title":"Dog","ispublic":1,"isfriend":0,"isfamily":0,"dateupload":"1216917142","views":"151062","url_s":"https:\/\/live.staticflickr.com\/3005\/2699088006_85e58eb619_m.jpg","height_s":"171","width_s":"240","url_m":"https:\/\/live.staticflickr.com\/3005\/2699088006_85e58eb619.jpg","height_m":"356","width_m":"500"},{"id":"8193537196","owner":"58130019@N08","secret":"65aaf6107f","server":"8201","farm":9,"title":"Dog","ispublic":1,"isfriend":0,"isfamily":0,"dateupload":"1328918400","views":"137830","url_s":"https:\/\/live.staticflickr.com\/8201\/8193537196_65aaf6107f_m.jpg","height_s":"240","width_s":"199","url_m":"https:\/\/live.staticflickr.com\/8201\/8193537196_65aaf6107f.jpg","height_m":"500","width_m":"415"},{"id":"20081037129","owner":"58130019@N08","secret":"a0dd2d9067","server":"3762","farm":4,"title":"Dog","ispublic":1,"isfriend":0,"isfamily":0,"dateupload":"1438635955","views":"113908","url_s":"https:\/\/live.staticflickr.com\/3762\/20081037129_a0dd2d9067_m.jpg","height_s":"160","width_s":"240","url_m":"https:\/\/live.staticflickr.com\/3762\/20081037129_a0dd2d9067.jpg","height_m":"334","width_m":"500"},{"id":"4652502241","owner":"21692577@N02","secret":"c101591a93","server":"4063","farm":5,"title":"dog","ispublic":1,"isfriend":0,"isfamily":0,"dateupload":"1275232887","views":"121231","url_s":"https:\/\/live.staticflickr.com\/4063\/4652502241_c101591a93_m.jpg","height_s":"160","width_s":"240","url_m":"https:\/\/live.staticflickr.com\/4063\/4652502241_c101591a93.jpg","height_m":"333","width_m":"500"},{"id":"14342056621","owner":"58130019@N08","secret":"f99d0bea19","server":"5320","farm":6,"title":"Dog","ispublic":1,"isfriend":0,"isfamily":0,"dateupload":"1401981077","views":"85186","url_s":"https:\/\/live.staticflickr.com\/5320\/14342056621_f99d0bea19_m.jpg","height_s":"180","width_s":"240","url_m":"https:\/\/live.staticflickr.com\/5320\/14342056621_f99d0bea19.jpg","height_m":"375","width_m":"500"},{"id":"32355788862","owner":"58130019@N08","secret":"a53889c5a6","server":"489","farm":1,"title":"Dog","ispublic":1,"isfriend":0,"isfamily":0,"dateupload":"1485296247","views":"58155","url_s":"https:\/\/live.staticflickr.com\/489\/32355788862_a53889c5a6_m.jpg","height_s":"172","width_s":"240","url_m":"https:\/\/live.staticflickr.com\/489\/32355788862_a53889c5a6.jpg","height_m":"358","width_m":"500"},{"id":"5824177885","owner":"21692577@N02","secret":"f20ed532b5","server":"2059","farm":3,"title":"dog","ispublic":1,"isfriend":0,"isfamily":0,"dateupload":"1307889116","views":"175095","url_s":"https:\/\/live.staticflickr.com\/2059\/5824177885_f20ed532b5_m.jpg","height_s":"168","width_s":"240","url_m":"https:\/\/live.staticflickr.com\/2059\/5824177885_f20ed532b5.jpg","height_m":"350","width_m":"500"},{"id":"3266551852","owner":"35209345@N02","secret":"44a551fcec","server":"3367","farm":4,"title":"dogs","ispublic":1,"isfriend":0,"isfamily":0,"dateupload":"1234179719","views":"70471","url_s":"https:\/\/live.staticflickr.com\/3367\/3266551852_44a551fcec_m.jpg","height_s":"168","width_s":"240","url_m":"https:\/\/live.staticflickr.com\/3367\/3266551852_44a551fcec.jpg","height_m":"351","width_m":"500"},{"id":"5824739228","owner":"21692577@N02","secret":"042e797031","server":"2446","farm":3,"title":"dog","ispublic":1,"isfriend":0,"isfamily":0,"dateupload":"1307889115","views":"98246","url_s":"https:\/\/live.staticflickr.com\/2446\/5824739228_042e797031_m.jpg","height_s":"160","width_s":"240","url_m":"https:\/\/live.staticflickr.com\/2446\/5824739228_042e797031.jpg","height_m":"334","width_m":"500"},{"id":"5503457443","owner":"22719789@N03","secret":"a6b0fb1fdd","server":"5251","farm":6,"title":"dog","ispublic":1,"isfriend":0,"isfamily":0,"dateupload":"1299448098","views":"47842","url_s":"https:\/\/live.staticflickr.com\/5251\/5503457443_a6b0fb1fdd_m.jpg","height_s":"240","width_s":"223","url_m":"https:\/\/live.staticflickr.com\/5251\/5503457443_a6b0fb1fdd.jpg","height_m":"500","width_m":"464"},{"id":"4467271168","owner":"21692577@N02","secret":"6a55de9588","server":"2730","farm":3,"title":"dog","ispublic":1,"isfriend":0,"isfamily":0,"dateupload":"1269700468","views":"108446","url_s":"https:\/\/live.staticflickr.com\/2730\/4467271168_6a55de9588_m.jpg","height_s":"183","width_s":"240","url_m":"https:\/\/live.staticflickr.com\/2730\/4467271168_6a55de9588.jpg","height_m":"381","width_m":"500"},{"id":"6312937936","owner":"60968619@N05","secret":"cebaf2feb9","server":"6053","farm":7,"title":"dog","ispublic":1,"isfriend":0,"isfamily":0,"dateupload":"1320431329","views":"187553","url_s":"https:\/\/live.staticflickr.com\/6053\/6312937936_cebaf2feb9_m.jpg","height_s":"160","width_s":"240","url_m":"https:\/\/live.staticflickr.com\/6053\/6312937936_cebaf2feb9.jpg","height_m":"333","width_m":"500"},{"id":"5797728171","owner":"78811933@N00","secret":"2558338522","server":"3071","farm":4,"title":"dog","ispublic":1,"isfriend":0,"isfamily":0,"dateupload":"1307230432","views":"186253","url_s":"https:\/\/live.staticflickr.com\/3071\/5797728171_2558338522_m.jpg","height_s":"240","width_s":"168","url_m":"https:\/\/live.staticflickr.com\/3071\/5797728171_2558338522.jpg","height_m":"500","width_m":"350"},{"id":"5476164237","owner":"7959756@N08","secret":"d59c1fdcb4","server":"5172","farm":6,"title":"dog","ispublic":1,"isfriend":0,"isfamily":0,"dateupload":"1298649788","views":"61106","url_s":"https:\/\/live.staticflickr.com\/5172\/5476164237_d59c1fdcb4_m.jpg","height_s":"237","width_s":"240","url_m":"https:\/\/live.staticflickr.com\/5172\/5476164237_d59c1fdcb4.jpg","height_m":"494","width_m":"500"},{"id":"33326250781","owner":"142409708@N08","secret":"65fa0a0887","server":"580","farm":1,"title":"Dog","ispublic":1,"isfriend":0,"isfamily":0,"dateupload":"1489580644","views":"59538","url_s":"https:\/\/live.staticflickr.com\/580\/33326250781_65fa0a0887_m.jpg","height_s":"192","width_s":"240","url_m":"https:\/\/live.staticflickr.com\/580\/33326250781_65fa0a0887.jpg","height_m":"400","width_m":"500"},{"id":"4497338855","owner":"49114357@N08","secret":"3db359c929","server":"2726","farm":3,"title":"Dog","ispublic":1,"isfriend":0,"isfamily":0,"dateupload":"1270582464","views":"64369","url_s":"https:\/\/live.staticflickr.com\/2726\/4497338855_3db359c929_m.jpg","height_s":"180","width_s":"240","url_m":"https:\/\/live.staticflickr.com\/2726\/4497338855_3db359c929.jpg","height_m":"375","width_m":"500"},{"id":"7078434777","owner":"24556613@N08","secret":"d5d3aacb7d","server":"7047","farm":8,"title":"Dog","ispublic":1,"isfriend":0,"isfamily":0,"dateupload":"1334455455","views":"72057","url_s":"https:\/\/live.staticflickr.com\/7047\/7078434777_d5d3aacb7d_m.jpg","height_s":"161","width_s":"240","url_m":"https:\/\/live.staticflickr.com\/7047\/7078434777_d5d3aacb7d.jpg","height_m":"334","width_m":"500"},{"id":"3926747239","owner":"55514420@N00","secret":"244d7b0467","server":"2627","farm":3,"title":"dog","ispublic":1,"isfriend":0,"isfamily":0,"dateupload":"1253142269","views":"75288","url_s":"https:\/\/live.staticflickr.com\/2627\/3926747239_244d7b0467_m.jpg","height_s":"159","width_s":"240","url_m":"https:\/\/live.staticflickr.com\/2627\/3926747239_244d7b0467.jpg","height_m":"332","width_m":"500"}]},"stat":"ok"}