{"photos":{"page":2,"pages":40729,"perpage":50,"total":"2036404","photo":[{"id":"5318859695","owner":"52295252@N06","secret":"5bf5a99561","server":"5161","farm":6,"title":"Dog","ispublic":1,"isfriend":0,"isfamily":0,"dateupload":"1294040382","views":"106249","url_s":"https:\/\/live.staticflickr.com\/5161\/5318859695_5bf5a99561_m.jpg","height_s":"180","width_s":"240","url_m":"https:\/\/live.staticflickr.com\/5161\/5318859695_5bf5a99561.jpg","height_m":"375","width_m":"500"},{"id":"14977950601","owner":"115377107@N03","secret":"ac7cb9fe65","server":"3913","farm":4,"title":"Dog","ispublic":1,"isfriend":0,"isfamily":0,"dateupload":"1408554993","views":"22621","url_s":"https:\/\/live.staticflickr.com\/3913\/14977950601_ac7cb9fe65_m.jpg","height_s":"156","width_s":"240","url_m":"https:\/\/live.staticflickr.com\/3913\/14977950601_ac7cb9fe65.jpg","height_m":"325","width_m":"500"},{"id":"5824739450","owner":"21692577@N02","secret":"a2da044c78","server":"5190","farm":6,"title":"dog","ispublic":1,"isfriend":0,"isfamily":0,"dateupload":"1307889120","views":"144427","url_s":"https:\/\/live.staticflickr.com\/5190\/5824739450_a2da044c78_m.jpg","height_s":"159","width_s":"240","url_m":"https:\/\/live.staticflickr.com\/5190\/5824739450_a2da044c78.jpg","height_m":"331","width_m":"500"},{"id":"30921555414","owner":"21692577@N02","secret":"ccc9105f99","server":"352","farm":1,"title":"dog","ispublic":1,"isfriend":0,"isfamily":0,"dateupload":"1482239388","views":"13076","url_s":"https:\/\/live.staticflickr.com\/352\/30921555414_ccc9105f99_m.jpg","height_s":"164","width_s":"240","url_m":"https:\/\/live.staticflickr.com\/352\/30921555414_ccc9105f99.jpg","height_m":"341","width_m":"500"},{"id":"5318859771","owner":"52295252@N06","secret":"97510a32ea","server":"5241","farm":6,"title":"Dog","ispublic":1,"isfriend":0,"isfamily":0,"dateupload":"1294040384","views":"50757","url_s":"https:\/\/live.staticflickr.com\/5241\/5318859771_97510a32ea_m.jpg","height_s":"180","width_s":"240","url_m":"https:\/\/live.staticflickr.com\/5241\/5318859771_97510a32ea.jpg","height_m":"375","width_m":"500"},{"id":"9477023772","owner":"93248132@N05","secret":"2bea90d1fe","server":"3764","farm":4,"title":"dogs","ispublic":1,"isfriend":0,"isfamily":0,"dateupload":"1376102445","views":"24283","url_s":"https:\/\/live.staticflickr.com\/3764\/9477023772_2bea90d1fe_m.jpg","height_s":"160","width_s":"240","url_m":"https:\/\/live.staticflickr.com\/3764\/9477023772_2bea90d1fe.jpg","height_m":"333","width_m":"500"},{"id":"43905108454","owner":"33674470@N00","secret":"8fd8b3f356","server":"1897","farm":2,"title":"Dog","ispublic":1,"isfriend":0,"isfamily":0,"dateupload":"1536701153","views":"6798","url_s":"https:\/\/live.staticflickr.com\/1897\/43905108454_8fd8b3f356_m.jpg","height_s":"240","width_s":"180","url_m":"https:\/\/live.staticflickr.com\/1897\/43905108454_8fd8b3f356.jpg","height_m":"500","width_m":"375"},{"id":"24115617625","owner":"128214337@N03","secret":"95ae86948f","server":"1533","farm":2,"title":"dog","ispublic":1,"isfriend":0,"isfamily":0,"dateupload":"1451698355","views":"99041","url_s":"https:\/\/live.staticflickr.com\/1533\/24115617625_95ae86948f_m.jpg","height_s":"133","width_s":"240","url_m":"https:\/\/live.staticflickr.com\/1533\/24115617625_95ae86948f.jpg","height_m":"278","width_m":"500"},{"id":"6385349259","owner":"46317268@N06","secret":"beed71de40","server":"6239","farm":7,"title":"Dog","ispublic":1,"isfriend":0,"isfamily":0,"dateupload":"1321997518","views":"59455","url_s":"https:\/\/live.staticflickr.com\/6239\/6385349259_beed71de40_m.jpg","height_s":"161","width_s":"240","url_m":"https:\/\/live.staticflickr.com\/6239\/6385349259_beed71de40.jpg","height_m":"334","width_m":"500"},{"id":"31974011607","owner":"164775977@N08","secret":"55f04031be","server":"7916","farm":8,"title":"dog","ispublic":1,"isfriend":0,"isfamily":0,"dateupload":"1548755727","views":"20218","url_s":"https:\/\/live.staticflickr.com\/7916\/31974011607_55f04031be_m.jpg","height_s":"240","width_s":"180","url_m":"https:\/\/live.staticflickr.com\/7916\/31974011607_55f04031be.jpg","height_m":"500","width_m":"375"},{"id":"10427257456","owner":"84826292@N06","secret":"2b4c7707db","server":"5530","farm":6,"title":"Dog!","ispublic":1,"isfriend":0,"isfamily":0,"dateupload":"1382470737","views":"69824","url_s":"https:\/\/live.staticflickr.com\/5530\/10427257456_2b4c7707db_m.jpg","height_s":"160","width_s":"240","url_m":"https:\/\/live.staticflickr.com\/5530\/10427257456_2b4c7707db.jpg","height_m":"333","width_m":"500"},{"id":"14250733433","owner":"92973599@N04","secret":"4941187ab2","server":"5151","farm":6,"title":"Dog","ispublic":1,"isfriend":0,"isfamily":0,"dateupload":"1400599818","views":"78582","url_s":"https:\/\/live.staticflickr.com\/5151\/14250733433_4941187ab2_m.jpg","height_s":"186","width_s":"240","url_m":"https:\/\/live.staticflickr.com\/5151\/14250733433_4941187ab2.jpg","height_m":"388","width_m":"500"},{"id":"37486121612","owner":"8114397@N03","secret":"f0650e03b5","server":"4495","farm":5,"title":"Dog","ispublic":1,"isfriend":0,"isfamily":0,"dateupload":"1507227889","views":"44311","url_s":"https:\/\/live.staticflickr.com\/4495\/37486121612_f0650e03b5_m.jpg","height_s":"164","width_s":"240","url_m":"https:\/\/live.staticflickr.com\/4495\/37486121612_f0650e03b5.jpg","height_m":"342","width_m":"500"},{"id":"10672340076","owner":"11015562@N04","secret":"19c737983b","server":"7386","farm":8,"title":"Dog","ispublic":1,"isfriend":0,"isfamily":0,"dateupload":"1383580186","views":"55439","url_s":"https:\/\/live.staticflickr.com\/7386\/10672340076_19c737983b_m.jpg","height_s":"160","width_s":"240","url_m":"https:\/\/live.staticflickr.com\/7386\/10672340076_19c737983b.jpg","height_m":"333","width_m":"500"},{"id":"9503869529","owner":"99217385@N03","secret":"23ce522bc3","server":"7314","farm":8,"title":"dog","ispublic":1,"isfriend":0,"isfamily":0,"dateupload":"1376437550","views":"24709","url_s":"https:\/\/live.staticflickr.com\/7314\/9503869529_23ce522bc3_m.jpg","height_s":"240","width_s":"160","url_m":"https:\/\/live.staticflickr.com\/7314\/9503869529_23ce522bc3.jpg","height_m":"500","width_m":"333"},{"id":"14635171542","owner":"68735095@N06","secret":"42b7b7c9c5","server":"3915","farm":4,"title":"dog","ispublic":1,"isfriend":0,"isfamily":0,"dateupload":"1405178350","views":"49260","url_s":"https:\/\/live.staticflickr.com\/3915\/14635171542_42b7b7c9c5_m.jpg","height_s":"160","width_s":"240","url_m":"https:\/\/live.staticflickr.com\/3915\/14635171542_42b7b7c9c5.jpg","height_m":"333","width_m":"500"},{"id":"7056331731","owner":"64253368@N06","secret":"42a89d43d5","server":"7190","farm":8,"title":"Dog","ispublic":1,"isfriend":0,"isfamily":0,"dateupload":"1333881794","views":"63567","url_s":"https:\/\/live.staticflickr.com\/7190\/7056331731_42a89d43d5_m.jpg","height_s":"159","width_s":"240","url_m":"https:\/\/live.staticflickr.com\/7190\/7056331731_42a89d43d5.jpg","height_m":"331","width_m":"500"},{"id":"116694391","owner":"52184765@N00","secret":"a75d0d598f","server":"36","farm":1,"title":"dogs","ispublic":1,"isfriend":0,"isfamily":0,"dateupload":"1125298809","views":"27445","url_s":"https:\/\/live.staticflickr.com\/36\/116694391_a75d0d598f_m.jpg","height_s":"180","width_s":"240","url_m":"https:\/\/live.staticflickr.com\/36\/116694391_a75d0d598f.jpg","height_m":"375","width_m":"500"},{"id":"32447540347","owner":"72967096@N00","secret":"71cc5b3aef","server":"4903","farm":5,"title":"Dog","ispublic":1,"isfriend":0,"isfamily":0,"dateupload":"1552687765","views":"2049","url_s":"https:\/\/live.staticflickr.com\/4903\/32447540347_71cc5b3aef_m.jpg","height_s":"240","width_s":"240","url_m":"https:\/\/live.staticflickr.com\/4903\/32447540347_71cc5b3aef.jpg","height_m":"500","width_m":"500"},{"id":"4489763356","owner":"62371205@N00","secret":"2dc86638b2","server":"4058","farm":5,"title":"dog","ispublic":1,"isfriend":0,"isfamily":0,"dateupload":"1270387716","views":"27565","url_s":"https:\/\/live.staticflickr.com\/4058\/4489763356_2dc86638b2_m.jpg","height_s":"160","width_s":"240","url_m":"https:\/\/live.staticflickr.com\/4058\/4489763356_2dc86638b2.jpg","height_m":"333","width_m":"500"},{"id":"16158785873","owner":"128425558@N04","secret":"f54ca000c3","server":"7653","farm":8,"title":"#dog","ispublic":1,"isfriend":0,"isfamily":0,"dateupload":"1426022603","views":"64365","url_s":"https:\/\/live.staticflickr.com\/7653\/16158785873_f54ca000c3_m.jpg","height_s":"160","width_s":"240","url_m":"https:\/\/live.staticflickr.com\/7653\/16158785873_f54ca000c3.jpg","height_m":"333","width_m":"500"},{"id":"8631368705","owner":"67947877@N06","secret":"907915f30e","server":"8104","farm":9,"title":"Dog","ispublic":1,"isfriend":0,"isfamily":0,"dateupload":"1365444625","views":"135462","url_s":"https:\/\/live.staticflickr.com\/8104\/8631368705_907915f30e_m.jpg","height_s":"160","width_s":"240","url_m":"https:\/\/live.staticflickr.com\/8104\/8631368705_907915f30e.jpg","height_m":"334","width_m":"500"},{"id":"5201348329","owner":"32440976@N05","secret":"b1ff4780c1","server":"5003","farm":6,"title":"dog","ispublic":1,"isfriend":0,"isfamily":0,"dateupload":"1290530293","views":"39774","url_s":"https:\/\/live.staticflickr.com\/5003\/5201348329_b1ff4780c1_m.jpg","height_s":"240","width_s":"158","url_m":"https:\/\/live.staticflickr.com\/5003\/5201348329_b1ff4780c1.jpg","height_m":"500","width_m":"330"},{"id":"6314928455","owner":"23766768@N00","secret":"093ab0cc9b","server":"6109","farm":7,"title":"Dog","ispublic":1,"isfriend":0,"isfamily":0,"dateupload":"1320509701","views":"34748","url_s":"https:\/\/live.staticflickr.com\/6109\/6314928455_093ab0cc9b_m.jpg","height_s":"240","width_s":"180","url_m":"https:\/\/live.staticflickr.com\/6109\/6314928455_093ab0cc9b.jpg","height_m":"500","width_m":"375"},{"id":"2779083934","owner":"15287480@N03","secret":"ee8f3f8c22","server":"3111","farm":4,"title":"dog","ispublic":1,"isfriend":0,"isfamily":0,"dateupload":"1219172852","views":"40817","url_s":"https:\/\/live.staticflickr.com\/3111\/2779083934_ee8f3f8c22_m.jpg","height_s":"240","width_s":"176","url_m":"https:\/\/live.staticflickr.com\/3111\/2779083934_ee8f3f8c22.jpg","height_m":"500","width_m":"367"},{"id":"28298815283","owner":"21692577@N02","secret":"6c9262fb2b","server":"8594","farm":9,"title":"dog","ispublic":1,"isfriend":0,"isfamily":0,"dateupload":"1470930988","views":"8824","url_s":"https:\/\/live.staticflickr.com\/8594\/28298815283_6c9262fb2b_m.jpg","height_s":"165","width_s":"240","url_m":"https:\/\/live.staticflickr.com\/8594\/28298815283_6c9262fb2b.jpg","height_m":"344","width_m":"500"},{"id":"16654823540","owner":"40832502@N06","secret":"6286b1f3aa","server":"8678","farm":9,"title":"Dogs","ispublic":1,"isfriend":0,"isfamily":0,"dateupload":"1426581872","views":"81135","url_s":"https:\/\/live.staticflickr.com\/8678\/16654823540_6286b1f3aa_m.jpg","height_s":"160","width_s":"240","url_m":"https:\/\/live.staticflickr.com\/8678\/16654823540_6286b1f3aa.jpg","height_m":"333","width_m":"500"},{"id":"8034053017","owner":"74097368@N04","secret":"5cb7503f80","server":"8450","farm":9,"title":"Dog","ispublic":1,"isfriend":0,"isfamily":0,"dateupload":"1348872797","views":"49169","url_s":"https:\/\/live.staticflickr.com\/8450\/8034053017_5cb7503f80_m.jpg","height_s":"240","width_s":"208","url_m":"https:\/\/live.staticflickr.com\/8450\/8034053017_5cb7503f80.jpg","height_m":"500","width_m":"434"},{"id":"4778595805","owner":"47096684@N00","secret":"b0b36166c0","server":"4079","farm":5,"title":"Dog","ispublic":1,"isfriend":0,"isfamily":0,"dateupload":"1278737026","views":"8498","url_s":"https:\/\/live.staticflickr.com\/4079\/4778595805_b0b36166c0_m.jpg","height_s":"240","width_s":"159","url_m":"https:\/\/live.staticflickr.com\/4079\/4778595805_b0b36166c0.jpg","height_m":"500","width_m":"332"},{"id":"5051480468","owner":"53586178@N05","secret":"29b21cabfc","server":"4131","farm":5,"title":"Dog","ispublic":1,"isfriend":0,"isfamily":0,"dateupload":"1286206737","views":"60698","url_s":"https:\/\/live.staticflickr.com\/4131\/5051480468_29b21cabfc_m.jpg","height_s":"180","width_s":"240","url_m":"https:\/\/live.staticflickr.com\/4131\/5051480468_29b21cabfc.jpg","height_m":"375","width_m":"500"},{"id":"5565375915","owner":"61115312@N04","secret":"87f98d3d53","server":"5015","farm":6,"title":"dog","ispublic":1,"isfriend":0,"isfamily":0,"dateupload":"1301263347","views":"36424","url_s":"https:\/\/live.staticflickr.com\/5015\/5565375915_87f98d3d53_m.jpg","height_s":"240","width_s":"145","url_m":"https:\/\/live.staticflickr.com\/5015\/5565375915_87f98d3d53.jpg","height_m":"500","width_m":"303"},{"id":"2904162971","owner":"27639270@N04","secret":"45e5de51c7","server":"3015","farm":4,"title":"dog","ispublic":1,"isfriend":0,"isfamily":0,"dateupload":"1222873055","views":"182509","url_s":"https:\/\/live.staticflickr.com\/3015\/2904162971_45e5de51c7_m.jpg","height_s":"160","width_s":"240","url_m":"https:\/\/live.staticflickr.com\/3015\/2904162971_45e5de51c7.jpg","height_m":"333","width_m":"500"},{"id":"5362356631","owner":"47586673@N03","secret":"4f82b872d5","server":"5165","farm":6,"title":"Dog","ispublic":1,"isfriend":0,"isfamily":0,"dateupload":"1295241944","views":"72529","url_s":"https:\/\/live.staticflickr.com\/5165\/5362356631_4f82b872d5_m.jpg","height_s":"191","width_s":"240","url_m":"https:\/\/live.staticflickr.com\/5165\/5362356631_4f82b872d5.jpg","height_m":"399","width_m":"500"},{"id":"14236242223","owner":"16578975@N08","secret":"7cd31e7d31","server":"2940","farm":3,"title":"Dog","ispublic":1,"isfriend":0,"isfamily":0,"dateupload":"1400445149","views":"25798","url_s":"https:\/\/live.staticflickr.com\/2940\/14236242223_7cd31e7d31_m.jpg","height_s":"170","width_s":"240","url_m":"https:\/\/live.staticflickr.com\/2940\/14236242223_7cd31e7d31.jpg","height_m":"354","width_m":"500"},{"id":"392331607","owner":"84081008@N00","secret":"a1d5c9ff2c","server":"164","farm":1,"title":"Dog","ispublic":1,"isfriend":0,"isfamily":0,"dateupload":"1171659237","views":"17034","url_s":"https:\/\/live.staticflickr.com\/164\/392331607_a1d5c9ff2c_m.jpg","height_s":"180","width_s":"240","url_m":"https:\/\/live.staticflickr.com\/164\/392331607_a1d5c9ff2c.jpg","height_m":"375","width_m":"500"},{"id":"10621815755","owner":"77111113@N03","secret":"62155c5371","server":"5518","farm":6,"title":"Dogs","ispublic":1,"isfriend":0,"isfamily":0,"dateupload":"1383378011","views":"74583","url_s":"https:\/\/live.staticflickr.com\/5518\/10621815755_62155c5371_m.jpg","height_s":"138","width_s":"240","url_m":"https:\/\/live.staticflickr.com\/5518\/10621815755_62155c5371.jpg","height_m":"287","width_m":"500"},{"id":"37926278794","owner":"8114397@N03","secret":"b1dea91805","server":"4566","farm":5,"title":"Dog","ispublic":1,"isfriend":0,"isfamily":0,"dateupload":"1511653341","views":"34483","url_s":"https:\/\/live.staticflickr.com\/4566\/37926278794_b1dea91805_m.jpg","height_s":"161","width_s":"240","url_m":"https:\/\/live.staticflickr.com\/4566\/37926278794_b1dea91805.jpg","height_m":"335","width_m":"500"},{"id":"6780956973","owner":"54169606@N05","secret":"ece44e270e","server":"7018","farm":8,"title":"Dog","ispublic":1,"isfriend":0,"isfamily":0,"dateupload":"1327828355","views":"10080","url_s":"https:\/\/live.staticflickr.com\/7018\/6780956973_ece44e270e_m.jpg","height_s":"180","width_s":"240","url_m":"https:\/\/live.staticflickr.com\/7018\/6780956973_ece44e270e.jpg","height_m":"375","width_m":"500"},{"id":"8367960514","owner":"26473023@N03","secret":"d74dca8f08","server":"8363","farm":9,"title":"dogs","ispublic":1,"isfriend":0,"isfamily":0,"dateupload":"1357831619","views":"28421","url_s":"https:\/\/live.staticflickr.com\/8363\/8367960514_d74dca8f08_m.jpg","height_s":"162","width_s":"240","url_m":"https:\/\/live.staticflickr.com\/8363\/8367960514_d74dca8f08.jpg","height_m":"337","width_m":"500"},{"id":"12876827304","owner":"100640170@N05","secret":"5041522e1e","server":"3812","farm":4,"title":"Dogs","ispublic":1,"isfriend":0,"isfamily":0,"dateupload":"1393762871","views":"40141","url_s":"https:\/\/live.staticflickr.com\/3812\/12876827304_5041522e1e_m.jpg","height_s":"240","width_s":"159","url_m":"https:\/\/live.staticflickr.com\/3812\/12876827304_5041522e1e.jpg","height_m":"500","width_m":"331"},{"id":"6957883832","owner":"79016393@N07","secret":"7be6046c23","server":"8018","farm":9,"title":"Dog","ispublic":1,"isfriend":0,"isfamily":0,"dateupload":"1335134283","views":"42937","url_s":"https:\/\/live.staticflickr.com\/8018\/6957883832_7be6046c23_m.jpg","height_s":"160","width_s":"240","url_m":"https:\/\/live.staticflickr.com\/8018\/6957883832_7be6046c23.jpg","height_m":"334","width_m":"500"},{"id":"9230250931","owner":"53270169@N08","secret":"4582526e53","server":"7366","farm":8,"title":"Dog *-*","ispublic":1,"isfriend":0,"isfamily":0,"dateupload":"1373218449","views":"30983","url_s":"https:\/\/live.staticflickr.com\/7366\/9230250931_4582526e53_m.jpg","height_s":"180","width_s":"240","url_m":"https:\/\/live.staticflickr.com\/7366\/9230250931_4582526e53.jpg","height_m":"375","width_m":"500"},{"id":"29615619052","owner":"90355165@N03","secret":"96b4deb600","server":"8102","farm":9,"title":"dog","ispublic":1,"isfriend":0,"isfamily":0,"dateupload":"1474065120","views":"16790","url_s":"https:\/\/live.staticflickr.com\/8102\/29615619052_96b4deb600_m.jpg","height_s":"225","width_s":"240","url_m":"https:\/\/live.staticflickr.com\/8102\/29615619052_96b4deb600.jpg","height_m":"469","width_m":"500"},{"id":"6051789855","owner":"57455030@N07","secret":"54ea26c967","server":"6189","farm":7,"title":"Dog","ispublic":1,"isfriend":0,"isfamily":0,"dateupload":"1313564822","views":"32837","url_s":"https:\/\/live.staticflickr.com\/6189\/6051789855_54ea26c967_m.jpg","height_s":"162","width_s":"240","url_m":"https:\/\/live.staticflickr.com\/6189\/6051789855_54ea26c967.jpg","height_m":"338","width_m":"500"},{"id":"5514206982","owner":"57647512@N08","secret":"c8acb517ee","server":"5259","farm":6,"title":"dog","ispublic":1,"isfriend":0,"isfamily":0,"dateupload":"1299733304","views":"75221","url_s":"https:\/\/live.staticflickr.com\/5259\/5514206982_c8acb517ee_m.jpg","height_s":"121","width_s":"240","url_m":"https:\/\/live.staticflickr.com\/5259\/5514206982_c8acb517ee.jpg","height_m":"252","width_m":"500"},{"id":"38863408200","owner":"154291164@N04","secret":"7e7dc958aa","server":"4795","farm":5,"title":"Dog","ispublic":1,"isfriend":0,"isfamily":0,"dateupload":"1520436972","views":"18040","url_s":"https:\/\/live.staticflickr.com\/4795\/38863408200_7e7dc958aa_m.jpg","height_s":"160","width_s":"240","url_m":"https:\/\/live.staticflickr.com\/4795\/38863408200_7e7dc958aa.jpg","height_m":"333","width_m":"500"},{"id":"5707422101","owner":"41350361@N04","secret":"7109621d3b","server":"3358","farm":4,"title":"Dog","ispublic":1,"isfriend":0,"isfamily":0,"dateupload":"1305053877","views":"34196","url_s":"https:\/\/live.staticflickr.com\/3358\/5707422101_7109621d3b_m.jpg","height_s":"160","width_s":"240","url_m":"https:\/\/live.staticflickr.com\/3358\/5707422101_7109621d3b.jpg","height_m":"333","width_m":"500"},{"id":"13488390503","owner":"11015562@N04","secret":"aaf595d012","server":"7437","farm":8,"title":"Dog","ispublic":1,"isfriend":0,"isfamily":0,"dateupload":"1396105857","views":"36795","url_s":"https:\/\/live.staticflickr.com\/7437\/13488390503_aaf595d012_m.jpg","height_s":"160","width_s":"240","url_m":"https:\/\/live.staticflickr.com\/7437\/13488390503_aaf595d012.jpg","height_m":"333","width_m":"500"},{"id":"13882005454","owner":"78970829@N05","secret":"5f10bdbfcd","server":"2879","farm":3,"title":"Dog","ispublic":1,"isfriend":0,"isfamily":0,"dateupload":"1526910585","views":"41483","url_s":"https:\/\/live.staticflickr.com\/2879\/13882005454_5f10bdbfcd_m.jpg","height_s":"160","width_s":"240","url_m":"https:\/\/live.staticflickr.com\/2879\/13882005454_5f10bdbfcd.jpg","height_m":"333","width_m":"500"},{"id":"15514553743","owner":"13523064@N03","secret":"6c1c8dc053","server":"8569","farm":9,"title":"Dogs","ispublic":1,"isfriend":0,"isfamily":0,"dateupload":"1419824066","views":"38668","url_s":"https:\/\/live.staticflickr.com\/8569\/15514553743_6c1c8dc053_m.jpg","height_s":"240","width_s":"160","url_m":"https:\/\/live.staticflickr.com\/8569\/15514553743_6c1c8dc053.jpg","height_m":"500","width_m":"334"}]},"stat":"ok"}